9.vcd
$date
	Wed Jun 22 17:35:16 2022
$end
$version
	GTKWave Analyzer v3.3.103 (w)1999-2019 BSI
$end
$timescale
	1ps
$end
$scope module TOP $end
$scope module top $end
$scope module memory $end
$scope module dcache_controller $end
$scope module data_cache_sram $end
$var wire 32 9 dcache_sram[9] [7][31:0] $end
$var wire 32 8 dcache_sram[9] [6][31:0] $end
$var wire 32 7 dcache_sram[9] [5][31:0] $end
$var wire 32 6 dcache_sram[9] [4][31:0] $end
$var wire 32 5 dcache_sram[9] [3][31:0] $end
$var wire 32 4 dcache_sram[9] [2][31:0] $end
$var wire 32 3 dcache_sram[9] [1][31:0] $end
$var wire 32 2 dcache_sram[9] [0][31:0] $end
$var wire 32 i dcache_sram[15] [7][31:0] $end
$var wire 32 h dcache_sram[15] [6][31:0] $end
$var wire 32 g dcache_sram[15] [5][31:0] $end
$var wire 32 f dcache_sram[15] [4][31:0] $end
$var wire 32 e dcache_sram[15] [3][31:0] $end
$var wire 32 d dcache_sram[15] [2][31:0] $end
$var wire 32 c dcache_sram[15] [1][31:0] $end
$var wire 32 b dcache_sram[15] [0][31:0] $end
$var wire 32 a dcache_sram[14] [7][31:0] $end
$var wire 32 ` dcache_sram[14] [6][31:0] $end
$var wire 32 _ dcache_sram[14] [5][31:0] $end
$var wire 32 ^ dcache_sram[14] [4][31:0] $end
$var wire 32 ] dcache_sram[14] [3][31:0] $end
$var wire 32 \ dcache_sram[14] [2][31:0] $end
$var wire 32 [ dcache_sram[14] [1][31:0] $end
$var wire 32 Z dcache_sram[14] [0][31:0] $end
$var wire 32 Y dcache_sram[13] [7][31:0] $end
$var wire 32 X dcache_sram[13] [6][31:0] $end
$var wire 32 W dcache_sram[13] [5][31:0] $end
$var wire 32 V dcache_sram[13] [4][31:0] $end
$var wire 32 U dcache_sram[13] [3][31:0] $end
$var wire 32 T dcache_sram[13] [2][31:0] $end
$var wire 32 S dcache_sram[13] [1][31:0] $end
$var wire 32 R dcache_sram[13] [0][31:0] $end
$var wire 32 Q dcache_sram[12] [7][31:0] $end
$var wire 32 P dcache_sram[12] [6][31:0] $end
$var wire 32 O dcache_sram[12] [5][31:0] $end
$var wire 32 N dcache_sram[12] [4][31:0] $end
$var wire 32 M dcache_sram[12] [3][31:0] $end
$var wire 32 L dcache_sram[12] [2][31:0] $end
$var wire 32 K dcache_sram[12] [1][31:0] $end
$var wire 32 J dcache_sram[12] [0][31:0] $end
$var wire 32 I dcache_sram[11] [7][31:0] $end
$var wire 32 H dcache_sram[11] [6][31:0] $end
$var wire 32 G dcache_sram[11] [5][31:0] $end
$var wire 32 F dcache_sram[11] [4][31:0] $end
$var wire 32 E dcache_sram[11] [3][31:0] $end
$var wire 32 A dcache_sram[10] [7][31:0] $end
$var wire 32 @ dcache_sram[10] [6][31:0] $end
$var wire 32 ? dcache_sram[10] [5][31:0] $end
$var wire 32 > dcache_sram[10] [4][31:0] $end
$var wire 32 = dcache_sram[10] [3][31:0] $end
$var wire 32 < dcache_sram[10] [2][31:0] $end
$var wire 32 ; dcache_sram[10] [1][31:0] $end
$var wire 32 : dcache_sram[10] [0][31:0] $end
$var wire 32 B dcache_sram[11] [0][31:0] $end
$var wire 32 D dcache_sram[11] [2][31:0] $end
$upscope $end
$upscope $end
$upscope $end
$scope module datapath $end
$var wire 12 * PC[11:0] $end
$upscope $end
$scope module memory $end
$scope module dcache_controller $end
$scope module data_cache_sram $end
$var wire 32 C dcache_sram[11] [1][31:0] $end
$upscope $end
$upscope $end
$upscope $end
$scope module datapath $end
$var wire 32 $ RF[8] [31:0] $end
$var wire 32 & RF[7] [31:0] $end
$var wire 32 ( RF[4] [31:0] $end
$var wire 32 ' RF[3] [31:0] $end
$var wire 32 % RF[5] [31:0] $end
$var wire 32 # RF[2] [31:0] $end
$var wire 32 / RF[29] [31:0] $end
$var wire 32 + RF[27] [31:0] $end
$var wire 32 " RF[1] [31:0] $end
$var wire 32 . RF[16] [31:0] $end
$var wire 32 - RF[15] [31:0] $end
$var wire 32 0 RF[13] [31:0] $end
$var wire 32 , RF[12] [31:0] $end
$var wire 32 1 RF[10] [31:0] $end
$var wire 8 ) Op[7:0] $end
$upscope $end
$upscope $end
$upscope $end
$enddefinitions $end
#8
$dumpvars
b0 #
b0 A
b0 _
b0 0
b0 /
b0 6
b0 9
b0 8
b0 R
b0 2
b0 b
b0 -
b0 "
b0 +
b0 Q
b0 P
b0 .
b0 a
b0 M
b0 i
b0 ,
b0 O
b0 1
b0 )
b0 `
b0 N
b0 [
b0 I
b0 5
b0 L
b0 K
b0 J
b0 h
b0 ^
b0 E
b0 G
b0 ]
b0 H
b0 F
b0 g
b0 \
b0 %
b0 W
b0 >
b0 4
b0 @
b0 7
b0 ?
b0 f
b0 Z
b0 :
b0 <
b0 Y
b0 =
b0 ;
b0 e
b0 X
b0 S
b0 C
b0 3
b0 B
b0 D
b0 *
b0 d
b0 V
b0 '
b0 &
b0 U
b0 $
b0 (
b0 c
b0 T
$end
#390
b11 )
b100 *
#400
b1000 *
#410
b1100 *
#420
b10000 *
#425
b1100100000 "
#430
b10100 *
b110001 )
#440
b11 )
b11000 *
#450
b11100 *
#455
b1 %
#820
b1000 9
b1010 6
b11 2
b1001 8
b111 5
b110 7
b101 4
b1 3
#830
b100000 *
b1000001 )
#835
b11 '
#1210
b0 )
#1215
b1100100100 "
#1225
b1 #
#1230
b10000 *
#1240
b10100 *
b110001 )
#1250
b11 )
b11000 *
#1260
b11100 *
#1270
b100000 *
b1000001 )
#1275
b1 '
#1280
b0 )
#1285
b1100101000 "
#1295
b10 #
#1300
b10000 *
#1310
b10100 *
b110001 )
#1320
b11 )
b11000 *
#1330
b11100 *
#1340
b100000 *
b1000001 )
#1345
b101 '
#1350
b0 )
#1355
b1100101100 "
#1365
b11 #
#1370
b10000 *
#1380
b10100 *
b110001 )
#1390
b11 )
b11000 *
#1400
b11100 *
#1410
b100000 *
b1000001 )
#1415
b111 '
#1420
b0 )
#1425
b1100110000 "
#1435
b100 #
#1440
b10000 *
#1450
b10100 *
b110001 )
#1460
b11 )
b11000 *
#1470
b11100 *
#1480
b100000 *
b1000001 )
#1485
b1010 '
#1490
b0 )
#1495
b1100110100 "
#1505
b101 #
#1510
b10000 *
#1520
b10100 *
b110001 )
#1530
b11 )
b11000 *
#1540
b11100 *
#1550
b100000 *
b1000001 )
#1555
b110 '
#1560
b0 )
#1565
b1100111000 "
#1575
b110 #
#1580
b10000 *
#1590
b10100 *
b110001 )
#1600
b11 )
b11000 *
#1610
b11100 *
#1620
b100000 *
b1000001 )
#1625
b1001 '
#1630
b0 )
#1635
b1100111100 "
#1645
b111 #
#1650
b10000 *
#1660
b10100 *
b110001 )
#1670
b11 )
b11000 *
#1680
b11100 *
#1690
b100000 *
b1000001 )
#1695
b1000 '
#1700
b0 )
#1705
b1101000000 "
#1715
b1000 #
#1720
b10000 *
#1730
b10100 *
b110001 )
#1740
b11 )
b11000 *
#1750
b11100 *
#2130
b100000 *
b1000001 )
#2135
b0 '
#2140
b0 )
#2145
b1101000100 "
#2155
b1001 #
#2170
b100100 *
b11 )
#2180
b101000 *
#2190
b101100 *
#2200
b110000 *
#2205
b1000 #
#2210
b110100 *
b1000000 )
#2215
b1100100000 "
#2220
b0 )
b111000 *
#2225
b1 '
#2230
b111100 *
b111001 )
#2235
b111 &
#2240
b0 )
#2270
b10011 )
b1000000 *
#2650
b1000100 *
b11 )
#2660
b1000000 )
b1001000 *
#2670
b1001100 *
b0 )
#2675
b10 '
#2680
b1000001 )
b1010000 *
#2690
b0 )
#2695
b1 $
#2720
b1000 )
b1010100 *
#2730
b1011000 *
b10011 )
#2740
b11 )
b1011100 *
#2750
b1100000 *
b1000000 )
#3130
b0 )
b1100100 *
#3140
b1101000 *
b111001 )
#3150
b0 )
#3170
b10001000 *
#3550
b10001100 *
b1000 )
#3560
b100 )
b10010000 *
#3570
b1101100 *
b0 )
#3580
b1000 )
b1110000 *
#3590
b1110100 *
b11 )
#3600
b1000000 )
b1111000 *
#3610
b1111100 *
b0 )
#3615
b100 +
#3620
b111001 )
b10000000 *
#3625
b11 +
#3630
b0 )
#3650
b10010000 *
#3660
b10010100 *
b1000 )
#3670
b10011 )
b10011000 *
#3680
b10011100 *
b1000 )
#3690
b10000 )
b10100000 *
#3695
b11 ,
#4070
b10100100 *
b1000 )
#4080
b10000 )
b10101000 *
#4085
b1 1
#4090
b10101100 *
b10011 )
#4100
b10110000 *
#4110
b10110100 *
b10000 )
#4120
b11 )
b10111000 *
#4125
b100 .
#4130
b10111100 *
b10011 )
#4135
b100 1
#4140
b1000 )
b11000000 *
#4520
b11000100 *
#4530
b11001000 *
b11 )
#4540
b1000000 )
b11001100 *
#4545
b1100100100 .
#4550
b11010000 *
b0 )
#4555
b1100100000 -
#4560
b1000001 )
b11010100 *
#4565
b1100101000 .
#4570
b0 )
#4600
b1000 )
b11011000 *
#4610
b11011100 *
#4620
b11100000 *
b110001 )
#5000
b11 )
b11100100 *
#5010
b11101000 *
b0 )
#5020
b11001 )
b11101100 *
#5025
b11 /
#5030
b11110000 *
b100 )
#5035
b100 0
#5040
b0 )
b11001000 *
#5420
b11001100 *
b1000000 )
b11 B
#5430
b11010000 *
b0 )
#5440
b1000001 )
b11010100 *
#5450
b0 )
#5480
b1000 )
b11011000 *
#5490
b11011100 *
#5500
b11100000 *
b110001 )
#5510
b11 )
b11100100 *
#5520
b11101000 *
b0 )
#5525
b1100100100 -
#5530
b11001 )
b11101100 *
#5535
b1 /
#5540
b11110000 *
b100 )
#5545
b1000 0
#5550
b0 )
b11001000 *
#5560
b11001100 *
b1000000 )
b1 C
#5570
b0 )
b11010000 *
#5580
b11010100 *
b1000001 )
#5590
b0 )
#5595
b0 $
#5610
b11110000 *
#5620
b11110100 *
b1000000 )
#5630
b0 )
b11111000 *
#5640
b11111100 *
b1000001 )
#5650
b0 )
#5655
b1 $
#5680
b1000 )
b100000000 *
#6060
b100000100 *
#6070
b100001000 *
b110001 )
#6080
b11 )
b100001100 *
#6090
b100010000 *
b0 )
#6100
b11001 )
b100010100 *
#6105
b101 /
#6110
b100011000 *
b100 )
#6120
b0 )
b11110000 *
#6500
b11110100 *
b101 R
b1000000 )
#6510
b0 )
b11111000 *
#6520
b11111100 *
b1000001 )
#6530
b0 )
#6560
b1000 )
b100000000 *
#6570
b100000100 *
#6580
b100001000 *
b110001 )
#6590
b11 )
b100001100 *
#6600
b100010000 *
b0 )
#6605
b1100101100 .
#6610
b11001 )
b100010100 *
#6615
b111 /
#6620
b100011000 *
b100 )
#6630
b0 )
b11110000 *
#6640
b11110100 *
b1000000 )
b111 S
#6650
b11111000 *
b0 )
#6660
b1000001 )
b11111100 *
#6670
b0 )
#6675
b0 $
#6690
b100011000 *
#6700
b100011100 *
b11 )
#6710
b100100000 *
#7090
b100100100 *
b1000 )
#7100
b1000000 )
b100101000 *
#7110
b100101100 *
b0 )
#7115
b0 0
#7120
b1000001 )
b100110000 *
#7130
b0 )
#7135
b1 $
#7160
b1000000 )
b100110100 *
#7170
b100111000 *
b0 )
#7180
b1000001 )
b100111100 *
#7190
b0 )
#7220
b1000 )
b101000000 *
#7600
b101000100 *
#7610
b101001000 *
b110001 )
#7620
b101001100 *
#7625
b100101100000 -
#7630
b101010000 *
b1000000 )
#7635
b111110100000 .
#7645
b11 /
#7650
b0 )
b101010100 *
#7660
b101011000 *
b1000001 )
#7665
b0 $
#7670
b0 )
#7675
b1 $
#7700
b11001 )
b101011100 *
#7710
b101100000 *
b11 )
#8090
b101100100 *
#8100
b101101000 *
b100 )
#8110
b0 )
b100100100 *
#8115
b100 0
#8120
b100101000 *
b1000000 )
#8130
b0 )
b100101100 *
#8140
b100110000 *
b1000001 )
#8150
b0 )
#8180
b1000000 )
b100110100 *
#8190
b100111000 *
b0 )
#8200
b1000001 )
b100111100 *
#8210
b0 )
#8240
b1000 )
b101000000 *
#8250
b101000100 *
#8260
b101001000 *
b110001 )
#8270
b101001100 *
#8275
b100101100100 -
#8280
b101010000 *
b1000000 )
#8295
b1 /
#8300
b0 )
b101010100 *
#8310
b101011000 *
b1000001 )
#8320
b0 )
#8350
b11001 )
b101011100 *
#8360
b101100000 *
b11 )
#8370
b101100100 *
#8380
b101101000 *
b100 )
#8390
b0 )
b100100100 *
#8395
b1000 0
#8400
b100101000 *
b1000000 )
#8410
b0 )
b100101100 *
#8420
b100110000 *
b1000001 )
#8430
b0 )
#8435
b0 $
#8450
b110011100 *
#8830
b110100000 *
b11 )
#9210
b0 )
b110100100 *
#9220
b110101000 *
b1000001 )
#9230
b0 )
#9250
b10001000 *
#9630
b10001100 *
b1000 )
#9640
b100 )
b10010000 *
#9650
b1101100 *
b0 )
#10030
b1110000 *
#10040
b1110100 *
b111001 )
#10050
b0 )
#10080
b1000 )
b1111000 *
#10090
b1111100 *
b100 )
#10100
b0 )
b10011100 *
#10110
b10100000 *
b10000 )
#10115
b111 ,
#10490
b1000 )
b10100100 *
#10500
b10101000 *
b10000 )
#10510
b10011 )
b10101100 *
#10520
b10110000 *
#10525
b1 1
#10530
b10110100 *
b10000 )
#10540
b11 )
b10111000 *
#10545
b100 .
#10550
b10111100 *
b10011 )
#10555
b100 1
#10560
b1000 )
b11000000 *
#10570
b11000100 *
#10580
b11001000 *
b11 )
#10590
b1000000 )
b11001100 *
#10595
b1100100100 .
#10600
b11010000 *
b0 )
#10605
b110010000100 -
#10610
b1000001 )
b11010100 *
#10615
b1100101000 .
#10620
b0 )
#10640
b11110000 *
#10650
b11110100 *
b1000000 )
#10660
b0 )
b11111000 *
#10670
b11111100 *
b1000001 )
#10680
b0 )
#10685
b1 $
#10710
b100000000 *
b1000 )
#10720
b100000100 *
#10730
b100001000 *
b110001 )
#10740
b11 )
b100001100 *
#10750
b100010000 *
b0 )
#10760
b11001 )
b100010100 *
#10765
b101 /
#10770
b100011000 *
b100 )
#10780
b0 )
b11110000 *
#10790
b11110100 *
b1000000 )
#10800
b0 )
b11111000 *
#10810
b11111100 *
b1000001 )
#10820
b0 )
#10850
b1000 )
b100000000 *
#10860
b100000100 *
#10870
b100001000 *
b110001 )
#10880
b11 )
b100001100 *
#10890
b100010000 *
b0 )
#10895
b1100101100 .
#10900
b11001 )
b100010100 *
#10905
b111 /
#10910
b100011000 *
b100 )
#10920
b0 )
b11110000 *
#10930
b11110100 *
b1000000 )
#10940
b0 )
b11111000 *
#10950
b11111100 *
b1000001 )
#10960
b0 )
#10990
b1000 )
b100000000 *
#11000
b100000100 *
#11010
b100001000 *
b110001 )
#11020
b11 )
b100001100 *
#11030
b100010000 *
b0 )
#11035
b1100110100 .
#11040
b11001 )
b100010100 *
#11045
b110 /
#11050
b100011000 *
b100 )
#11060
b0 )
b11110000 *
#11070
b11110100 *
b110 T
b1000000 )
#11080
b0 )
b11111000 *
#11090
b11111100 *
b1000001 )
#11100
b0 )
#11130
b1000 )
b100000000 *
#11140
b100000100 *
#11150
b100001000 *
b110001 )
#11160
b11 )
b100001100 *
#11170
b100010000 *
b0 )
#11175
b1101000000 .
#11180
b100010100 *
b11001 )
#11185
b0 /
#11190
b100 )
b100011000 *
#11200
b11110000 *
b0 )
#11210
b1000000 )
b11110100 *
#11220
b11111000 *
b0 )
#11230
b1000001 )
b11111100 *
#11240
b0 )
#11270
b1000 )
b100000000 *
#11280
b100000100 *
#11290
b100001000 *
b110001 )
#11300
b11 )
b100001100 *
#11310
b100010000 *
b0 )
#11315
b1101010000 .
#11320
b11001 )
b100010100 *
#11330
b100011000 *
b100 )
#11340
b0 )
b11110000 *
#11350
b11110100 *
b1000000 )
#11360
b0 )
b11111000 *
#11370
b11111100 *
b1000001 )
#11380
b0 )
#11410
b1000 )
b100000000 *
#11420
b100000100 *
#11430
b100001000 *
b110001 )
#11440
b11 )
b100001100 *
#11450
b100010000 *
b0 )
#11455
b1101100100 .
#12240
b0 B
b0 C
#12250
b11001 )
b100010100 *
#12260
b100011000 *
b100 )
#12270
b0 )
b11110000 *
#12280
b11110100 *
b1000000 )
#12290
b0 )
b11111000 *
#12300
b11111100 *
b1000001 )
#12310
b0 )
#12315
b0 $
#12330
b100011000 *
#12340
b100011100 *
b11 )
#12350
b100100000 *
#12360
b100100100 *
b1000 )
#12370
b1000000 )
b100101000 *
#12380
b100101100 *
b0 )
#12385
b0 0
#12390
b1000001 )
b100110000 *
#12400
b0 )
#12405
b1 $
#12430
b100110100 *
b1000000 )
#12440
b0 )
b100111000 *
#12450
b100111100 *
b1000001 )
#12460
b0 )
#12490
b1000 )
b101000000 *
#12500
b101000100 *
#12510
b101001000 *
b110001 )
#12520
b101001100 *
#12525
b100101100000 -
#12530
b101010000 *
b1000000 )
#12535
b111110100000 .
#12900
b11 C
b1 D
#12920
b0 )
b101010100 *
#12930
b101011000 *
b1000001 )
#12940
b0 )
#12970
b11001 )
b101011100 *
#12980
b101100000 *
b11 )
#13360
b101100100 *
#13370
b101101000 *
b0 2
b100 )
#13380
b0 )
b100100100 *
#13385
b100 0
#13390
b100101000 *
b1000000 )
#13400
b0 )
b100101100 *
#13410
b100110000 *
b1000001 )
#13420
b0 )
#13450
b1000000 )
b100110100 *
#13460
b100111000 *
b0 )
#13470
b1000001 )
b100111100 *
#13480
b0 )
#13510
b1000 )
b101000000 *
#13520
b101000100 *
#13530
b101001000 *
b110001 )
#13540
b101001100 *
#13545
b100101100100 -
#13550
b101010000 *
b1000000 )
#13565
b11 /
#13570
b0 )
b101010100 *
#13580
b101011000 *
b1000001 )
#13590
b0 )
#13620
b11001 )
b101011100 *
#13630
b101100000 *
b11 )
#13640
b101100100 *
#13650
b101101000 *
b100 )
b11 3
#13660
b100100100 *
b0 )
#13665
b1000 0
#13670
b1000000 )
b100101000 *
#13680
b100101100 *
b0 )
#13690
b1000001 )
b100110000 *
#13700
b0 )
#13705
b0 $
#13720
b110011100 *
#14100
b110100000 *
b11 )
#14480
b0 )
b110100100 *
#14490
b110101000 *
b1000001 )
#14500
b0 )
#14520
b10001000 *
#14900
b10001100 *
b1000 )
#14910
b100 )
b10010000 *
#14920
b1101100 *
b0 )
#15300
b1110000 *
#15310
b1110100 *
b111001 )
#15320
b0 )
#15350
b1000 )
b1111000 *
#15360
b1111100 *
b100 )
#15370
b0 )
b10011100 *
#15380
b10100000 *
b10000 )
#15760
b1000 )
b10100100 *
#15770
b10101000 *
b10000 )
#15780
b10011 )
b10101100 *
#15790
b10110000 *
#15795
b1 1
#15800
b10110100 *
b10000 )
#15810
b11 )
b10111000 *
#15815
b100 .
#15820
b10111100 *
b10011 )
#15825
b100 1
#15830
b1000 )
b11000000 *
#15840
b11000100 *
#15850
b11001000 *
b11 )
#15860
b1000000 )
b11001100 *
#15865
b1100100100 .
#15870
b11010000 *
b0 )
#15875
b110010000100 -
#15880
b1000001 )
b11010100 *
#15885
b1100101000 .
#15890
b0 )
#15910
b11110000 *
#15920
b11110100 *
b1000000 )
#15930
b0 )
b11111000 *
#15940
b11111100 *
b1000001 )
#15950
b0 )
#15955
b1 $
#15980
b100000000 *
b1000 )
#15990
b100000100 *
#16000
b100001000 *
b110001 )
#16010
b11 )
b100001100 *
#16020
b100010000 *
b0 )
#16030
b11001 )
b100010100 *
#16035
b101 /
#16040
b100011000 *
b100 )
#16050
b0 )
b11110000 *
#16060
b11110100 *
b1000000 )
#16070
b0 )
b11111000 *
#16080
b11111100 *
b1000001 )
#16090
b0 )
#16120
b1000 )
b100000000 *
#16130
b100000100 *
#16140
b100001000 *
b110001 )
#16150
b11 )
b100001100 *
#16160
b100010000 *
b0 )
#16165
b1100101100 .
#16170
b11001 )
b100010100 *
#16175
b111 /
#16180
b100011000 *
b100 )
#16190
b0 )
b11110000 *
#16200
b11110100 *
b1000000 )
#16210
b0 )
b11111000 *
#16220
b11111100 *
b1000001 )
#16230
b0 )
#16260
b1000 )
b100000000 *
#16270
b100000100 *
#16280
b100001000 *
b110001 )
#16290
b11 )
b100001100 *
#16300
b100010000 *
b0 )
#16305
b1100110100 .
#16310
b11001 )
b100010100 *
#16315
b110 /
#16320
b100011000 *
b100 )
#16330
b0 )
b11110000 *
#16340
b11110100 *
b1000000 )
#16350
b0 )
b11111000 *
#16360
b11111100 *
b1000001 )
#16370
b0 )
#16400
b1000 )
b100000000 *
#16410
b100000100 *
#16420
b100001000 *
b110001 )
#16430
b11 )
b100001100 *
#16440
b100010000 *
b0 )
#16445
b1101000000 .
#16450
b11001 )
b100010100 *
#16455
b0 /
#16460
b100011000 *
b100 )
#16470
b0 )
b11110000 *
#16480
b11110100 *
b1000000 )
#16490
b0 )
b11111000 *
#16500
b11111100 *
b1000001 )
#16510
b0 )
#16540
b1000 )
b100000000 *
#16550
b100000100 *
#16560
b100001000 *
b110001 )
#16570
b11 )
b100001100 *
#16580
b100010000 *
b0 )
#16585
b1101010000 .
#16590
b11001 )
b100010100 *
#16600
b100011000 *
b100 )
#16610
b0 )
b11110000 *
#16620
b11110100 *
b1000000 )
#16630
b0 )
b11111000 *
#16640
b11111100 *
b1000001 )
#16650
b0 )
#16680
b1000 )
b100000000 *
#16690
b100000100 *
#16700
b100001000 *
b110001 )
#16710
b11 )
b100001100 *
#16720
b100010000 *
b0 )
#16725
b1101100100 .
#17090
b0 D
b0 C
#17100
b11001 )
b100010100 *
#17110
b100011000 *
b100 )
#17120
b0 )
b11110000 *
#17130
b11110100 *
b1000000 )
#17140
b0 )
b11111000 *
#17150
b11111100 *
b1000001 )
#17160
b0 )
#17165
b0 $
#17180
b100011000 *
#17190
b100011100 *
b11 )
#17200
b100100000 *
#17210
b100100100 *
b1000 )
#17220
b1000000 )
b100101000 *
#17230
b100101100 *
b0 )
#17235
b0 0
#17240
b1000001 )
b100110000 *
#17250
b0 )
#17255
b1 $
#17280
b100110100 *
b1000000 )
#17290
b0 )
b100111000 *
#17300
b100111100 *
b1000001 )
#17310
b0 )
#17340
b1000 )
b101000000 *
#17350
b101000100 *
#17360
b101001000 *
b110001 )
#17370
b101001100 *
#17375
b100101100000 -
#17380
b101010000 *
b1000000 )
#17385
b111110100000 .
#17750
b11 C
b1 D
#17770
b0 )
b101010100 *
#17780
b101011000 *
b1000001 )
#17790
b0 )
#17820
b11001 )
b101011100 *
#17830
b101100000 *
b11 )
#18210
b101100100 *
#18220
b101101000 *
b100 )
#18230
b0 )
b100100100 *
#18235
b100 0
#18240
b100101000 *
b1000000 )
#18250
b0 )
b100101100 *
#18260
b100110000 *
b1000001 )
#18270
b0 )
#18300
b1000000 )
b100110100 *
#18310
b100111000 *
b0 )
#18320
b1000001 )
b100111100 *
#18330
b0 )
#18360
b1000 )
b101000000 *
#18370
b101000100 *
#18380
b101001000 *
b110001 )
#18390
b101001100 *
#18395
b100101100100 -
#18400
b101010000 *
b1000000 )
#18415
b11 /
#18420
b0 )
b101010100 *
#18430
b101011000 *
b1000001 )
#18440
b0 )
#18470
b11001 )
b101011100 *
#18480
b101100000 *
b11 )
#18490
b101100100 *
#18500
b101101000 *
b100 )
#18510
b0 )
b100100100 *
#18515
b1000 0
#18520
b100101000 *
b1000000 )
#18530
b0 )
b100101100 *
#18540
b100110000 *
b1000001 )
#18550
b0 )
#18555
b0 $
#18570
b110011100 *
#18950
b110100000 *
b11 )
#19330
b0 )
b110100100 *
#19340
b110101000 *
b1000001 )
#19350
b0 )
#19370
b10001000 *
#19750
b10001100 *
b1000 )
#19760
b100 )
b10010000 *
#19770
b1101100 *
b0 )
#20150
b1110000 *
#20160
b1110100 *
b111001 )
#20170
b0 )
#20200
b1000 )
b1111000 *
#20210
b1111100 *
b100 )
#20220
b0 )
b10011100 *
#20230
b10100000 *
b10000 )
#20610
b1000 )
b10100100 *
#20620
b10101000 *
b10000 )
#20630
b10011 )
b10101100 *
#20640
b10110000 *
#20645
b1 1
#20650
b10110100 *
b10000 )
#20660
b11 )
b10111000 *
#20665
b100 .
#20670
b10111100 *
b10011 )
#20675
b100 1
#20680
b1000 )
b11000000 *
#20690
b11000100 *
#20700
b11001000 *
b11 )
#20710
b1000000 )
b11001100 *
#20715
b1100100100 .
#20720
b11010000 *
b0 )
#20725
b110010000100 -
#20730
b1000001 )
b11010100 *
#20735
b1100101000 .
#20740
b0 )
#20760
b11110000 *
#20770
b11110100 *
b1000000 )
#20780
b0 )
b11111000 *
#20790
b11111100 *
b1000001 )
#20800
b0 )
#20805
b1 $
#20830
b100000000 *
b1000 )
#20840
b100000100 *
#20850
b100001000 *
b110001 )
#20860
b11 )
b100001100 *
#20870
b100010000 *
b0 )
#20880
b11001 )
b100010100 *
#20885
b101 /
#20890
b100011000 *
b100 )
#20900
b0 )
b11110000 *
#20910
b11110100 *
b1000000 )
#20920
b0 )
b11111000 *
#20930
b11111100 *
b1000001 )
#20940
b0 )
#20970
b1000 )
b100000000 *
#20980
b100000100 *
#20990
b100001000 *
b110001 )
#21000
b11 )
b100001100 *
#21010
b100010000 *
b0 )
#21015
b1100101100 .
#21020
b11001 )
b100010100 *
#21025
b111 /
#21030
b100011000 *
b100 )
#21040
b0 )
b11110000 *
#21050
b11110100 *
b1000000 )
#21060
b0 )
b11111000 *
#21070
b11111100 *
b1000001 )
#21080
b0 )
#21110
b1000 )
b100000000 *
#21120
b100000100 *
#21130
b100001000 *
b110001 )
#21140
b11 )
b100001100 *
#21150
b100010000 *
b0 )
#21155
b1100110100 .
#21160
b11001 )
b100010100 *
#21165
b110 /
#21170
b100011000 *
b100 )
#21180
b0 )
b11110000 *
#21190
b11110100 *
b1000000 )
#21200
b0 )
b11111000 *
#21210
b11111100 *
b1000001 )
#21220
b0 )
#21250
b1000 )
b100000000 *
#21260
b100000100 *
#21270
b100001000 *
b110001 )
#21280
b11 )
b100001100 *
#21290
b100010000 *
b0 )
#21295
b1101000000 .
#21300
b11001 )
b100010100 *
#21305
b0 /
#21310
b100011000 *
b100 )
#21320
b0 )
b11110000 *
#21330
b11110100 *
b1000000 )
#21340
b0 )
b11111000 *
#21350
b11111100 *
b1000001 )
#21360
b0 )
#21390
b1000 )
b100000000 *
#21400
b100000100 *
#21410
b100001000 *
b110001 )
#21420
b11 )
b100001100 *
#21430
b100010000 *
b0 )
#21435
b1101010000 .
#21440
b11001 )
b100010100 *
#21450
b100011000 *
b100 )
#21460
b0 )
b11110000 *
#21470
b11110100 *
b1000000 )
#21480
b0 )
b11111000 *
#21490
b11111100 *
b1000001 )
#21500
b0 )
#21530
b1000 )
b100000000 *
#21540
b100000100 *
#21550
b100001000 *
b110001 )
#21560
b11 )
b100001100 *
#21570
b100010000 *
b0 )
#21575
b1101100100 .
#21940
b0 D
b0 C
#21950
b11001 )
b100010100 *
#21960
b100011000 *
b100 )
#21970
b0 )
b11110000 *
#21980
b11110100 *
b1000000 )
#21990
b0 )
b11111000 *
#22000
b11111100 *
b1000001 )
#22010
b0 )
#22015
b0 $
#22030
b100011000 *
#22040
b100011100 *
b11 )
#22050
b100100000 *
#22060
b100100100 *
b1000 )
#22070
b1000000 )
b100101000 *
#22080
b100101100 *
b0 )
#22085
b0 0
#22090
b1000001 )
b100110000 *
#22100
b0 )
#22105
b1 $
#22130
b100110100 *
b1000000 )
#22140
b0 )
b100111000 *
#22150
b100111100 *
b1000001 )
#22160
b0 )
#22190
b1000 )
b101000000 *
#22200
b101000100 *
#22210
b101001000 *
b110001 )
#22220
b101001100 *
#22225
b100101100000 -
#22230
b101010000 *
b1000000 )
#22235
b111110100000 .
#22600
b11 C
b1 D
#22620
b0 )
b101010100 *
#22630
b101011000 *
b1000001 )
#22640
b0 )
#22670
b11001 )
b101011100 *
#22680
b101100000 *
b11 )
#23060
b101100100 *
#23070
b101101000 *
b100 )
#23080
b0 )
b100100100 *
#23085
b100 0
#23090
b100101000 *
b1000000 )
#23100
b0 )
b100101100 *
#23110
b100110000 *
b1000001 )
#23120
b0 )
#23150
b1000000 )
b100110100 *
#23160
b100111000 *
b0 )
#23170
b1000001 )
b100111100 *
#23180
b0 )
#23210
b1000 )
b101000000 *
#23220
b101000100 *
#23230
b101001000 *
b110001 )
#23240
b101001100 *
#23245
b100101100100 -
#23250
b101010000 *
b1000000 )
#23265
b11 /
#23270
b0 )
b101010100 *
#23280
b101011000 *
b1000001 )
#23290
b0 )
#23320
b11001 )
b101011100 *
#23330
b101100000 *
b11 )
#23340
b101100100 *
#23350
b101101000 *
b100 )
#23360
b0 )
b100100100 *
#23365
b1000 0
#23370
b100101000 *
b1000000 )
#23380
b0 )
b100101100 *
#23390
b100110000 *
b1000001 )
#23400
b0 )
#23405
b0 $
#23420
b110011100 *
#23800
b110100000 *
b11 )
#24180
b0 )
b110100100 *
#24190
b110101000 *
b1000001 )
#24200
b0 )
#24220
b10001000 *
#24600
b10001100 *
b1000 )
#24610
b100 )
b10010000 *
#24620
b1101100 *
b0 )
#25000
b1110000 *
#25010
b1110100 *
b111001 )
#25020
b0 )
#25050
b1000 )
b1111000 *
#25060
b1111100 *
b100 )
#25070
b0 )
b10011100 *
#25080
b10100000 *
b10000 )
#25460
b1000 )
b10100100 *
#25470
b10101000 *
b10000 )
#25480
b10011 )
b10101100 *
#25490
b10110000 *
#25495
b1 1
#25500
b10110100 *
b10000 )
#25510
b11 )
b10111000 *
#25515
b100 .
#25520
b10111100 *
b10011 )
#25525
b100 1
#25530
b1000 )
b11000000 *
#25540
b11000100 *
#25550
b11001000 *
b11 )
#25560
b1000000 )
b11001100 *
#25565
b1100100100 .
#25570
b11010000 *
b0 )
#25575
b110010000100 -
#25580
b1000001 )
b11010100 *
#25585
b1100101000 .
#25590
b0 )
#25610
b11110000 *
#25620
b11110100 *
b1000000 )
#25630
b0 )
b11111000 *
#25640
b11111100 *
b1000001 )
#25650
b0 )
#25655
b1 $
#25680
b100000000 *
b1000 )
#25690
b100000100 *
