lab2_waveforms.vcd
$version Generated by VerilatedVcd $end
$date Mon May  2 17:17:35 2022 $end
$timescale 1ps $end

 $scope module TOP $end
  $var wire  8 z Op [7:0] $end
  $var wire  1 x clock $end
  $var wire  1 y reset $end
  $scope module top $end
   $var wire  4 ( ALUOp [3:0] $end
   $var wire  1 * ALUOp2 $end
   $var wire  2 ) ALUSrc [1:0] $end
   $var wire  4 # MemRead [3:0] $end
   $var wire  1 , MemSignExtend $end
   $var wire  2 & MemToReg [1:0] $end
   $var wire  4 $ MemWrite [3:0] $end
   $var wire  8 z Op [7:0] $end
   $var wire  1 % PCSrc $end
   $var wire  1 + RbSelect $end
   $var wire  1 ' RegWrite $end
   $var wire  2 - branch_flag [1:0] $end
   $var wire  1 x clock $end
   $var wire  1 . jump_flag $end
   $var wire  1 y reset $end
   $scope module ctr $end
    $var wire  4 ( AluOp [3:0] $end
    $var wire  1 * AluOp2 $end
    $var wire  2 ) AluSrc [1:0] $end
    $var wire  4 # MemRead [3:0] $end
    $var wire  1 , MemSignExtend $end
    $var wire  2 & MemToReg [1:0] $end
    $var wire  4 $ MemWrite [3:0] $end
    $var wire  8 z Op [7:0] $end
    $var wire  1 % PCSrc $end
    $var wire  1 + RbSelect $end
    $var wire  1 ' RegWrite $end
    $var wire  2 - branch_flag [1:0] $end
    $var wire  1 . jump_flag $end
   $upscope $end
   $scope module datapath $end
    $var wire  4 ( ALUOp [3:0] $end
    $var wire  1 * ALUOp2 $end
    $var wire  2 ) ALUSrc [1:0] $end
    $var wire 32 H Alu1out [31:0] $end
    $var wire 32 Q Alu2out [31:0] $end
    $var wire 138 J ExMem [137:0] $end
    $var wire  2 4 ForwardingA [1:0] $end
    $var wire  2 5 ForwardingB [1:0] $end
    $var wire 194 > IdEx [193:0] $end
    $var wire 39 9 IfId [38:0] $end
    $var wire  1 8 IfIdEN $end
    $var wire 19 ; JumpAddress [18:0] $end
    $var wire  4 # MemRead [3:0] $end
    $var wire  1 , MemSignExtend $end
    $var wire  2 & MemToReg [1:0] $end
    $var wire 79 U MemWb [78:0] $end
    $var wire  4 $ MemWrite [3:0] $end
    $var wire  8 z Op [7:0] $end
    $var wire  7 / PC [6:0] $end
    $var wire  7 ~ PCSTART [6:0] $end
    $var wire  1 % PCSrc $end
    $var wire  1 7 PCenable $end
    $var wire 32 X RF[0] [31:0] $end
    $var wire 32 b RF[10] [31:0] $end
    $var wire 32 c RF[11] [31:0] $end
    $var wire 32 d RF[12] [31:0] $end
    $var wire 32 e RF[13] [31:0] $end
    $var wire 32 f RF[14] [31:0] $end
    $var wire 32 g RF[15] [31:0] $end
    $var wire 32 h RF[16] [31:0] $end
    $var wire 32 i RF[17] [31:0] $end
    $var wire 32 j RF[18] [31:0] $end
    $var wire 32 k RF[19] [31:0] $end
    $var wire 32 Y RF[1] [31:0] $end
    $var wire 32 l RF[20] [31:0] $end
    $var wire 32 m RF[21] [31:0] $end
    $var wire 32 n RF[22] [31:0] $end
    $var wire 32 o RF[23] [31:0] $end
    $var wire 32 p RF[24] [31:0] $end
    $var wire 32 q RF[25] [31:0] $end
    $var wire 32 r RF[26] [31:0] $end
    $var wire 32 s RF[27] [31:0] $end
    $var wire 32 t RF[28] [31:0] $end
    $var wire 32 u RF[29] [31:0] $end
    $var wire 32 Z RF[2] [31:0] $end
    $var wire 32 v RF[30] [31:0] $end
    $var wire 32 w RF[31] [31:0] $end
    $var wire 32 [ RF[3] [31:0] $end
    $var wire 32 \ RF[4] [31:0] $end
    $var wire 32 ] RF[5] [31:0] $end
    $var wire 32 ^ RF[6] [31:0] $end
    $var wire 32 _ RF[7] [31:0] $end
    $var wire 32 ` RF[8] [31:0] $end
    $var wire 32 a RF[9] [31:0] $end
    $var wire 32 = RF_WriteAddr [31:0] $end
    $var wire 32 < RF_WriteData [31:0] $end
    $var wire  1 + RbSelect $end
    $var wire  1 ' RegWrite $end
    $var wire 32 E alu1in_a [31:0] $end
    $var wire 32 F alu1in_b [31:0] $end
    $var wire 32 G alu1in_b_mux [31:0] $end
    $var wire 32 O alu2in_a [31:0] $end
    $var wire 32 P alu2in_b [31:0] $end
    $var wire  1 T branch_eq $end
    $var wire  2 - branch_flag [1:0] $end
    $var wire  1 S branch_ne $end
    $var wire  1 R branch_src $end
    $var wire  1 x clk $end
    $var wire 32 { da [31:0] $end
    $var wire  7 1 datamem_address [6:0] $end
    $var wire 32 2 datamem_data [31:0] $end
    $var wire 32 3 datamem_write_data [31:0] $end
    $var wire 32 | db [31:0] $end
    $var wire 32 } dc [31:0] $end
    $var wire  1 !! flush $end
    $var wire  7 / instmem_address [6:0] $end
    $var wire 32 0 instmem_data [31:0] $end
    $var wire  1 . jump_flag $end
    $var wire  1 y reset $end
    $var wire  1 6 stall_flag $end
    $var wire  1 I zero_flag $end
   $upscope $end
  $upscope $end
 $upscope $end
$enddefinitions $end


#8
b0000 #
b0000 $
0%
b00 &
0'
b0000 (
b00 )
0*
0+
0,
b00 -
0.
b0000000 /
b00000000000000000000000000000000 0
b0000000 1
b00000000000000000000000000000000 2
b00000000000000000000000000000000 3
b00 4
b00 5
06
17
18
b000000000000000000000000000000000000000 9
b0000000000000000000 ;
b00000000000000000000000000000000 <
b00000000000000000000000000000000 =
b00000000000000000000000000000000000000000000000000000000000000000000000000000000000000000000000000000000000000000000000000000000000000000000000000000000000000000000000000000000000000000000000000 >
b00000000000000000000000000000000 E
b00000000000000000000000000000000 F
b00000000000000000000000000000000 G
b00000000000000000000000000000000 H
1I
b000000000000000000000000000000000000000000000000000000000000000000000000000000000000000000000000000000000000000000000000000000000000000000 J
b00000000000000000000000000000000 O
b00000000000000000000000000000000 P
b00000000000000000000000000000000 Q
0R
0S
0T
b0000000000000000000000000000000000000000000000000000000000000000000000000000000 U
b00000000000000000000000000000000 X
b00000000000000000000000000000000 Y
b00000000000000000000000000000000 Z
b00000000000000000000000000000000 [
b00000000000000000000000000000000 \
b00000000000000000000000000000000 ]
b00000000000000000000000000000000 ^
b00000000000000000000000000000000 _
b00000000000000000000000000000000 `
b00000000000000000000000000000000 a
b00000000000000000000000000000000 b
b00000000000000000000000000000000 c
b00000000000000000000000000000000 d
b00000000000000000000000000000000 e
b00000000000000000000000000000000 f
b00000000000000000000000000000000 g
b00000000000000000000000000000000 h
b00000000000000000000000000000000 i
b00000000000000000000000000000000 j
b00000000000000000000000000000000 k
b00000000000000000000000000000000 l
b00000000000000000000000000000000 m
b00000000000000000000000000000000 n
b00000000000000000000000000000000 o
b00000000000000000000000000000000 p
b00000000000000000000000000000000 q
b00000000000000000000000000000000 r
b00000000000000000000000000000000 s
b00000000000000000000000000000000 t
b00000000000000000000000000000000 u
b00000000000000000000000000000000 v
b00000000000000000000000000000000 w
0x
1y
b00000000 z
b00000000000000000000000000000000 {
b00000000000000000000000000000000 |
b00000000000000000000000000000000 }
b0000000 ~
0!!
#10
b000000000000000000000000000000000000100 9
b000000000000000000000000000000000000000000000000000000000000000000000000000000000000000000000000000000000000000000000000010000000000000000 J
1x
#15
0x
#18
0y
#20
b0000100 /
b00101000010000000000001000000011 0
b00000000000000000000000000000000010000000000000000000000000000000000000000000000000000000000000000000000000000000000000000000000000000000000000000000000000000000000000000000000000000000000000000 >
1x
#25
0x
#28
#30
b01 &
1'
b01 )
b0001000 /
b00110000000000000000100000000011 0
b001010000100000000000010000000110001000 9
b0000100000000000010 ;
b000010000000000000000000000000000000000000000000000000000000000000000000000000000000000000000000000000000000000000000000010000000000000000 J
1x
b00000011 z
#35
0x
#38
#40
b0001100 /
b00101001100000000000100001000001 0
b001100000000000000001000000000110001100 9
b0000000000000001000 ;
b00001000000100000001000000001000100000000000000000000000000000000000000000000000000000000000000000000000000000000000000000000000000000000000000000000000000000000010001010000000100000000000000010 >
b00000000000000000000000000000010 F
b00000000000000000000000000000010 G
b00000000000000000000000000000010 H
0I
b0000100000000000000000000000000000000000000000000000000000000000000000000000000 U
1x
#45
0x
#48
#50
b00 &
0'
b0001 (
b00 )
1+
b10 -
b0010000 /
b00000000000000000000000000000000 0
b0000010 1
b001010011000000000001000010000010010000 9
b0011000000000001000 ;
b00000000000100000001000000001000110000000000000000000000000000000000000000000000000000000000000000000000000000000000000000000000000000000000000000000000000000001000001100000010000000000000001000 >
b00000000000000000000000000001000 F
b00000000000000000000000000001000 G
b00000000000000000000000000001000 H
b000100000000000010010000000000000000000000000000001000000000000000000000000000000000000000000000000000000000000000000010100000000000000010 J
b00000000000000000000000000000010 O
b00000000000000000000000000000010 Q
1x
b01000001 z
#55
0x
#58
#60
b0000 (
0+
b00 -
b0010100 /
b0001000 1
b10 4
b01 5
b000000000000000000000000000000000010100 9
b0000000000000000000 ;
b00000000000000000000000000000010 <
b00000000000000000000000000000101 =
b00110001010000010000000000000001000000000000000000000000000000000000000000000000000000000000000000000000000000000000000000000000000000000000000000000000000000001000001010000010001000000000001000 >
b00000000000000000000000000001000 E
b00000000000000000000000000000010 F
b00000000000000000000000000000000 G
b00000000000000000000000000000110 H
b000110000000000010010000000000000000000000000000100000000000000000000000000000000000000000000000000000000000000000000011000000000000001000 J
b00000000000000000000000000001000 O
b00000000000000000000000000001000 Q
b0001000101000000000000000000000000000000000000000000000000000000000000001000101 U
1x
b00000000 z
#65
b00000000000000000000000000000010 ]
0x
#68
#70
b0011000 /
b00101000010000000000010000000011 0
b0000110 1
b00 4
b00 5
b000000000000000000000000000000000011000 9
b00000000000000000000000000001000 <
b00000000000000000000000000000110 =
b00000000000000000000000000000001010000000000000000000000000000000000000000000000000000000000000000000000000000000000000000000000000000000000000000000000000000000000000000000000000000000000000000 >
b00000000000000000000000000000000 E
b00000000000000000000000000000000 F
b00000000000000000000000000000000 H
1I
b001000000000000000000000000000000000000000000000011000000000000000000000000000000000000000000000000000000000000000000010101000000000001000 J
b00000000000000000000000000000110 O
b00000000000000000000000000000110 Q
1R
1S
b0001100101000000000000000000000000000000000000000000000000000000000000100000110 U
1x
#75
b00000000000000000000000000001000 ^
0x
#78
#80
b01 &
1'
b01 )
b0001000 /
b00110000000000000000100000000011 0
b0000000 1
b001010000100000000000100000000110011100 9
b0000100000000000100 ;
b00000000000000000000000000000000 <
b00000000000000000000000000000101 =
b00000000000000000000000000000001100000000000000000000000000000000000000000000000000000000000000000000000000000000000000000000000000000000000000000000000000000000000000000000000000000000000000000 >
b001010000000000000000000000000000000000000000000000000000000000000000000000000000000000000000000000000000000000000000000010000000000000000 J
b00000000000000000000000000000000 O
b00000000000000000000000000000000 Q
0R
0S
b0010000000000000000000000000000000000000000000000000000000000000000000011000101 U
1x
b00000011 z
#85
0x
#88
#90
b0001100 /
b00101001100000000000100001000001 0
b001100000000000000001000000000110001100 9
b0000000000000001000 ;
b00000000000000000000000000000000 =
b00001000000100000001000000001001110000000000000000000000000000000000000000000000000000000000000000000000000000000000000000000000000000000000000000000000000000000100001010000001000000000000000100 >
b00000000000000000000000000000100 F
b00000000000000000000000000000100 G
b00000000000000000000000000000100 H
0I
b001100000000000000000000000000000000000000000000000000000000000000000000000000000000000000000000000000000000000000000000010000000000000000 J
b0010100000000000000000000000000000000000000000000000000000000000000000000000000 U
1x
#95
0x
#98
#100
b00 &
0'
b0001 (
b00 )
1+
b10 -
b0010000 /
b00000000000000000000000000000000 0
b0000100 1
b001010011000000000001000010000010010000 9
b0011000000000001000 ;
b00000000000100000001000000001000110000000000000000000000000000000000000000000000000000000000000000000000000000000000000000000000000000000000000000000000000000001000001100000010000000000000001000 >
b00000000000000000000000000001000 F
b00000000000000000000000000001000 G
b00000000000000000000000000001000 H
b001110000000000010010000000000000000000000000000010000000000000000000000000000000000000000000000000000000000000000000010100000000000000100 J
b00000000000000000000000000000100 O
b00000000000000000000000000000100 Q
b0011000000000000000000000000000000000000000000000000000000000000000000000000000 U
1x
b01000001 z
b00000000000000000000000000001000 {
b00000000000000000000000000000010 |
#105
0x
#108
#110
b0000 (
0+
b00 -
b0010100 /
b0001000 1
b10 4
b01 5
b000000000000000000000000000000000010100 9
b0000000000000000000 ;
b00000000000000000000000000000100 <
b00000000000000000000000000000101 =
b00110001010000010000000000000001000000000000000000000000000000001000000000000000000000000000000000100000000000000000000000000000000000000000000000000000000000001000001010000010001000000000001000 >
b00000000000000000000000000001000 E
b00000000000000000000000000000100 F
b00000000000000000000000000000010 G
b00000000000000000000000000000100 H
b000110000000000010010000000000000000000000000000100000000000000000000000000000000000000000000000000000000000000000000011000000000000001000 J
b00000000000000000000000000001000 O
b00000000000000000000000000001000 Q
b0011100101000000000000000000000000000000000000000000000000000000000000010000101 U
1x
b00000000 z
b00000000000000000000000000000000 {
b00000000000000000000000000000000 |
#115
b00000000000000000000000000000100 ]
0x
#118
#120
b0011000 /
b00101000010000000000010000000011 0
b0000100 1
b00000000000000000000000000000010 3
b00 4
b00 5
b000000000000000000000000000000000011000 9
b00000000000000000000000000001000 <
b00000000000000000000000000000110 =
b00000000000000000000000000000001010000000000000000000000000000000000000000000000000000000000000000000000000000000000000000000000000000000000000000000000000000000000000000000000000000000000000000 >
b00000000000000000000000000000000 E
b00000000000000000000000000000000 F
b00000000000000000000000000000000 G
b00000000000000000000000000000000 H
1I
b001000000000000000000000000000000000000000000000010000000000000000000000000000000010000000000000000000000000000000000010101000000000001000 J
b00000000000000000000000000000100 O
b00000000000000000000000000000100 Q
1R
1S
b0001100101000000000000000000000000000000000000000000000000000000000000100000110 U
1x
#125
0x
#128
#130
b01 &
1'
b01 )
b0001000 /
b00110000000000000000100000000011 0
b0000000 1
b00000000000000000000000000000000 3
b001010000100000000000100000000110011100 9
b0000100000000000100 ;
b00000000000000000000000000000000 <
b00000000000000000000000000000101 =
b00000000000000000000000000000001100000000000000000000000000000000000000000000000000000000000000000000000000000000000000000000000000000000000000000000000000000000000000000000000000000000000000000 >
b001010000000000000000000000000000000000000000000000000000000000000000000000000000000000000000000000000000000000000000000010000000000000000 J
b00000000000000000000000000000000 O
b00000000000000000000000000000000 Q
0R
0S
b0010000000000000000000000000000000000000000000000000000000000000000000010000101 U
1x
b00000011 z
#135
0x
#138
#140
b0001100 /
b00101001100000000000100001000001 0
b001100000000000000001000000000110001100 9
b0000000000000001000 ;
b00000000000000000000000000000000 =
b00001000000100000001000000001001110000000000000000000000000000000000000000000000000000000000000000000000000000000000000000000000000000000000000000000000000000000100001010000001000000000000000100 >
b00000000000000000000000000000100 F
b00000000000000000000000000000100 G
b00000000000000000000000000000100 H
0I
b001100000000000000000000000000000000000000000000000000000000000000000000000000000000000000000000000000000000000000000000010000000000000000 J
b0010100000000000000000000000000000000000000000000000000000000000000000000000000 U
1x
#145
0x
#148
#150
b00 &
0'
b0001 (
b00 )
1+
b10 -
b0010000 /
b00000000000000000000000000000000 0
b0000100 1
b001010011000000000001000010000010010000 9
b0011000000000001000 ;
b00000000000100000001000000001000110000000000000000000000000000000000000000000000000000000000000000000000000000000000000000000000000000000000000000000000000000001000001100000010000000000000001000 >
b00000000000000000000000000001000 F
b00000000000000000000000000001000 G
b00000000000000000000000000001000 H
b001110000000000010010000000000000000000000000000010000000000000000000000000000000000000000000000000000000000000000000010100000000000000100 J
b00000000000000000000000000000100 O
b00000000000000000000000000000100 Q
b0011000000000000000000000000000000000000000000000000000000000000000000000000000 U
1x
b01000001 z
b00000000000000000000000000001000 {
b00000000000000000000000000000100 |
#155
0x
#158
#160
b0000 (
0+
b00 -
b0010100 /
b0001000 1
b10 4
b01 5
b000000000000000000000000000000000010100 9
b0000000000000000000 ;
b00000000000000000000000000000100 <
b00000000000000000000000000000101 =
b00110001010000010000000000000001000000000000000000000000000000001000000000000000000000000000000001000000000000000000000000000000000000000000000000000000000000001000001010000010001000000000001000 >
b00000000000000000000000000001000 E
b00000000000000000000000000000100 F
b00000000000000000000000000000100 G
b00000000000000000000000000000100 H
b000110000000000010010000000000000000000000000000100000000000000000000000000000000000000000000000000000000000000000000011000000000000001000 J
b00000000000000000000000000001000 O
b00000000000000000000000000001000 Q
b0011100101000000000000000000000000000000000000000000000000000000000000010000101 U
1x
b00000000 z
b00000000000000000000000000000000 {
b00000000000000000000000000000000 |
#165
0x
#168
#170
b0011000 /
b00101000010000000000010000000011 0
b0000100 1
b00000000000000000000000000000100 3
b00 4
b00 5
b000000000000000000000000000000000011000 9
b00000000000000000000000000001000 <
b00000000000000000000000000000110 =
b00000000000000000000000000000001010000000000000000000000000000000000000000000000000000000000000000000000000000000000000000000000000000000000000000000000000000000000000000000000000000000000000000 >
b00000000000000000000000000000000 E
b00000000000000000000000000000000 F
b00000000000000000000000000000000 G
b00000000000000000000000000000000 H
1I
b001000000000000000000000000000000000000000000000010000000000000000000000000000000100000000000000000000000000000000000010101000000000001000 J
b00000000000000000000000000000100 O
b00000000000000000000000000000100 Q
1R
1S
b0001100101000000000000000000000000000000000000000000000000000000000000100000110 U
1x
#175
0x
#178
#180
b01 &
1'
b01 )
b0001000 /
b00110000000000000000100000000011 0
b0000000 1
b00000000000000000000000000000000 3
b001010000100000000000100000000110011100 9
b0000100000000000100 ;
b00000000000000000000000000000000 <
b00000000000000000000000000000101 =
b00000000000000000000000000000001100000000000000000000000000000000000000000000000000000000000000000000000000000000000000000000000000000000000000000000000000000000000000000000000000000000000000000 >
b001010000000000000000000000000000000000000000000000000000000000000000000000000000000000000000000000000000000000000000000010000000000000000 J
b00000000000000000000000000000000 O
b00000000000000000000000000000000 Q
0R
0S
b0010000000000000000000000000000000000000000000000000000000000000000000010000101 U
1x
b00000011 z
#185
0x
#188
#190
b0001100 /
b00101001100000000000100001000001 0
b001100000000000000001000000000110001100 9
b0000000000000001000 ;
b00000000000000000000000000000000 =
b00001000000100000001000000001001110000000000000000000000000000000000000000000000000000000000000000000000000000000000000000000000000000000000000000000000000000000100001010000001000000000000000100 >
b00000000000000000000000000000100 F
b00000000000000000000000000000100 G
b00000000000000000000000000000100 H
0I
b001100000000000000000000000000000000000000000000000000000000000000000000000000000000000000000000000000000000000000000000010000000000000000 J
b0010100000000000000000000000000000000000000000000000000000000000000000000000000 U
1x
#195
0x
#198
#200
b00 &
0'
b0001 (
b00 )
1+
b10 -
b0010000 /
b00000000000000000000000000000000 0
b0000100 1
b001010011000000000001000010000010010000 9
b0011000000000001000 ;
b00000000000100000001000000001000110000000000000000000000000000000000000000000000000000000000000000000000000000000000000000000000000000000000000000000000000000001000001100000010000000000000001000 >
b00000000000000000000000000001000 F
b00000000000000000000000000001000 G
b00000000000000000000000000001000 H
b001110000000000010010000000000000000000000000000010000000000000000000000000000000000000000000000000000000000000000000010100000000000000100 J
b00000000000000000000000000000100 O
b00000000000000000000000000000100 Q
b0011000000000000000000000000000000000000000000000000000000000000000000000000000 U
1x
b01000001 z
b00000000000000000000000000001000 {
b00000000000000000000000000000100 |
#205
0x
#208
#210
b0000 (
0+
b00 -
b0010100 /
b0001000 1
b10 4
b01 5
b000000000000000000000000000000000010100 9
b0000000000000000000 ;
b00000000000000000000000000000100 <
b00000000000000000000000000000101 =
b00110001010000010000000000000001000000000000000000000000000000001000000000000000000000000000000001000000000000000000000000000000000000000000000000000000000000001000001010000010001000000000001000 >
b00000000000000000000000000001000 E
b00000000000000000000000000000100 F
b00000000000000000000000000000100 G
b00000000000000000000000000000100 H
b000110000000000010010000000000000000000000000000100000000000000000000000000000000000000000000000000000000000000000000011000000000000001000 J
b00000000000000000000000000001000 O
b00000000000000000000000000001000 Q
b0011100101000000000000000000000000000000000000000000000000000000000000010000101 U
1x
b00000000 z
b00000000000000000000000000000000 {
b00000000000000000000000000000000 |
#215
0x
#218
#220
b0011000 /
b00101000010000000000010000000011 0
b0000100 1
b00000000000000000000000000000100 3
b00 4
b00 5
b000000000000000000000000000000000011000 9
b00000000000000000000000000001000 <
b00000000000000000000000000000110 =
b00000000000000000000000000000001010000000000000000000000000000000000000000000000000000000000000000000000000000000000000000000000000000000000000000000000000000000000000000000000000000000000000000 >
b00000000000000000000000000000000 E
b00000000000000000000000000000000 F
b00000000000000000000000000000000 G
b00000000000000000000000000000000 H
1I
b001000000000000000000000000000000000000000000000010000000000000000000000000000000100000000000000000000000000000000000010101000000000001000 J
b00000000000000000000000000000100 O
b00000000000000000000000000000100 Q
1R
1S
b0001100101000000000000000000000000000000000000000000000000000000000000100000110 U
1x
#225
0x
#228
#230
b01 &
1'
b01 )
b0001000 /
b00110000000000000000100000000011 0
b0000000 1
b00000000000000000000000000000000 3
b001010000100000000000100000000110011100 9
b0000100000000000100 ;
b00000000000000000000000000000000 <
b00000000000000000000000000000101 =
b00000000000000000000000000000001100000000000000000000000000000000000000000000000000000000000000000000000000000000000000000000000000000000000000000000000000000000000000000000000000000000000000000 >
b001010000000000000000000000000000000000000000000000000000000000000000000000000000000000000000000000000000000000000000000010000000000000000 J
b00000000000000000000000000000000 O
b00000000000000000000000000000000 Q
0R
0S
b0010000000000000000000000000000000000000000000000000000000000000000000010000101 U
1x
b00000011 z
#235
0x
#238
#240
b0001100 /
b00101001100000000000100001000001 0
b001100000000000000001000000000110001100 9
b0000000000000001000 ;
b00000000000000000000000000000000 =
b00001000000100000001000000001001110000000000000000000000000000000000000000000000000000000000000000000000000000000000000000000000000000000000000000000000000000000100001010000001000000000000000100 >
b00000000000000000000000000000100 F
b00000000000000000000000000000100 G
b00000000000000000000000000000100 H
0I
b001100000000000000000000000000000000000000000000000000000000000000000000000000000000000000000000000000000000000000000000010000000000000000 J
b0010100000000000000000000000000000000000000000000000000000000000000000000000000 U
1x
#245
0x
#248
#250
b00 &
0'
b0001 (
b00 )
1+
b10 -
b0010000 /
b00000000000000000000000000000000 0
b0000100 1
b001010011000000000001000010000010010000 9
b0011000000000001000 ;
b00000000000100000001000000001000110000000000000000000000000000000000000000000000000000000000000000000000000000000000000000000000000000000000000000000000000000001000001100000010000000000000001000 >
b00000000000000000000000000001000 F
b00000000000000000000000000001000 G
b00000000000000000000000000001000 H
b001110000000000010010000000000000000000000000000010000000000000000000000000000000000000000000000000000000000000000000010100000000000000100 J
b00000000000000000000000000000100 O
b00000000000000000000000000000100 Q
b0011000000000000000000000000000000000000000000000000000000000000000000000000000 U
1x
b01000001 z
b00000000000000000000000000001000 {
b00000000000000000000000000000100 |
#255
0x
#258
#260
b0000 (
0+
b00 -
b0010100 /
b0001000 1
b10 4
b01 5
b000000000000000000000000000000000010100 9
b0000000000000000000 ;
b00000000000000000000000000000100 <
b00000000000000000000000000000101 =
b00110001010000010000000000000001000000000000000000000000000000001000000000000000000000000000000001000000000000000000000000000000000000000000000000000000000000001000001010000010001000000000001000 >
b00000000000000000000000000001000 E
b00000000000000000000000000000100 F
b00000000000000000000000000000100 G
b00000000000000000000000000000100 H
b000110000000000010010000000000000000000000000000100000000000000000000000000000000000000000000000000000000000000000000011000000000000001000 J
b00000000000000000000000000001000 O
b00000000000000000000000000001000 Q
b0011100101000000000000000000000000000000000000000000000000000000000000010000101 U
1x
b00000000 z
b00000000000000000000000000000000 {
b00000000000000000000000000000000 |
#265
0x
#268
#270
b0011000 /
b00101000010000000000010000000011 0
b0000100 1
b00000000000000000000000000000100 3
b00 4
b00 5
b000000000000000000000000000000000011000 9
b00000000000000000000000000001000 <
b00000000000000000000000000000110 =
b00000000000000000000000000000001010000000000000000000000000000000000000000000000000000000000000000000000000000000000000000000000000000000000000000000000000000000000000000000000000000000000000000 >
b00000000000000000000000000000000 E
b00000000000000000000000000000000 F
b00000000000000000000000000000000 G
b00000000000000000000000000000000 H
1I
b001000000000000000000000000000000000000000000000010000000000000000000000000000000100000000000000000000000000000000000010101000000000001000 J
b00000000000000000000000000000100 O
b00000000000000000000000000000100 Q
1R
1S
b0001100101000000000000000000000000000000000000000000000000000000000000100000110 U
1x
#275
0x
#278
#280
b01 &
1'
b01 )
b0001000 /
b00110000000000000000100000000011 0
b0000000 1
b00000000000000000000000000000000 3
b001010000100000000000100000000110011100 9
b0000100000000000100 ;
b00000000000000000000000000000000 <
b00000000000000000000000000000101 =
b00000000000000000000000000000001100000000000000000000000000000000000000000000000000000000000000000000000000000000000000000000000000000000000000000000000000000000000000000000000000000000000000000 >
b001010000000000000000000000000000000000000000000000000000000000000000000000000000000000000000000000000000000000000000000010000000000000000 J
b00000000000000000000000000000000 O
b00000000000000000000000000000000 Q
0R
0S
b0010000000000000000000000000000000000000000000000000000000000000000000010000101 U
1x
b00000011 z
#285
0x
#288
#290
b0001100 /
b00101001100000000000100001000001 0
b001100000000000000001000000000110001100 9
b0000000000000001000 ;
b00000000000000000000000000000000 =
b00001000000100000001000000001001110000000000000000000000000000000000000000000000000000000000000000000000000000000000000000000000000000000000000000000000000000000100001010000001000000000000000100 >
b00000000000000000000000000000100 F
b00000000000000000000000000000100 G
b00000000000000000000000000000100 H
0I
b001100000000000000000000000000000000000000000000000000000000000000000000000000000000000000000000000000000000000000000000010000000000000000 J
b0010100000000000000000000000000000000000000000000000000000000000000000000000000 U
1x
#295
0x
#298
#300
b00 &
0'
b0001 (
b00 )
1+
b10 -
b0010000 /
b00000000000000000000000000000000 0
b0000100 1
b001010011000000000001000010000010010000 9
b0011000000000001000 ;
b00000000000100000001000000001000110000000000000000000000000000000000000000000000000000000000000000000000000000000000000000000000000000000000000000000000000000001000001100000010000000000000001000 >
b00000000000000000000000000001000 F
b00000000000000000000000000001000 G
b00000000000000000000000000001000 H
b001110000000000010010000000000000000000000000000010000000000000000000000000000000000000000000000000000000000000000000010100000000000000100 J
b00000000000000000000000000000100 O
b00000000000000000000000000000100 Q
b0011000000000000000000000000000000000000000000000000000000000000000000000000000 U
1x
b01000001 z
b00000000000000000000000000001000 {
b00000000000000000000000000000100 |
#305
0x
#308
#310
b0000 (
0+
b00 -
b0010100 /
b0001000 1
b10 4
b01 5
b000000000000000000000000000000000010100 9
b0000000000000000000 ;
b00000000000000000000000000000100 <
b00000000000000000000000000000101 =
b00110001010000010000000000000001000000000000000000000000000000001000000000000000000000000000000001000000000000000000000000000000000000000000000000000000000000001000001010000010001000000000001000 >
b00000000000000000000000000001000 E
b00000000000000000000000000000100 F
b00000000000000000000000000000100 G
b00000000000000000000000000000100 H
b000110000000000010010000000000000000000000000000100000000000000000000000000000000000000000000000000000000000000000000011000000000000001000 J
b00000000000000000000000000001000 O
b00000000000000000000000000001000 Q
b0011100101000000000000000000000000000000000000000000000000000000000000010000101 U
1x
b00000000 z
b00000000000000000000000000000000 {
b00000000000000000000000000000000 |
#315
0x
#318
#320
b0011000 /
b00101000010000000000010000000011 0
b0000100 1
b00000000000000000000000000000100 3
b00 4
b00 5
b000000000000000000000000000000000011000 9
b00000000000000000000000000001000 <
b00000000000000000000000000000110 =
b00000000000000000000000000000001010000000000000000000000000000000000000000000000000000000000000000000000000000000000000000000000000000000000000000000000000000000000000000000000000000000000000000 >
b00000000000000000000000000000000 E
b00000000000000000000000000000000 F
b00000000000000000000000000000000 G
b00000000000000000000000000000000 H
1I
b001000000000000000000000000000000000000000000000010000000000000000000000000000000100000000000000000000000000000000000010101000000000001000 J
b00000000000000000000000000000100 O
b00000000000000000000000000000100 Q
1R
1S
b0001100101000000000000000000000000000000000000000000000000000000000000100000110 U
1x
#325
0x
#328
#330
b01 &
1'
b01 )
b0001000 /
b00110000000000000000100000000011 0
b0000000 1
b00000000000000000000000000000000 3
b001010000100000000000100000000110011100 9
b0000100000000000100 ;
b00000000000000000000000000000000 <
b00000000000000000000000000000101 =
b00000000000000000000000000000001100000000000000000000000000000000000000000000000000000000000000000000000000000000000000000000000000000000000000000000000000000000000000000000000000000000000000000 >
b001010000000000000000000000000000000000000000000000000000000000000000000000000000000000000000000000000000000000000000000010000000000000000 J
b00000000000000000000000000000000 O
b00000000000000000000000000000000 Q
0R
0S
b0010000000000000000000000000000000000000000000000000000000000000000000010000101 U
1x
b00000011 z
#335
0x
#338
#340
b0001100 /
b00101001100000000000100001000001 0
b001100000000000000001000000000110001100 9
b0000000000000001000 ;
b00000000000000000000000000000000 =
b00001000000100000001000000001001110000000000000000000000000000000000000000000000000000000000000000000000000000000000000000000000000000000000000000000000000000000100001010000001000000000000000100 >
b00000000000000000000000000000100 F
b00000000000000000000000000000100 G
b00000000000000000000000000000100 H
0I
b001100000000000000000000000000000000000000000000000000000000000000000000000000000000000000000000000000000000000000000000010000000000000000 J
b0010100000000000000000000000000000000000000000000000000000000000000000000000000 U
1x
#345
0x
#348
#350
b00 &
0'
b0001 (
b00 )
1+
b10 -
b0010000 /
b00000000000000000000000000000000 0
b0000100 1
b001010011000000000001000010000010010000 9
b0011000000000001000 ;
b00000000000100000001000000001000110000000000000000000000000000000000000000000000000000000000000000000000000000000000000000000000000000000000000000000000000000001000001100000010000000000000001000 >
b00000000000000000000000000001000 F
b00000000000000000000000000001000 G
b00000000000000000000000000001000 H
b001110000000000010010000000000000000000000000000010000000000000000000000000000000000000000000000000000000000000000000010100000000000000100 J
b00000000000000000000000000000100 O
b00000000000000000000000000000100 Q
b0011000000000000000000000000000000000000000000000000000000000000000000000000000 U
1x
b01000001 z
b00000000000000000000000000001000 {
b00000000000000000000000000000100 |
#355
0x
#358
