lab2_waveforms.vcd
$version Generated by VerilatedVcd $end
$date Mon May  2 15:52:40 2022 $end
$timescale 1ps $end

 $scope module TOP $end
  $var wire  8 y Op [7:0] $end
  $var wire  1 w clock $end
  $var wire  1 x reset $end
  $scope module top $end
   $var wire  4 ( ALUOp [3:0] $end
   $var wire  1 * ALUOp2 $end
   $var wire  2 ) ALUSrc [1:0] $end
   $var wire  4 # MemRead [3:0] $end
   $var wire  1 , MemSignExtend $end
   $var wire  2 & MemToReg [1:0] $end
   $var wire  4 $ MemWrite [3:0] $end
   $var wire  8 y Op [7:0] $end
   $var wire  1 % PCSrc $end
   $var wire  1 + RbSelect $end
   $var wire  1 ' RegWrite $end
   $var wire  2 - branch_flag [1:0] $end
   $var wire  1 w clock $end
   $var wire  1 x reset $end
   $scope module ctr $end
    $var wire  4 ( AluOp [3:0] $end
    $var wire  1 * AluOp2 $end
    $var wire  2 ) AluSrc [1:0] $end
    $var wire  4 # MemRead [3:0] $end
    $var wire  1 , MemSignExtend $end
    $var wire  2 & MemToReg [1:0] $end
    $var wire  4 $ MemWrite [3:0] $end
    $var wire  8 y Op [7:0] $end
    $var wire  1 % PCSrc $end
    $var wire  1 + RbSelect $end
    $var wire  1 ' RegWrite $end
    $var wire  2 - branch_flag [1:0] $end
   $upscope $end
   $scope module datapath $end
    $var wire  4 ( ALUOp [3:0] $end
    $var wire  1 * ALUOp2 $end
    $var wire  2 ) ALUSrc [1:0] $end
    $var wire 32 G Alu1out [31:0] $end
    $var wire 32 P Alu2out [31:0] $end
    $var wire 138 I ExMem [137:0] $end
    $var wire  2 3 ForwardingA [1:0] $end
    $var wire  2 4 ForwardingB [1:0] $end
    $var wire 194 = IdEx [193:0] $end
    $var wire 39 8 IfId [38:0] $end
    $var wire  1 7 IfIdEN $end
    $var wire 19 : JumpAddress [18:0] $end
    $var wire  4 # MemRead [3:0] $end
    $var wire  1 , MemSignExtend $end
    $var wire  2 & MemToReg [1:0] $end
    $var wire 79 T MemWb [78:0] $end
    $var wire  4 $ MemWrite [3:0] $end
    $var wire  8 y Op [7:0] $end
    $var wire  7 . PC [6:0] $end
    $var wire  7 } PCSTART [6:0] $end
    $var wire  1 % PCSrc $end
    $var wire  1 6 PCenable $end
    $var wire 32 W RF[0] [31:0] $end
    $var wire 32 a RF[10] [31:0] $end
    $var wire 32 b RF[11] [31:0] $end
    $var wire 32 c RF[12] [31:0] $end
    $var wire 32 d RF[13] [31:0] $end
    $var wire 32 e RF[14] [31:0] $end
    $var wire 32 f RF[15] [31:0] $end
    $var wire 32 g RF[16] [31:0] $end
    $var wire 32 h RF[17] [31:0] $end
    $var wire 32 i RF[18] [31:0] $end
    $var wire 32 j RF[19] [31:0] $end
    $var wire 32 X RF[1] [31:0] $end
    $var wire 32 k RF[20] [31:0] $end
    $var wire 32 l RF[21] [31:0] $end
    $var wire 32 m RF[22] [31:0] $end
    $var wire 32 n RF[23] [31:0] $end
    $var wire 32 o RF[24] [31:0] $end
    $var wire 32 p RF[25] [31:0] $end
    $var wire 32 q RF[26] [31:0] $end
    $var wire 32 r RF[27] [31:0] $end
    $var wire 32 s RF[28] [31:0] $end
    $var wire 32 t RF[29] [31:0] $end
    $var wire 32 Y RF[2] [31:0] $end
    $var wire 32 u RF[30] [31:0] $end
    $var wire 32 v RF[31] [31:0] $end
    $var wire 32 Z RF[3] [31:0] $end
    $var wire 32 [ RF[4] [31:0] $end
    $var wire 32 \ RF[5] [31:0] $end
    $var wire 32 ] RF[6] [31:0] $end
    $var wire 32 ^ RF[7] [31:0] $end
    $var wire 32 _ RF[8] [31:0] $end
    $var wire 32 ` RF[9] [31:0] $end
    $var wire 32 < RF_WriteAddr [31:0] $end
    $var wire 32 ; RF_WriteData [31:0] $end
    $var wire  1 + RbSelect $end
    $var wire  1 ' RegWrite $end
    $var wire 32 D alu1in_a [31:0] $end
    $var wire 32 E alu1in_b [31:0] $end
    $var wire 32 F alu1in_b_mux [31:0] $end
    $var wire 32 N alu2in_a [31:0] $end
    $var wire 32 O alu2in_b [31:0] $end
    $var wire  1 S branch_eq $end
    $var wire  2 - branch_flag [1:0] $end
    $var wire  1 R branch_ne $end
    $var wire  1 Q branch_src $end
    $var wire  1 w clk $end
    $var wire 32 z da [31:0] $end
    $var wire  7 0 datamem_address [6:0] $end
    $var wire 32 1 datamem_data [31:0] $end
    $var wire 32 2 datamem_write_data [31:0] $end
    $var wire 32 { db [31:0] $end
    $var wire 32 | dc [31:0] $end
    $var wire  7 . instmem_address [6:0] $end
    $var wire 32 / instmem_data [31:0] $end
    $var wire  1 x reset $end
    $var wire  1 5 stall_flag $end
    $var wire  1 H zero_flag $end
   $upscope $end
  $upscope $end
 $upscope $end
$enddefinitions $end


#8
b0000 #
b0000 $
0%
b00 &
0'
b0000 (
b00 )
0*
0+
0,
b00 -
b0000000 .
b00000000000000000000000000000000 /
b0000000 0
b00000000000000000000000000000000 1
b00000000000000000000000000000000 2
b00 3
b00 4
05
16
17
b000000000000000000000000000000000000000 8
b0000000000000000000 :
b00000000000000000000000000000000 ;
b00000000000000000000000000000000 <
b00000000000000000000000000000000000000000000000000000000000000000000000000000000000000000000000000000000000000000000000000000000000000000000000000000000000000000000000000000000000000000000000000 =
b00000000000000000000000000000000 D
b00000000000000000000000000000000 E
b00000000000000000000000000000000 F
b00000000000000000000000000000000 G
1H
b000000000000000000000000000000000000000000000000000000000000000000000000000000000000000000000000000000000000000000000000000000000000000000 I
b00000000000000000000000000000000 N
b00000000000000000000000000000000 O
b00000000000000000000000000000000 P
0Q
0R
0S
b0000000000000000000000000000000000000000000000000000000000000000000000000000000 T
b00000000000000000000000000000000 W
b00000000000000000000000000000000 X
b00000000000000000000000000000000 Y
b00000000000000000000000000000000 Z
b00000000000000000000000000000000 [
b00000000000000000000000000000000 \
b00000000000000000000000000000000 ]
b00000000000000000000000000000000 ^
b00000000000000000000000000000000 _
b00000000000000000000000000000000 `
b00000000000000000000000000000000 a
b00000000000000000000000000000000 b
b00000000000000000000000000000000 c
b00000000000000000000000000000000 d
b00000000000000000000000000000000 e
b00000000000000000000000000000000 f
b00000000000000000000000000000000 g
b00000000000000000000000000000000 h
b00000000000000000000000000000000 i
b00000000000000000000000000000000 j
b00000000000000000000000000000000 k
b00000000000000000000000000000000 l
b00000000000000000000000000000000 m
b00000000000000000000000000000000 n
b00000000000000000000000000000000 o
b00000000000000000000000000000000 p
b00000000000000000000000000000000 q
b00000000000000000000000000000000 r
b00000000000000000000000000000000 s
b00000000000000000000000000000000 t
b00000000000000000000000000000000 u
b00000000000000000000000000000000 v
0w
1x
b00000000 y
b00000000000000000000000000000000 z
b00000000000000000000000000000000 {
b00000000000000000000000000000000 |
b0000000 }
#10
b000000000000000000000000000000000000100 8
b000000000000000000000000000000000000000000000000000000000000000000000000000000000000000000000000000000000000000000000000010000000000000000 I
1w
#15
0w
#18
0x
#20
b0000100 .
b00101000010000000000001000000011 /
b00000000000000000000000000000000010000000000000000000000000000000000000000000000000000000000000000000000000000000000000000000000000000000000000000000000000000000000000000000000000000000000000000 =
1w
#25
0w
#28
#30
b01 &
1'
b01 )
b0001000 .
b00110000000000000000001100000011 /
b001010000100000000000010000000110001000 8
b0000100000000000010 :
b000010000000000000000000000000000000000000000000000000000000000000000000000000000000000000000000000000000000000000000000010000000000000000 I
1w
b00000011 y
#35
0w
#38
#40
b0001100 .
b00111001010011000000000000001000 /
b001100000000000000000011000000110001100 8
b0000000000000000011 :
b00001000000100000001000000001000100000000000000000000000000000000000000000000000000000000000000000000000000000000000000000000000000000000000000000000000000000000010001010000000100000000000000010 =
b00000000000000000000000000000010 E
b00000000000000000000000000000010 F
b00000000000000000000000000000010 G
0H
b0000100000000000000000000000000000000000000000000000000000000000000000000000000 T
1w
#45
0w
#48
#50
b00 )
b0010000 .
b00000000000000000000000000000000 /
b0000010 0
b001110010100110000000000000010000010000 8
b0010100110000000000 :
b00000000000100000001000000001000110000000000000000000000000000000000000000000000000000000000000000000000000000000000000000000000000000000000000000000000000000000011001100000000110000000000000011 =
b00000000000000000000000000000011 E
b00000000000000000000000000000011 F
b00000000000000000000000000000011 G
b000100000000000010010000000000000000000000000000001000000000000000000000000000000000000000000000000000000000000000000010100000000000000010 I
b00000000000000000000000000000010 N
b00000000000000000000000000000010 P
1w
b00001000 y
#55
0w
#58
#60
b00 &
0'
b0010100 .
b0000011 0
b01 3
b10 4
b000000000000000000000000000000000010100 8
b0000000000000000000 :
b00000000000000000000000000000010 ;
b00000000000000000000000000000101 <
b00101001100000000001000000001001000000000000000000000000000000000000000000000000000000000000000000000000000000000000000000000000000000000000000000000000110000000000001110000000000000110000000000 =
b00000000000000000000000000000010 D
b00000000000000000000000000000000 F
b00000000000000000000000000000101 G
b000110000000000010010000000000000000000000000000001100000000000000000000000000000000000000000000000000000000000000000011000000000000000011 I
b00000000000000000000000000000011 N
b00000000000000000000000000000011 P
b0001000101000000000000000000000000000000000000000000000000000000000000001000101 T
1w
b00000000 y
#65
b00000000000000000000000000000010 \
0w
#68
#70
b0011000 .
b0000101 0
b00 3
b00 4
b000000000000000000000000000000000011000 8
b00000000000000000000000000000011 ;
b00000000000000000000000000000110 <
b00000000000000000000000000000001010000000000000000000000000000000000000000000000000000000000000000000000000000000000000000000000000000000000000000000000000000000000000000000000000000000000000000 =
b00000000000000000000000000000000 D
b00000000000000000000000000000000 E
b00000000000000000000000000000000 G
1H
b001000000000000010010000000000000000000000000000010100000000000000000000000000000000000000000000000000000000000000000011100000110000000000 I
b00000000000000000000000000000101 N
b00000000000000000000000000000101 P
b0001100101000000000000000000000000000000000000000000000000000000000000001100110 T
1w
#75
b00000000000000000000000000000011 ]
0w
#78
#80
b0011100 .
b0000000 0
b000000000000000000000000000000000011100 8
b00000000000000000000000000000101 ;
b00000000000000000000000000000111 <
b00000000000000000000000000000001100000000000000000000000000000000000000000000000000000000000000000000000000000000000000000000000000000000000000000000000000000000000000000000000000000000000000000 =
b001010000000000000000000000000000000000000000000000000000000000000000000000000000000000000000000000000000000000000000000010000000000000000 I
b00000000000000000000000000000000 N
b00000000000000000000000000000000 P
b0010000101000000000000000000000000000000000000000000000000000000000000010100111 T
1w
#85
b00000000000000000000000000000101 ^
0w
#88
#90
b0100000 .
b000000000000000000000000000000000100000 8
b00000000000000000000000000000000 ;
b00000000000000000000000000000000 <
b00000000000000000000000000000001110000000000000000000000000000000000000000000000000000000000000000000000000000000000000000000000000000000000000000000000000000000000000000000000000000000000000000 =
b001100000000000000000000000000000000000000000000000000000000000000000000000000000000000000000000000000000000000000000000010000000000000000 I
b0010100000000000000000000000000000000000000000000000000000000000000000000000000 T
1w
#95
0w
#98
#100
b0100100 .
b000000000000000000000000000000000100100 8
b00000000000000000000000000000010000000000000000000000000000000000000000000000000000000000000000000000000000000000000000000000000000000000000000000000000000000000000000000000000000000000000000000 =
b001110000000000000000000000000000000000000000000000000000000000000000000000000000000000000000000000000000000000000000000010000000000000000 I
b0011000000000000000000000000000000000000000000000000000000000000000000000000000 T
1w
#105
0w
#108
#110
b0101000 .
b000000000000000000000000000000000101000 8
b00000000000000000000000000000010010000000000000000000000000000000000000000000000000000000000000000000000000000000000000000000000000000000000000000000000000000000000000000000000000000000000000000 =
b010000000000000000000000000000000000000000000000000000000000000000000000000000000000000000000000000000000000000000000000010000000000000000 I
b0011100000000000000000000000000000000000000000000000000000000000000000000000000 T
1w
#115
0w
#118
#120
b0101100 .
b000000000000000000000000000000000101100 8
b00000000000000000000000000000010100000000000000000000000000000000000000000000000000000000000000000000000000000000000000000000000000000000000000000000000000000000000000000000000000000000000000000 =
b010010000000000000000000000000000000000000000000000000000000000000000000000000000000000000000000000000000000000000000000010000000000000000 I
b0100000000000000000000000000000000000000000000000000000000000000000000000000000 T
1w
#125
0w
#128
#130
b0110000 .
b000000000000000000000000000000000110000 8
b00000000000000000000000000000010110000000000000000000000000000000000000000000000000000000000000000000000000000000000000000000000000000000000000000000000000000000000000000000000000000000000000000 =
b010100000000000000000000000000000000000000000000000000000000000000000000000000000000000000000000000000000000000000000000010000000000000000 I
b0100100000000000000000000000000000000000000000000000000000000000000000000000000 T
1w
#135
0w
#138
#140
b0110100 .
b000000000000000000000000000000000110100 8
b00000000000000000000000000000011000000000000000000000000000000000000000000000000000000000000000000000000000000000000000000000000000000000000000000000000000000000000000000000000000000000000000000 =
b010110000000000000000000000000000000000000000000000000000000000000000000000000000000000000000000000000000000000000000000010000000000000000 I
b0101000000000000000000000000000000000000000000000000000000000000000000000000000 T
1w
#145
0w
#148
#150
b0111000 .
b000000000000000000000000000000000111000 8
b00000000000000000000000000000011010000000000000000000000000000000000000000000000000000000000000000000000000000000000000000000000000000000000000000000000000000000000000000000000000000000000000000 =
b011000000000000000000000000000000000000000000000000000000000000000000000000000000000000000000000000000000000000000000000010000000000000000 I
b0101100000000000000000000000000000000000000000000000000000000000000000000000000 T
1w
#155
0w
#158
#160
b0111100 .
b000000000000000000000000000000000111100 8
b00000000000000000000000000000011100000000000000000000000000000000000000000000000000000000000000000000000000000000000000000000000000000000000000000000000000000000000000000000000000000000000000000 =
b011010000000000000000000000000000000000000000000000000000000000000000000000000000000000000000000000000000000000000000000010000000000000000 I
b0110000000000000000000000000000000000000000000000000000000000000000000000000000 T
1w
#165
0w
#168
#170
b1000000 .
b000000000000000000000000000000001000000 8
b00000000000000000000000000000011110000000000000000000000000000000000000000000000000000000000000000000000000000000000000000000000000000000000000000000000000000000000000000000000000000000000000000 =
b011100000000000000000000000000000000000000000000000000000000000000000000000000000000000000000000000000000000000000000000010000000000000000 I
b0110100000000000000000000000000000000000000000000000000000000000000000000000000 T
1w
#175
0w
#178
#180
b1000100 .
b000000000000000000000000000000001000100 8
b00000000000000000000000000000100000000000000000000000000000000000000000000000000000000000000000000000000000000000000000000000000000000000000000000000000000000000000000000000000000000000000000000 =
b011110000000000000000000000000000000000000000000000000000000000000000000000000000000000000000000000000000000000000000000010000000000000000 I
b0111000000000000000000000000000000000000000000000000000000000000000000000000000 T
1w
#185
0w
#188
#190
b1001000 .
b000000000000000000000000000000001001000 8
b00000000000000000000000000000100010000000000000000000000000000000000000000000000000000000000000000000000000000000000000000000000000000000000000000000000000000000000000000000000000000000000000000 =
b100000000000000000000000000000000000000000000000000000000000000000000000000000000000000000000000000000000000000000000000010000000000000000 I
b0111100000000000000000000000000000000000000000000000000000000000000000000000000 T
1w
#195
0w
#198
#200
b1001100 .
b000000000000000000000000000000001001100 8
b00000000000000000000000000000100100000000000000000000000000000000000000000000000000000000000000000000000000000000000000000000000000000000000000000000000000000000000000000000000000000000000000000 =
b100010000000000000000000000000000000000000000000000000000000000000000000000000000000000000000000000000000000000000000000010000000000000000 I
b1000000000000000000000000000000000000000000000000000000000000000000000000000000 T
1w
#205
0w
#208
#210
b1010000 .
b000000000000000000000000000000001010000 8
b00000000000000000000000000000100110000000000000000000000000000000000000000000000000000000000000000000000000000000000000000000000000000000000000000000000000000000000000000000000000000000000000000 =
b100100000000000000000000000000000000000000000000000000000000000000000000000000000000000000000000000000000000000000000000010000000000000000 I
b1000100000000000000000000000000000000000000000000000000000000000000000000000000 T
1w
#215
0w
#218
#220
b1010100 .
b000000000000000000000000000000001010100 8
b00000000000000000000000000000101000000000000000000000000000000000000000000000000000000000000000000000000000000000000000000000000000000000000000000000000000000000000000000000000000000000000000000 =
b100110000000000000000000000000000000000000000000000000000000000000000000000000000000000000000000000000000000000000000000010000000000000000 I
b1001000000000000000000000000000000000000000000000000000000000000000000000000000 T
1w
#225
0w
#228
#230
b1011000 .
b000000000000000000000000000000001011000 8
b00000000000000000000000000000101010000000000000000000000000000000000000000000000000000000000000000000000000000000000000000000000000000000000000000000000000000000000000000000000000000000000000000 =
b101000000000000000000000000000000000000000000000000000000000000000000000000000000000000000000000000000000000000000000000010000000000000000 I
b1001100000000000000000000000000000000000000000000000000000000000000000000000000 T
1w
#235
0w
#238
#240
b1011100 .
b000000000000000000000000000000001011100 8
b00000000000000000000000000000101100000000000000000000000000000000000000000000000000000000000000000000000000000000000000000000000000000000000000000000000000000000000000000000000000000000000000000 =
b101010000000000000000000000000000000000000000000000000000000000000000000000000000000000000000000000000000000000000000000010000000000000000 I
b1010000000000000000000000000000000000000000000000000000000000000000000000000000 T
1w
#245
0w
#248
#250
b1100000 .
b000000000000000000000000000000001100000 8
b00000000000000000000000000000101110000000000000000000000000000000000000000000000000000000000000000000000000000000000000000000000000000000000000000000000000000000000000000000000000000000000000000 =
b101100000000000000000000000000000000000000000000000000000000000000000000000000000000000000000000000000000000000000000000010000000000000000 I
b1010100000000000000000000000000000000000000000000000000000000000000000000000000 T
1w
#255
0w
#258
#260
b1100100 .
b000000000000000000000000000000001100100 8
b00000000000000000000000000000110000000000000000000000000000000000000000000000000000000000000000000000000000000000000000000000000000000000000000000000000000000000000000000000000000000000000000000 =
b101110000000000000000000000000000000000000000000000000000000000000000000000000000000000000000000000000000000000000000000010000000000000000 I
b1011000000000000000000000000000000000000000000000000000000000000000000000000000 T
1w
#265
0w
#268
#270
b1101000 .
b000000000000000000000000000000001101000 8
b00000000000000000000000000000110010000000000000000000000000000000000000000000000000000000000000000000000000000000000000000000000000000000000000000000000000000000000000000000000000000000000000000 =
b110000000000000000000000000000000000000000000000000000000000000000000000000000000000000000000000000000000000000000000000010000000000000000 I
b1011100000000000000000000000000000000000000000000000000000000000000000000000000 T
1w
#275
0w
#278
#280
b1101100 .
b000000000000000000000000000000001101100 8
b00000000000000000000000000000110100000000000000000000000000000000000000000000000000000000000000000000000000000000000000000000000000000000000000000000000000000000000000000000000000000000000000000 =
b110010000000000000000000000000000000000000000000000000000000000000000000000000000000000000000000000000000000000000000000010000000000000000 I
b1100000000000000000000000000000000000000000000000000000000000000000000000000000 T
1w
#285
0w
#288
#290
b1110000 .
b000000000000000000000000000000001110000 8
b00000000000000000000000000000110110000000000000000000000000000000000000000000000000000000000000000000000000000000000000000000000000000000000000000000000000000000000000000000000000000000000000000 =
b110100000000000000000000000000000000000000000000000000000000000000000000000000000000000000000000000000000000000000000000010000000000000000 I
b1100100000000000000000000000000000000000000000000000000000000000000000000000000 T
1w
#295
0w
#298
#300
b1110100 .
b000000000000000000000000000000001110100 8
b00000000000000000000000000000111000000000000000000000000000000000000000000000000000000000000000000000000000000000000000000000000000000000000000000000000000000000000000000000000000000000000000000 =
b110110000000000000000000000000000000000000000000000000000000000000000000000000000000000000000000000000000000000000000000010000000000000000 I
b1101000000000000000000000000000000000000000000000000000000000000000000000000000 T
1w
#305
0w
#308
#310
b1111000 .
b000000000000000000000000000000001111000 8
b00000000000000000000000000000111010000000000000000000000000000000000000000000000000000000000000000000000000000000000000000000000000000000000000000000000000000000000000000000000000000000000000000 =
b111000000000000000000000000000000000000000000000000000000000000000000000000000000000000000000000000000000000000000000000010000000000000000 I
b1101100000000000000000000000000000000000000000000000000000000000000000000000000 T
1w
#315
0w
#318
#320
b1111100 .
b000000000000000000000000000000001111100 8
b00000000000000000000000000000111100000000000000000000000000000000000000000000000000000000000000000000000000000000000000000000000000000000000000000000000000000000000000000000000000000000000000000 =
b111010000000000000000000000000000000000000000000000000000000000000000000000000000000000000000000000000000000000000000000010000000000000000 I
b1110000000000000000000000000000000000000000000000000000000000000000000000000000 T
1w
#325
0w
#328
#330
b0000000 .
b000000000000000000000000000000000000000 8
b00000000000000000000000000000111110000000000000000000000000000000000000000000000000000000000000000000000000000000000000000000000000000000000000000000000000000000000000000000000000000000000000000 =
b111100000000000000000000000000000000000000000000000000000000000000000000000000000000000000000000000000000000000000000000010000000000000000 I
b1110100000000000000000000000000000000000000000000000000000000000000000000000000 T
1w
#335
0w
#338
#340
b0000100 .
b00101000010000000000001000000011 /
b000000000000000000000000000000000000100 8
b00000000000000000000000000000000000000000000000000000000000000000000000000000000000000000000000000000000000000000000000000000000000000000000000000000000000000000000000000000000000000000000000000 =
b111110000000000000000000000000000000000000000000000000000000000000000000000000000000000000000000000000000000000000000000010000000000000000 I
b1111000000000000000000000000000000000000000000000000000000000000000000000000000 T
1w
#345
0w
#348
#350
b01 &
1'
b01 )
b0001000 .
b00110000000000000000001100000011 /
b001010000100000000000010000000110001000 8
b0000100000000000010 :
b00000000000000000000000000000000010000000000000000000000000000000000000000000000000000000000000000000000000000000000000000000000000000000000000000000000000000000000000000000000000000000000000000 =
b000000000000000000000000000000000000000000000000000000000000000000000000000000000000000000000000000000000000000000000000010000000000000000 I
b1111100000000000000000000000000000000000000000000000000000000000000000000000000 T
1w
b00000011 y
#355
0w
#358
#360
b0001100 .
b00111001010011000000000000001000 /
b001100000000000000000011000000110001100 8
b0000000000000000011 :
b00001000000100000001000000001000100000000000000000000000000000000000000000000000000000000000000000000000000000000000000000000000000000000000000000000000000000000010001010000000100000000000000010 =
b00000000000000000000000000000010 E
b00000000000000000000000000000010 F
b00000000000000000000000000000010 G
0H
b000010000000000000000000000000000000000000000000000000000000000000000000000000000000000000000000000000000000000000000000010000000000000000 I
b0000000000000000000000000000000000000000000000000000000000000000000000000000000 T
1w
