lab2_waveforms.vcd
$version Generated by VerilatedVcd $end
$date Sun May  1 20:50:57 2022 $end
$timescale 1ps $end

 $scope module TOP $end
  $var wire  8 q Op [7:0] $end
  $var wire  1 o clock $end
  $var wire  1 p reset $end
  $scope module top $end
   $var wire  4 ( ALUOp [3:0] $end
   $var wire  1 * ALUOp2 $end
   $var wire  2 ) ALUSrc [1:0] $end
   $var wire  1 # MemRead $end
   $var wire  2 & MemToReg [1:0] $end
   $var wire  1 $ MemWrite $end
   $var wire  8 q Op [7:0] $end
   $var wire  1 % PCSrc $end
   $var wire  1 + RbSelect $end
   $var wire  1 ' RegWrite $end
   $var wire  1 o clock $end
   $var wire  1 p reset $end
   $scope module ctr $end
    $var wire  4 ( AluOp [3:0] $end
    $var wire  1 * AluOp2 $end
    $var wire  2 ) AluSrc [1:0] $end
    $var wire  1 # MemRead $end
    $var wire  2 & MemToReg [1:0] $end
    $var wire  1 $ MemWrite $end
    $var wire  8 q Op [7:0] $end
    $var wire  1 % PCSrc $end
    $var wire  1 + RbSelect $end
    $var wire  1 ' RegWrite $end
   $upscope $end
   $scope module datapath $end
    $var wire  4 ( ALUOp [3:0] $end
    $var wire  1 * ALUOp2 $end
    $var wire  2 ) ALUSrc [1:0] $end
    $var wire 32 D Alu1out [31:0] $end
    $var wire 32 K Alu2out [31:0] $end
    $var wire 114 E ExMem [113:0] $end
    $var wire  2 1 ForwardingA [1:0] $end
    $var wire  2 2 ForwardingB [1:0] $end
    $var wire 171 ; IdEx [170:0] $end
    $var wire 39 6 IfId [38:0] $end
    $var wire  1 5 IfIdEN $end
    $var wire 19 8 JumpAddress [18:0] $end
    $var wire  1 # MemRead $end
    $var wire  2 & MemToReg [1:0] $end
    $var wire 79 L MemWb [78:0] $end
    $var wire  1 $ MemWrite $end
    $var wire  8 q Op [7:0] $end
    $var wire  7 , PC [6:0] $end
    $var wire  7 u PCSTART [6:0] $end
    $var wire  1 % PCSrc $end
    $var wire  1 4 PCenable $end
    $var wire 32 O RF[0] [31:0] $end
    $var wire 32 Y RF[10] [31:0] $end
    $var wire 32 Z RF[11] [31:0] $end
    $var wire 32 [ RF[12] [31:0] $end
    $var wire 32 \ RF[13] [31:0] $end
    $var wire 32 ] RF[14] [31:0] $end
    $var wire 32 ^ RF[15] [31:0] $end
    $var wire 32 _ RF[16] [31:0] $end
    $var wire 32 ` RF[17] [31:0] $end
    $var wire 32 a RF[18] [31:0] $end
    $var wire 32 b RF[19] [31:0] $end
    $var wire 32 P RF[1] [31:0] $end
    $var wire 32 c RF[20] [31:0] $end
    $var wire 32 d RF[21] [31:0] $end
    $var wire 32 e RF[22] [31:0] $end
    $var wire 32 f RF[23] [31:0] $end
    $var wire 32 g RF[24] [31:0] $end
    $var wire 32 h RF[25] [31:0] $end
    $var wire 32 i RF[26] [31:0] $end
    $var wire 32 j RF[27] [31:0] $end
    $var wire 32 k RF[28] [31:0] $end
    $var wire 32 l RF[29] [31:0] $end
    $var wire 32 Q RF[2] [31:0] $end
    $var wire 32 m RF[30] [31:0] $end
    $var wire 32 n RF[31] [31:0] $end
    $var wire 32 R RF[3] [31:0] $end
    $var wire 32 S RF[4] [31:0] $end
    $var wire 32 T RF[5] [31:0] $end
    $var wire 32 U RF[6] [31:0] $end
    $var wire 32 V RF[7] [31:0] $end
    $var wire 32 W RF[8] [31:0] $end
    $var wire 32 X RF[9] [31:0] $end
    $var wire 32 : RF_WriteAddr [31:0] $end
    $var wire 32 9 RF_WriteData [31:0] $end
    $var wire  1 + RbSelect $end
    $var wire  1 ' RegWrite $end
    $var wire 32 A alu1in_a [31:0] $end
    $var wire 32 B alu1in_b [31:0] $end
    $var wire 32 C alu1in_b_mux [31:0] $end
    $var wire 32 I alu2in_a [31:0] $end
    $var wire 32 J alu2in_b [31:0] $end
    $var wire  1 o clk $end
    $var wire 32 r da [31:0] $end
    $var wire  7 . datamem_address [6:0] $end
    $var wire 32 / datamem_data [31:0] $end
    $var wire 32 0 datamem_write_data [31:0] $end
    $var wire 32 s db [31:0] $end
    $var wire 32 t dc [31:0] $end
    $var wire  7 , instmem_address [6:0] $end
    $var wire 32 - instmem_data [31:0] $end
    $var wire  1 p reset $end
    $var wire  1 3 stall_flag $end
   $upscope $end
  $upscope $end
 $upscope $end
$enddefinitions $end


#8
0#
0$
0%
b00 &
0'
b0000 (
b00 )
0*
0+
b0000000 ,
b00000000000000000000000000000000 -
b0000000 .
b00000000000000000000000000000000 /
b00000000000000000000000000000000 0
b00 1
b00 2
03
14
15
b000000000000000000000000000000000000000 6
b0000000000000000000 8
b00000000000000000000000000000000 9
b00000000000000000000000000000000 :
b000000000000000000000000000000000000000000000000000000000000000000000000000000000000000000000000000000000000000000000000000000000000000000000000000000000000000000000000000 ;
b00000000000000000000000000000000 A
b00000000000000000000000000000000 B
b00000000000000000000000000000000 C
b00000000000000000000000000000000 D
b000000000000000000000000000000000000000000000000000000000000000000000000000000000000000000000000000000000000000000 E
b00000000000000000000000000000000 I
b00000000000000000000000000000000 J
b00000000000000000000000000000000 K
b0000000000000000000000000000000000000000000000000000000000000000000000000000000 L
b00000000000000000000000000000000 O
b00000000000000000000000000000000 P
b00000000000000000000000000000000 Q
b00000000000000000000000000000000 R
b00000000000000000000000000000000 S
b00000000000000000000000000000000 T
b00000000000000000000000000000000 U
b00000000000000000000000000000000 V
b00000000000000000000000000000000 W
b00000000000000000000000000000000 X
b00000000000000000000000000000000 Y
b00000000000000000000000000000000 Z
b00000000000000000000000000000000 [
b00000000000000000000000000000000 \
b00000000000000000000000000000000 ]
b00000000000000000000000000000000 ^
b00000000000000000000000000000000 _
b00000000000000000000000000000000 `
b00000000000000000000000000000000 a
b00000000000000000000000000000000 b
b00000000000000000000000000000000 c
b00000000000000000000000000000000 d
b00000000000000000000000000000000 e
b00000000000000000000000000000000 f
b00000000000000000000000000000000 g
b00000000000000000000000000000000 h
b00000000000000000000000000000000 i
b00000000000000000000000000000000 j
b00000000000000000000000000000000 k
b00000000000000000000000000000000 l
b00000000000000000000000000000000 m
b00000000000000000000000000000000 n
0o
1p
b00000000 q
b00000000000000000000000000000000 r
b00000000000000000000000000000000 s
b00000000000000000000000000000000 t
b0000000 u
#10
b000000000000000000000000000000000000100 6
1o
#15
0o
#18
0p
#20
b0000100 ,
b00101000010000000001010000000011 -
b000000000000000000000000001000000000000000000000000000000000000000000000000000000000000000000000000000000000000000000000000000000000000000000000000000000000000000000000000 ;
1o
#25
0o
#28
#30
b01 &
1'
b01 )
b0001000 ,
b00110000010000000000000100000011 -
b001010000100000000010100000000110001000 6
b0000100000000010100 8
b000010000000000000000000000000000000000000000000000000000000000000000000000000000000000000000000000000000000000000 E
1o
b00000011 q
#35
0o
#38
#40
b0001100 ,
b00111001010011000000000000001000 -
b001100000100000000000001000000110001100 6
b0000100000000000001 8
b000010000001000000100100010000000000000000000000000000000000000000000000000000000000000000000000000000000000000000000000000000000000000000000000000000001010000101000010100 ;
b00000000000000000000000000010100 B
b00000000000000000000000000010100 C
b00000000000000000000000000010100 D
b0000100000000000000000000000000000000000000000000000000000000000000000000000000 L
1o
#45
0o
#48
#50
b00 )
b0010000 ,
b00000000000000000000000000000000 -
b0010100 .
b001110010100110000000000000010000010000 6
b0010100110000000000 8
b000010000001000000100100011000000000000000000000000000000000000000000000000000000000000000000000000000000000000000000000000000000000000000000000000000000000100110000000001 ;
b00000000000000000000000000000001 B
b00000000000000000000000000000001 C
b00000000000000000000000000000001 D
b000100000100100000000000000000000000000010100000000000000000000000000000000000000000000000000000000000000000000101 E
b00000000000000000000000000010100 I
b00000000000000000000000000010100 K
1o
b00001000 q
#55
0o
#58
#60
b00 &
0'
b0010100 ,
b0000001 .
b10 2
b000000000000000000000000000000000010100 6
b0000000000000000000 8
b00000000000000000000000000010100 9
b00000000000000000000000000000101 :
b001010011000000000100100100000000000000000000000000000000000000000000000000000000000000000000000000000000000000000000000000000000000000000000000011000000000000111000000000 ;
b00000000000000000000000000000000 C
b000110000100100000000000000000000000000000001000000000000000000000000000000000000000000000000000000000000000000110 E
b00000000000000000000000000000001 I
b00000000000000000000000000000001 K
b0001000101000000000000000000000000000000000000000000000000000000000001010000101 L
1o
b00000000 q
#65
b00000000000000000000000000010100 T
0o
#68
#70
b0011000 ,
b00 2
b000000000000000000000000000000000011000 6
b00000000000000000000000000000001 9
b00000000000000000000000000000110 :
b000000000000000000000000101000000000000000000000000000000000000000000000000000000000000000000000000000000000000000000000000000000000000000000000000000000000000000000000000 ;
b00000000000000000000000000000000 B
b00000000000000000000000000000000 D
b001000000100100000000000000000000000000000001000000000000000000000000000000000000000000000000000000000000000000111 E
b0001100101000000000000000000000000000000000000000000000000000000000000000100110 L
1o
#75
b00000000000000000000000000000001 U
0o
#78
#80
b0011100 ,
b0000000 .
b000000000000000000000000000000000011100 6
b00000000000000000000000000000111 :
b000000000000000000000000110000000000000000000000000000000000000000000000000000000000000000000000000000000000000000000000000000000000000000000000000000000000000000000000000 ;
b001010000000000000000000000000000000000000000000000000000000000000000000000000000000000000000000000000000000000000 E
b00000000000000000000000000000000 I
b00000000000000000000000000000000 K
b0010000101000000000000000000000000000000000000000000000000000000000000000100111 L
1o
#85
b00000000000000000000000000000001 V
0o
#88
#90
b0100000 ,
b000000000000000000000000000000000100000 6
b00000000000000000000000000000000 9
b00000000000000000000000000000000 :
b000000000000000000000000111000000000000000000000000000000000000000000000000000000000000000000000000000000000000000000000000000000000000000000000000000000000000000000000000 ;
b001100000000000000000000000000000000000000000000000000000000000000000000000000000000000000000000000000000000000000 E
b0010100000000000000000000000000000000000000000000000000000000000000000000000000 L
1o
#95
0o
#98
#100
b0100100 ,
b000000000000000000000000000000000100100 6
b000000000000000000000001000000000000000000000000000000000000000000000000000000000000000000000000000000000000000000000000000000000000000000000000000000000000000000000000000 ;
b001110000000000000000000000000000000000000000000000000000000000000000000000000000000000000000000000000000000000000 E
b0011000000000000000000000000000000000000000000000000000000000000000000000000000 L
1o
#105
0o
#108
#110
b0101000 ,
b000000000000000000000000000000000101000 6
b000000000000000000000001001000000000000000000000000000000000000000000000000000000000000000000000000000000000000000000000000000000000000000000000000000000000000000000000000 ;
b010000000000000000000000000000000000000000000000000000000000000000000000000000000000000000000000000000000000000000 E
b0011100000000000000000000000000000000000000000000000000000000000000000000000000 L
1o
#115
0o
#118
#120
b0101100 ,
b000000000000000000000000000000000101100 6
b000000000000000000000001010000000000000000000000000000000000000000000000000000000000000000000000000000000000000000000000000000000000000000000000000000000000000000000000000 ;
b010010000000000000000000000000000000000000000000000000000000000000000000000000000000000000000000000000000000000000 E
b0100000000000000000000000000000000000000000000000000000000000000000000000000000 L
1o
#125
0o
#128
#130
b0110000 ,
b000000000000000000000000000000000110000 6
b000000000000000000000001011000000000000000000000000000000000000000000000000000000000000000000000000000000000000000000000000000000000000000000000000000000000000000000000000 ;
b010100000000000000000000000000000000000000000000000000000000000000000000000000000000000000000000000000000000000000 E
b0100100000000000000000000000000000000000000000000000000000000000000000000000000 L
1o
#135
0o
#138
#140
b0110100 ,
b000000000000000000000000000000000110100 6
b000000000000000000000001100000000000000000000000000000000000000000000000000000000000000000000000000000000000000000000000000000000000000000000000000000000000000000000000000 ;
b010110000000000000000000000000000000000000000000000000000000000000000000000000000000000000000000000000000000000000 E
b0101000000000000000000000000000000000000000000000000000000000000000000000000000 L
1o
#145
0o
#148
#150
b0111000 ,
b000000000000000000000000000000000111000 6
b000000000000000000000001101000000000000000000000000000000000000000000000000000000000000000000000000000000000000000000000000000000000000000000000000000000000000000000000000 ;
b011000000000000000000000000000000000000000000000000000000000000000000000000000000000000000000000000000000000000000 E
b0101100000000000000000000000000000000000000000000000000000000000000000000000000 L
1o
#155
0o
#158
#160
b0111100 ,
b000000000000000000000000000000000111100 6
b000000000000000000000001110000000000000000000000000000000000000000000000000000000000000000000000000000000000000000000000000000000000000000000000000000000000000000000000000 ;
b011010000000000000000000000000000000000000000000000000000000000000000000000000000000000000000000000000000000000000 E
b0110000000000000000000000000000000000000000000000000000000000000000000000000000 L
1o
#165
0o
#168
#170
b1000000 ,
b000000000000000000000000000000001000000 6
b000000000000000000000001111000000000000000000000000000000000000000000000000000000000000000000000000000000000000000000000000000000000000000000000000000000000000000000000000 ;
b011100000000000000000000000000000000000000000000000000000000000000000000000000000000000000000000000000000000000000 E
b0110100000000000000000000000000000000000000000000000000000000000000000000000000 L
1o
#175
0o
#178
#180
b1000100 ,
b000000000000000000000000000000001000100 6
b000000000000000000000010000000000000000000000000000000000000000000000000000000000000000000000000000000000000000000000000000000000000000000000000000000000000000000000000000 ;
b011110000000000000000000000000000000000000000000000000000000000000000000000000000000000000000000000000000000000000 E
b0111000000000000000000000000000000000000000000000000000000000000000000000000000 L
1o
#185
0o
#188
#190
b1001000 ,
b000000000000000000000000000000001001000 6
b000000000000000000000010001000000000000000000000000000000000000000000000000000000000000000000000000000000000000000000000000000000000000000000000000000000000000000000000000 ;
b100000000000000000000000000000000000000000000000000000000000000000000000000000000000000000000000000000000000000000 E
b0111100000000000000000000000000000000000000000000000000000000000000000000000000 L
1o
#195
0o
#198
#200
b1001100 ,
b000000000000000000000000000000001001100 6
b000000000000000000000010010000000000000000000000000000000000000000000000000000000000000000000000000000000000000000000000000000000000000000000000000000000000000000000000000 ;
b100010000000000000000000000000000000000000000000000000000000000000000000000000000000000000000000000000000000000000 E
b1000000000000000000000000000000000000000000000000000000000000000000000000000000 L
1o
#205
0o
#208
#210
b1010000 ,
b000000000000000000000000000000001010000 6
b000000000000000000000010011000000000000000000000000000000000000000000000000000000000000000000000000000000000000000000000000000000000000000000000000000000000000000000000000 ;
b100100000000000000000000000000000000000000000000000000000000000000000000000000000000000000000000000000000000000000 E
b1000100000000000000000000000000000000000000000000000000000000000000000000000000 L
1o
#215
0o
#218
#220
b1010100 ,
b000000000000000000000000000000001010100 6
b000000000000000000000010100000000000000000000000000000000000000000000000000000000000000000000000000000000000000000000000000000000000000000000000000000000000000000000000000 ;
b100110000000000000000000000000000000000000000000000000000000000000000000000000000000000000000000000000000000000000 E
b1001000000000000000000000000000000000000000000000000000000000000000000000000000 L
1o
#225
0o
#228
#230
b1011000 ,
b000000000000000000000000000000001011000 6
b000000000000000000000010101000000000000000000000000000000000000000000000000000000000000000000000000000000000000000000000000000000000000000000000000000000000000000000000000 ;
b101000000000000000000000000000000000000000000000000000000000000000000000000000000000000000000000000000000000000000 E
b1001100000000000000000000000000000000000000000000000000000000000000000000000000 L
1o
#235
0o
#238
#240
b1011100 ,
b000000000000000000000000000000001011100 6
b000000000000000000000010110000000000000000000000000000000000000000000000000000000000000000000000000000000000000000000000000000000000000000000000000000000000000000000000000 ;
b101010000000000000000000000000000000000000000000000000000000000000000000000000000000000000000000000000000000000000 E
b1010000000000000000000000000000000000000000000000000000000000000000000000000000 L
1o
#245
0o
#248
#250
b1100000 ,
b000000000000000000000000000000001100000 6
b000000000000000000000010111000000000000000000000000000000000000000000000000000000000000000000000000000000000000000000000000000000000000000000000000000000000000000000000000 ;
b101100000000000000000000000000000000000000000000000000000000000000000000000000000000000000000000000000000000000000 E
b1010100000000000000000000000000000000000000000000000000000000000000000000000000 L
1o
#255
0o
#258
#260
b1100100 ,
b000000000000000000000000000000001100100 6
b000000000000000000000011000000000000000000000000000000000000000000000000000000000000000000000000000000000000000000000000000000000000000000000000000000000000000000000000000 ;
b101110000000000000000000000000000000000000000000000000000000000000000000000000000000000000000000000000000000000000 E
b1011000000000000000000000000000000000000000000000000000000000000000000000000000 L
1o
#265
0o
#268
#270
b1101000 ,
b000000000000000000000000000000001101000 6
b000000000000000000000011001000000000000000000000000000000000000000000000000000000000000000000000000000000000000000000000000000000000000000000000000000000000000000000000000 ;
b110000000000000000000000000000000000000000000000000000000000000000000000000000000000000000000000000000000000000000 E
b1011100000000000000000000000000000000000000000000000000000000000000000000000000 L
1o
#275
0o
#278
#280
b1101100 ,
b000000000000000000000000000000001101100 6
b000000000000000000000011010000000000000000000000000000000000000000000000000000000000000000000000000000000000000000000000000000000000000000000000000000000000000000000000000 ;
b110010000000000000000000000000000000000000000000000000000000000000000000000000000000000000000000000000000000000000 E
b1100000000000000000000000000000000000000000000000000000000000000000000000000000 L
1o
#285
0o
#288
#290
b1110000 ,
b000000000000000000000000000000001110000 6
b000000000000000000000011011000000000000000000000000000000000000000000000000000000000000000000000000000000000000000000000000000000000000000000000000000000000000000000000000 ;
b110100000000000000000000000000000000000000000000000000000000000000000000000000000000000000000000000000000000000000 E
b1100100000000000000000000000000000000000000000000000000000000000000000000000000 L
1o
#295
0o
#298
#300
b1110100 ,
b000000000000000000000000000000001110100 6
b000000000000000000000011100000000000000000000000000000000000000000000000000000000000000000000000000000000000000000000000000000000000000000000000000000000000000000000000000 ;
b110110000000000000000000000000000000000000000000000000000000000000000000000000000000000000000000000000000000000000 E
b1101000000000000000000000000000000000000000000000000000000000000000000000000000 L
1o
#305
0o
#308
#310
b1111000 ,
b000000000000000000000000000000001111000 6
b000000000000000000000011101000000000000000000000000000000000000000000000000000000000000000000000000000000000000000000000000000000000000000000000000000000000000000000000000 ;
b111000000000000000000000000000000000000000000000000000000000000000000000000000000000000000000000000000000000000000 E
b1101100000000000000000000000000000000000000000000000000000000000000000000000000 L
1o
#315
0o
#318
#320
b1111100 ,
b000000000000000000000000000000001111100 6
b000000000000000000000011110000000000000000000000000000000000000000000000000000000000000000000000000000000000000000000000000000000000000000000000000000000000000000000000000 ;
b111010000000000000000000000000000000000000000000000000000000000000000000000000000000000000000000000000000000000000 E
b1110000000000000000000000000000000000000000000000000000000000000000000000000000 L
1o
#325
0o
#328
#330
b0000000 ,
b000000000000000000000000000000000000000 6
b000000000000000000000011111000000000000000000000000000000000000000000000000000000000000000000000000000000000000000000000000000000000000000000000000000000000000000000000000 ;
b111100000000000000000000000000000000000000000000000000000000000000000000000000000000000000000000000000000000000000 E
b1110100000000000000000000000000000000000000000000000000000000000000000000000000 L
1o
#335
0o
#338
#340
b0000100 ,
b00101000010000000001010000000011 -
b000000000000000000000000000000000000100 6
b000000000000000000000000000000000000000000000000000000000000000000000000000000000000000000000000000000000000000000000000000000000000000000000000000000000000000000000000000 ;
b111110000000000000000000000000000000000000000000000000000000000000000000000000000000000000000000000000000000000000 E
b1111000000000000000000000000000000000000000000000000000000000000000000000000000 L
1o
#345
0o
#348
#350
b01 &
1'
b01 )
b0001000 ,
b00110000010000000000000100000011 -
b001010000100000000010100000000110001000 6
b0000100000000010100 8
b000000000000000000000000001000000000000000000000000000000000000000000000000000000000000000000000000000000000000000000000000000000000000000000000000000000000000000000000000 ;
b000000000000000000000000000000000000000000000000000000000000000000000000000000000000000000000000000000000000000000 E
b1111100000000000000000000000000000000000000000000000000000000000000000000000000 L
1o
b00000011 q
#355
0o
#358
#360
b0001100 ,
b00111001010011000000000000001000 -
b001100000100000000000001000000110001100 6
b0000100000000000001 8
b000010000001000000100100010000000000000000000000000000000000000000000000000000000000000000000000000000000000000000000000000000000000000000000000000000001010000101000010100 ;
b00000000000000000000000000010100 B
b00000000000000000000000000010100 C
b00000000000000000000000000010100 D
b000010000000000000000000000000000000000000000000000000000000000000000000000000000000000000000000000000000000000000 E
b0000000000000000000000000000000000000000000000000000000000000000000000000000000 L
1o
