lab2_waveforms.vcd
$version Generated by VerilatedVcd $end
$date Mon May  2 14:51:47 2022 $end
$timescale 1ps $end

 $scope module TOP $end
  $var wire  8 y Op [7:0] $end
  $var wire  1 w clock $end
  $var wire  1 x reset $end
  $scope module top $end
   $var wire  4 ( ALUOp [3:0] $end
   $var wire  1 * ALUOp2 $end
   $var wire  2 ) ALUSrc [1:0] $end
   $var wire  4 # MemRead [3:0] $end
   $var wire  1 , MemSignExtend $end
   $var wire  2 & MemToReg [1:0] $end
   $var wire  4 $ MemWrite [3:0] $end
   $var wire  8 y Op [7:0] $end
   $var wire  1 % PCSrc $end
   $var wire  1 + RbSelect $end
   $var wire  1 ' RegWrite $end
   $var wire  2 - branch_flag [1:0] $end
   $var wire  1 w clock $end
   $var wire  1 x reset $end
   $scope module ctr $end
    $var wire  4 ( AluOp [3:0] $end
    $var wire  1 * AluOp2 $end
    $var wire  2 ) AluSrc [1:0] $end
    $var wire  4 # MemRead [3:0] $end
    $var wire  1 , MemSignExtend $end
    $var wire  2 & MemToReg [1:0] $end
    $var wire  4 $ MemWrite [3:0] $end
    $var wire  8 y Op [7:0] $end
    $var wire  1 % PCSrc $end
    $var wire  1 + RbSelect $end
    $var wire  1 ' RegWrite $end
    $var wire  2 - branch_flag [1:0] $end
   $upscope $end
   $scope module datapath $end
    $var wire  4 ( ALUOp [3:0] $end
    $var wire  1 * ALUOp2 $end
    $var wire  2 ) ALUSrc [1:0] $end
    $var wire 32 G Alu1out [31:0] $end
    $var wire 32 P Alu2out [31:0] $end
    $var wire 138 I ExMem [137:0] $end
    $var wire  2 3 ForwardingA [1:0] $end
    $var wire  2 4 ForwardingB [1:0] $end
    $var wire 194 = IdEx [193:0] $end
    $var wire 39 8 IfId [38:0] $end
    $var wire  1 7 IfIdEN $end
    $var wire 19 : JumpAddress [18:0] $end
    $var wire  4 # MemRead [3:0] $end
    $var wire  1 , MemSignExtend $end
    $var wire  2 & MemToReg [1:0] $end
    $var wire 79 T MemWb [78:0] $end
    $var wire  4 $ MemWrite [3:0] $end
    $var wire  8 y Op [7:0] $end
    $var wire  7 . PC [6:0] $end
    $var wire  7 } PCSTART [6:0] $end
    $var wire  1 % PCSrc $end
    $var wire  1 6 PCenable $end
    $var wire 32 W RF[0] [31:0] $end
    $var wire 32 a RF[10] [31:0] $end
    $var wire 32 b RF[11] [31:0] $end
    $var wire 32 c RF[12] [31:0] $end
    $var wire 32 d RF[13] [31:0] $end
    $var wire 32 e RF[14] [31:0] $end
    $var wire 32 f RF[15] [31:0] $end
    $var wire 32 g RF[16] [31:0] $end
    $var wire 32 h RF[17] [31:0] $end
    $var wire 32 i RF[18] [31:0] $end
    $var wire 32 j RF[19] [31:0] $end
    $var wire 32 X RF[1] [31:0] $end
    $var wire 32 k RF[20] [31:0] $end
    $var wire 32 l RF[21] [31:0] $end
    $var wire 32 m RF[22] [31:0] $end
    $var wire 32 n RF[23] [31:0] $end
    $var wire 32 o RF[24] [31:0] $end
    $var wire 32 p RF[25] [31:0] $end
    $var wire 32 q RF[26] [31:0] $end
    $var wire 32 r RF[27] [31:0] $end
    $var wire 32 s RF[28] [31:0] $end
    $var wire 32 t RF[29] [31:0] $end
    $var wire 32 Y RF[2] [31:0] $end
    $var wire 32 u RF[30] [31:0] $end
    $var wire 32 v RF[31] [31:0] $end
    $var wire 32 Z RF[3] [31:0] $end
    $var wire 32 [ RF[4] [31:0] $end
    $var wire 32 \ RF[5] [31:0] $end
    $var wire 32 ] RF[6] [31:0] $end
    $var wire 32 ^ RF[7] [31:0] $end
    $var wire 32 _ RF[8] [31:0] $end
    $var wire 32 ` RF[9] [31:0] $end
    $var wire 32 < RF_WriteAddr [31:0] $end
    $var wire 32 ; RF_WriteData [31:0] $end
    $var wire  1 + RbSelect $end
    $var wire  1 ' RegWrite $end
    $var wire 32 D alu1in_a [31:0] $end
    $var wire 32 E alu1in_b [31:0] $end
    $var wire 32 F alu1in_b_mux [31:0] $end
    $var wire 32 N alu2in_a [31:0] $end
    $var wire 32 O alu2in_b [31:0] $end
    $var wire  1 S branch_eq $end
    $var wire  2 - branch_flag [1:0] $end
    $var wire  1 R branch_ne $end
    $var wire  1 Q branch_src $end
    $var wire  1 w clk $end
    $var wire 32 z da [31:0] $end
    $var wire  7 0 datamem_address [6:0] $end
    $var wire 32 1 datamem_data [31:0] $end
    $var wire 32 2 datamem_write_data [31:0] $end
    $var wire 32 { db [31:0] $end
    $var wire 32 | dc [31:0] $end
    $var wire  7 . instmem_address [6:0] $end
    $var wire 32 / instmem_data [31:0] $end
    $var wire  1 x reset $end
    $var wire  1 5 stall_flag $end
    $var wire  1 H zero_flag $end
   $upscope $end
  $upscope $end
 $upscope $end
$enddefinitions $end


#8
b0000 #
b0000 $
0%
b00 &
0'
b0000 (
b00 )
0*
0+
0,
b00 -
b0000000 .
b00000000000000000000000000000000 /
b0000000 0
b00000000000000000000000000000000 1
b00000000000000000000000000000000 2
b00 3
b00 4
05
16
17
b000000000000000000000000000000000000000 8
b0000000000000000000 :
b00000000000000000000000000000000 ;
b00000000000000000000000000000000 <
b00000000000000000000000000000000000000000000000000000000000000000000000000000000000000000000000000000000000000000000000000000000000000000000000000000000000000000000000000000000000000000000000000 =
b00000000000000000000000000000000 D
b00000000000000000000000000000000 E
b00000000000000000000000000000000 F
b00000000000000000000000000000000 G
1H
b000000000000000000000000000000000000000000000000000000000000000000000000000000000000000000000000000000000000000000000000000000000000000000 I
b00000000000000000000000000000000 N
b00000000000000000000000000000000 O
b00000000000000000000000000000000 P
0Q
0R
0S
b0000000000000000000000000000000000000000000000000000000000000000000000000000000 T
b00000000000000000000000000000000 W
b00000000000000000000000000000000 X
b00000000000000000000000000000000 Y
b00000000000000000000000000000000 Z
b00000000000000000000000000000000 [
b00000000000000000000000000000000 \
b00000000000000000000000000000000 ]
b00000000000000000000000000000000 ^
b00000000000000000000000000000000 _
b00000000000000000000000000000000 `
b00000000000000000000000000000000 a
b00000000000000000000000000000000 b
b00000000000000000000000000000000 c
b00000000000000000000000000000000 d
b00000000000000000000000000000000 e
b00000000000000000000000000000000 f
b00000000000000000000000000000000 g
b00000000000000000000000000000000 h
b00000000000000000000000000000000 i
b00000000000000000000000000000000 j
b00000000000000000000000000000000 k
b00000000000000000000000000000000 l
b00000000000000000000000000000000 m
b00000000000000000000000000000000 n
b00000000000000000000000000000000 o
b00000000000000000000000000000000 p
b00000000000000000000000000000000 q
b00000000000000000000000000000000 r
b00000000000000000000000000000000 s
b00000000000000000000000000000000 t
b00000000000000000000000000000000 u
b00000000000000000000000000000000 v
0w
1x
b00000000 y
b00000000000000000000000000000000 z
b00000000000000000000000000000000 {
b00000000000000000000000000000000 |
b0000000 }
#10
b000000000000000000000000000000000000100 8
b000000000000000000000000000000000000000000000000000000000000000000000000000000000000000000000000000000000000000000000000010000000000000000 I
1w
#15
0w
#18
0x
#20
b0000100 .
b00101000010000000001010000000011 /
b00000000000000000000000000000000010000000000000000000000000000000000000000000000000000000000000000000000000000000000000000000000000000000000000000000000000000000000000000000000000000000000000000 =
1w
#25
0w
#28
#30
b01 &
1'
b01 )
b0001000 .
b00110000000000000000001000000011 /
b001010000100000000010100000000110001000 8
b0000100000000010100 :
b000010000000000000000000000000000000000000000000000000000000000000000000000000000000000000000000000000000000000000000000010000000000000000 I
1w
b00000011 y
#35
0w
#38
#40
b0001100 .
b00111001100000000000100001000001 /
b001100000000000000000010000000110001100 8
b0000000000000000010 :
b00001000000100000001000000001000100000000000000000000000000000000000000000000000000000000000000000000000000000000000000000000000000000000000000000000000000000010100001010000101000000000000010100 =
b00000000000000000000000000010100 E
b00000000000000000000000000010100 F
b00000000000000000000000000010100 G
0H
b0000100000000000000000000000000000000000000000000000000000000000000000000000000 T
1w
#45
0w
#48
#50
b00 &
0'
b0001 (
b00 )
b10 -
b0010000 .
b00000000000000000000000000000000 /
b0010100 0
b001110011000000000001000010000010010000 8
b0011000000000001000 :
b00000000000100000001000000001000110000000000000000000000000000000000000000000000000000000000000000000000000000000000000000000000000000000000000000000000000000000010001100000000100000000000000010 =
b00000000000000000000000000000010 E
b00000000000000000000000000000010 F
b00000000000000000000000000000010 G
b000100000000000010010000000000000000000000000001010000000000000000000000000000000000000000000000000000000000000000000010100000000000010100 I
b00000000000000000000000000010100 N
b00000000000000000000000000010100 P
1w
b01000001 y
#55
0w
#58
#60
b0000 (
b00 -
b0010100 .
b0000010 0
b10 3
b000000000000000000000000000000000010100 8
b0000000000000000000 :
b00000000000000000000000000010100 ;
b00000000000000000000000000000101 <
b00110000000000010000000000000001000000000000000000000000000000000000000000000000000000000000000000000000000000000000000000000000000000000000000000000000000000001000001110000010001000000000001000 =
b00000000000000000000000000000010 D
b00000000000000000000000000000000 E
b00000000000000000000000000000000 F
b000110000000000010010000000000000000000000000000001000000000000000000000000000000000000000000000000000000000000000000011000000000000000010 I
b00000000000000000000000000000010 N
b00000000000000000000000000000010 P
b0001000101000000000000000000000000000000000000000000000000000000000001010000101 T
1w
b00000000 y
#65
b00000000000000000000000000010100 \
0w
#68
#70
b0011000 .
b00 3
b000000000000000000000000000000000011000 8
b00000000000000000000000000000010 ;
b00000000000000000000000000000110 <
b00000000000000000000000000000001010000000000000000000000000000000000000000000000000000000000000000000000000000000000000000000000000000000000000000000000000000000000000000000000000000000000000000 =
b00000000000000000000000000000000 D
b00000000000000000000000000000000 G
1H
b001000000000000000000000000000000000000000000000001000000000000000000000000000000000000000000000000000000000000000000011101000000000001000 I
1Q
1R
b0001100101000000000000000000000000000000000000000000000000000000000000001000110 T
1w
#75
b00000000000000000000000000000010 ]
0w
#78
#80
b0001000 .
b00110000000000000000001000000011 /
b0000000 0
b000000000000000000000000000000000011100 8
b00000000000000000000000000000000 ;
b00000000000000000000000000000111 <
b00000000000000000000000000000001100000000000000000000000000000000000000000000000000000000000000000000000000000000000000000000000000000000000000000000000000000000000000000000000000000000000000000 =
b001010000000000000000000000000000000000000000000000000000000000000000000000000000000000000000000000000000000000000000000010000000000000000 I
b00000000000000000000000000000000 N
b00000000000000000000000000000000 P
0Q
0R
b0010000000000000000000000000000000000000000000000000000000000000000000001000111 T
1w
#85
0w
#88
#90
b01 &
1'
b01 )
b0001100 .
b00111001100000000000100001000001 /
b001100000000000000000010000000110001100 8
b0000000000000000010 :
b00000000000000000000000000000000 <
b00000000000000000000000000000001110000000000000000000000000000000000000000000000000000000000000000000000000000000000000000000000000000000000000000000000000000000000000000000000000000000000000000 =
b001100000000000000000000000000000000000000000000000000000000000000000000000000000000000000000000000000000000000000000000010000000000000000 I
b0010100000000000000000000000000000000000000000000000000000000000000000000000000 T
1w
b00000011 y
#95
0w
#98
#100
b00 &
0'
b0001 (
b00 )
b10 -
b0010000 .
b00000000000000000000000000000000 /
b001110011000000000001000010000010010000 8
b0011000000000001000 :
b00000000000100000001000000001000110000000000000000000000000000000000000000000000000000000000000000000000000000000000000000000000000000000000000000000000000000000010001100000000100000000000000010 =
b00000000000000000000000000000010 E
b00000000000000000000000000000010 F
b00000000000000000000000000000010 G
0H
b001110000000000000000000000000000000000000000000000000000000000000000000000000000000000000000000000000000000000000000000010000000000000000 I
b0011000000000000000000000000000000000000000000000000000000000000000000000000000 T
1w
b01000001 y
b00000000000000000000000000000010 z
#105
0w
#108
#110
b0000 (
b00 -
b0010100 .
b0000010 0
b10 3
b000000000000000000000000000000000010100 8
b0000000000000000000 :
b00110000000000010000000000000001000000000000000000000000000000000010000000000000000000000000000000000000000000000000000000000000000000000000000000000000000000001000001110000010001000000000001000 =
b00000000000000000000000000000010 D
b00000000000000000000000000000000 E
b00000000000000000000000000000000 F
b000110000000000010010000000000000000000000000000001000000000000000000000000000000000000000000000000000000000000000000011000000000000000010 I
b00000000000000000000000000000010 N
b00000000000000000000000000000010 P
b0011100000000000000000000000000000000000000000000000000000000000000000000000000 T
1w
b00000000 y
b00000000000000000000000000000000 z
#115
0w
#118
#120
b0011000 .
b00 3
b000000000000000000000000000000000011000 8
b00000000000000000000000000000010 ;
b00000000000000000000000000000110 <
b00000000000000000000000000000001010000000000000000000000000000000000000000000000000000000000000000000000000000000000000000000000000000000000000000000000000000000000000000000000000000000000000000 =
b00000000000000000000000000000000 D
b00000000000000000000000000000000 G
1H
b001000000000000000000000000000000000000000000000001000000000000000000000000000000000000000000000000000000000000000000011101000000000001000 I
1Q
1R
b0001100101000000000000000000000000000000000000000000000000000000000000001000110 T
1w
#125
0w
#128
#130
b0001000 .
b00110000000000000000001000000011 /
b0000000 0
b000000000000000000000000000000000011100 8
b00000000000000000000000000000000 ;
b00000000000000000000000000000111 <
b00000000000000000000000000000001100000000000000000000000000000000000000000000000000000000000000000000000000000000000000000000000000000000000000000000000000000000000000000000000000000000000000000 =
b001010000000000000000000000000000000000000000000000000000000000000000000000000000000000000000000000000000000000000000000010000000000000000 I
b00000000000000000000000000000000 N
b00000000000000000000000000000000 P
0Q
0R
b0010000000000000000000000000000000000000000000000000000000000000000000001000111 T
1w
#135
0w
#138
#140
b01 &
1'
b01 )
b0001100 .
b00111001100000000000100001000001 /
b001100000000000000000010000000110001100 8
b0000000000000000010 :
b00000000000000000000000000000000 <
b00000000000000000000000000000001110000000000000000000000000000000000000000000000000000000000000000000000000000000000000000000000000000000000000000000000000000000000000000000000000000000000000000 =
b001100000000000000000000000000000000000000000000000000000000000000000000000000000000000000000000000000000000000000000000010000000000000000 I
b0010100000000000000000000000000000000000000000000000000000000000000000000000000 T
1w
b00000011 y
#145
0w
#148
#150
b00 &
0'
b0001 (
b00 )
b10 -
b0010000 .
b00000000000000000000000000000000 /
b001110011000000000001000010000010010000 8
b0011000000000001000 :
b00000000000100000001000000001000110000000000000000000000000000000000000000000000000000000000000000000000000000000000000000000000000000000000000000000000000000000010001100000000100000000000000010 =
b00000000000000000000000000000010 E
b00000000000000000000000000000010 F
b00000000000000000000000000000010 G
0H
b001110000000000000000000000000000000000000000000000000000000000000000000000000000000000000000000000000000000000000000000010000000000000000 I
b0011000000000000000000000000000000000000000000000000000000000000000000000000000 T
1w
b01000001 y
b00000000000000000000000000000010 z
#155
0w
#158
#160
b0000 (
b00 -
b0010100 .
b0000010 0
b10 3
b000000000000000000000000000000000010100 8
b0000000000000000000 :
b00110000000000010000000000000001000000000000000000000000000000000010000000000000000000000000000000000000000000000000000000000000000000000000000000000000000000001000001110000010001000000000001000 =
b00000000000000000000000000000010 D
b00000000000000000000000000000000 E
b00000000000000000000000000000000 F
b000110000000000010010000000000000000000000000000001000000000000000000000000000000000000000000000000000000000000000000011000000000000000010 I
b00000000000000000000000000000010 N
b00000000000000000000000000000010 P
b0011100000000000000000000000000000000000000000000000000000000000000000000000000 T
1w
b00000000 y
b00000000000000000000000000000000 z
#165
0w
#168
#170
b0011000 .
b00 3
b000000000000000000000000000000000011000 8
b00000000000000000000000000000010 ;
b00000000000000000000000000000110 <
b00000000000000000000000000000001010000000000000000000000000000000000000000000000000000000000000000000000000000000000000000000000000000000000000000000000000000000000000000000000000000000000000000 =
b00000000000000000000000000000000 D
b00000000000000000000000000000000 G
1H
b001000000000000000000000000000000000000000000000001000000000000000000000000000000000000000000000000000000000000000000011101000000000001000 I
1Q
1R
b0001100101000000000000000000000000000000000000000000000000000000000000001000110 T
1w
#175
0w
#178
#180
b0001000 .
b00110000000000000000001000000011 /
b0000000 0
b000000000000000000000000000000000011100 8
b00000000000000000000000000000000 ;
b00000000000000000000000000000111 <
b00000000000000000000000000000001100000000000000000000000000000000000000000000000000000000000000000000000000000000000000000000000000000000000000000000000000000000000000000000000000000000000000000 =
b001010000000000000000000000000000000000000000000000000000000000000000000000000000000000000000000000000000000000000000000010000000000000000 I
b00000000000000000000000000000000 N
b00000000000000000000000000000000 P
0Q
0R
b0010000000000000000000000000000000000000000000000000000000000000000000001000111 T
1w
#185
0w
#188
#190
b01 &
1'
b01 )
b0001100 .
b00111001100000000000100001000001 /
b001100000000000000000010000000110001100 8
b0000000000000000010 :
b00000000000000000000000000000000 <
b00000000000000000000000000000001110000000000000000000000000000000000000000000000000000000000000000000000000000000000000000000000000000000000000000000000000000000000000000000000000000000000000000 =
b001100000000000000000000000000000000000000000000000000000000000000000000000000000000000000000000000000000000000000000000010000000000000000 I
b0010100000000000000000000000000000000000000000000000000000000000000000000000000 T
1w
b00000011 y
#195
0w
#198
#200
b00 &
0'
b0001 (
b00 )
b10 -
b0010000 .
b00000000000000000000000000000000 /
b001110011000000000001000010000010010000 8
b0011000000000001000 :
b00000000000100000001000000001000110000000000000000000000000000000000000000000000000000000000000000000000000000000000000000000000000000000000000000000000000000000010001100000000100000000000000010 =
b00000000000000000000000000000010 E
b00000000000000000000000000000010 F
b00000000000000000000000000000010 G
0H
b001110000000000000000000000000000000000000000000000000000000000000000000000000000000000000000000000000000000000000000000010000000000000000 I
b0011000000000000000000000000000000000000000000000000000000000000000000000000000 T
1w
b01000001 y
b00000000000000000000000000000010 z
#205
0w
#208
#210
b0000 (
b00 -
b0010100 .
b0000010 0
b10 3
b000000000000000000000000000000000010100 8
b0000000000000000000 :
b00110000000000010000000000000001000000000000000000000000000000000010000000000000000000000000000000000000000000000000000000000000000000000000000000000000000000001000001110000010001000000000001000 =
b00000000000000000000000000000010 D
b00000000000000000000000000000000 E
b00000000000000000000000000000000 F
b000110000000000010010000000000000000000000000000001000000000000000000000000000000000000000000000000000000000000000000011000000000000000010 I
b00000000000000000000000000000010 N
b00000000000000000000000000000010 P
b0011100000000000000000000000000000000000000000000000000000000000000000000000000 T
1w
b00000000 y
b00000000000000000000000000000000 z
#215
0w
#218
#220
b0011000 .
b00 3
b000000000000000000000000000000000011000 8
b00000000000000000000000000000010 ;
b00000000000000000000000000000110 <
b00000000000000000000000000000001010000000000000000000000000000000000000000000000000000000000000000000000000000000000000000000000000000000000000000000000000000000000000000000000000000000000000000 =
b00000000000000000000000000000000 D
b00000000000000000000000000000000 G
1H
b001000000000000000000000000000000000000000000000001000000000000000000000000000000000000000000000000000000000000000000011101000000000001000 I
1Q
1R
b0001100101000000000000000000000000000000000000000000000000000000000000001000110 T
1w
#225
0w
#228
#230
b0001000 .
b00110000000000000000001000000011 /
b0000000 0
b000000000000000000000000000000000011100 8
b00000000000000000000000000000000 ;
b00000000000000000000000000000111 <
b00000000000000000000000000000001100000000000000000000000000000000000000000000000000000000000000000000000000000000000000000000000000000000000000000000000000000000000000000000000000000000000000000 =
b001010000000000000000000000000000000000000000000000000000000000000000000000000000000000000000000000000000000000000000000010000000000000000 I
b00000000000000000000000000000000 N
b00000000000000000000000000000000 P
0Q
0R
b0010000000000000000000000000000000000000000000000000000000000000000000001000111 T
1w
#235
0w
#238
#240
b01 &
1'
b01 )
b0001100 .
b00111001100000000000100001000001 /
b001100000000000000000010000000110001100 8
b0000000000000000010 :
b00000000000000000000000000000000 <
b00000000000000000000000000000001110000000000000000000000000000000000000000000000000000000000000000000000000000000000000000000000000000000000000000000000000000000000000000000000000000000000000000 =
b001100000000000000000000000000000000000000000000000000000000000000000000000000000000000000000000000000000000000000000000010000000000000000 I
b0010100000000000000000000000000000000000000000000000000000000000000000000000000 T
1w
b00000011 y
#245
0w
#248
#250
b00 &
0'
b0001 (
b00 )
b10 -
b0010000 .
b00000000000000000000000000000000 /
b001110011000000000001000010000010010000 8
b0011000000000001000 :
b00000000000100000001000000001000110000000000000000000000000000000000000000000000000000000000000000000000000000000000000000000000000000000000000000000000000000000010001100000000100000000000000010 =
b00000000000000000000000000000010 E
b00000000000000000000000000000010 F
b00000000000000000000000000000010 G
0H
b001110000000000000000000000000000000000000000000000000000000000000000000000000000000000000000000000000000000000000000000010000000000000000 I
b0011000000000000000000000000000000000000000000000000000000000000000000000000000 T
1w
b01000001 y
b00000000000000000000000000000010 z
#255
0w
#258
#260
b0000 (
b00 -
b0010100 .
b0000010 0
b10 3
b000000000000000000000000000000000010100 8
b0000000000000000000 :
b00110000000000010000000000000001000000000000000000000000000000000010000000000000000000000000000000000000000000000000000000000000000000000000000000000000000000001000001110000010001000000000001000 =
b00000000000000000000000000000010 D
b00000000000000000000000000000000 E
b00000000000000000000000000000000 F
b000110000000000010010000000000000000000000000000001000000000000000000000000000000000000000000000000000000000000000000011000000000000000010 I
b00000000000000000000000000000010 N
b00000000000000000000000000000010 P
b0011100000000000000000000000000000000000000000000000000000000000000000000000000 T
1w
b00000000 y
b00000000000000000000000000000000 z
#265
0w
#268
#270
b0011000 .
b00 3
b000000000000000000000000000000000011000 8
b00000000000000000000000000000010 ;
b00000000000000000000000000000110 <
b00000000000000000000000000000001010000000000000000000000000000000000000000000000000000000000000000000000000000000000000000000000000000000000000000000000000000000000000000000000000000000000000000 =
b00000000000000000000000000000000 D
b00000000000000000000000000000000 G
1H
b001000000000000000000000000000000000000000000000001000000000000000000000000000000000000000000000000000000000000000000011101000000000001000 I
1Q
1R
b0001100101000000000000000000000000000000000000000000000000000000000000001000110 T
1w
#275
0w
#278
#280
b0001000 .
b00110000000000000000001000000011 /
b0000000 0
b000000000000000000000000000000000011100 8
b00000000000000000000000000000000 ;
b00000000000000000000000000000111 <
b00000000000000000000000000000001100000000000000000000000000000000000000000000000000000000000000000000000000000000000000000000000000000000000000000000000000000000000000000000000000000000000000000 =
b001010000000000000000000000000000000000000000000000000000000000000000000000000000000000000000000000000000000000000000000010000000000000000 I
b00000000000000000000000000000000 N
b00000000000000000000000000000000 P
0Q
0R
b0010000000000000000000000000000000000000000000000000000000000000000000001000111 T
1w
#285
0w
#288
#290
b01 &
1'
b01 )
b0001100 .
b00111001100000000000100001000001 /
b001100000000000000000010000000110001100 8
b0000000000000000010 :
b00000000000000000000000000000000 <
b00000000000000000000000000000001110000000000000000000000000000000000000000000000000000000000000000000000000000000000000000000000000000000000000000000000000000000000000000000000000000000000000000 =
b001100000000000000000000000000000000000000000000000000000000000000000000000000000000000000000000000000000000000000000000010000000000000000 I
b0010100000000000000000000000000000000000000000000000000000000000000000000000000 T
1w
b00000011 y
#295
0w
#298
#300
b00 &
0'
b0001 (
b00 )
b10 -
b0010000 .
b00000000000000000000000000000000 /
b001110011000000000001000010000010010000 8
b0011000000000001000 :
b00000000000100000001000000001000110000000000000000000000000000000000000000000000000000000000000000000000000000000000000000000000000000000000000000000000000000000010001100000000100000000000000010 =
b00000000000000000000000000000010 E
b00000000000000000000000000000010 F
b00000000000000000000000000000010 G
0H
b001110000000000000000000000000000000000000000000000000000000000000000000000000000000000000000000000000000000000000000000010000000000000000 I
b0011000000000000000000000000000000000000000000000000000000000000000000000000000 T
1w
b01000001 y
b00000000000000000000000000000010 z
#305
0w
#308
#310
b0000 (
b00 -
b0010100 .
b0000010 0
b10 3
b000000000000000000000000000000000010100 8
b0000000000000000000 :
b00110000000000010000000000000001000000000000000000000000000000000010000000000000000000000000000000000000000000000000000000000000000000000000000000000000000000001000001110000010001000000000001000 =
b00000000000000000000000000000010 D
b00000000000000000000000000000000 E
b00000000000000000000000000000000 F
b000110000000000010010000000000000000000000000000001000000000000000000000000000000000000000000000000000000000000000000011000000000000000010 I
b00000000000000000000000000000010 N
b00000000000000000000000000000010 P
b0011100000000000000000000000000000000000000000000000000000000000000000000000000 T
1w
b00000000 y
b00000000000000000000000000000000 z
#315
0w
#318
#320
b0011000 .
b00 3
b000000000000000000000000000000000011000 8
b00000000000000000000000000000010 ;
b00000000000000000000000000000110 <
b00000000000000000000000000000001010000000000000000000000000000000000000000000000000000000000000000000000000000000000000000000000000000000000000000000000000000000000000000000000000000000000000000 =
b00000000000000000000000000000000 D
b00000000000000000000000000000000 G
1H
b001000000000000000000000000000000000000000000000001000000000000000000000000000000000000000000000000000000000000000000011101000000000001000 I
1Q
1R
b0001100101000000000000000000000000000000000000000000000000000000000000001000110 T
1w
#325
0w
#328
#330
b0001000 .
b00110000000000000000001000000011 /
b0000000 0
b000000000000000000000000000000000011100 8
b00000000000000000000000000000000 ;
b00000000000000000000000000000111 <
b00000000000000000000000000000001100000000000000000000000000000000000000000000000000000000000000000000000000000000000000000000000000000000000000000000000000000000000000000000000000000000000000000 =
b001010000000000000000000000000000000000000000000000000000000000000000000000000000000000000000000000000000000000000000000010000000000000000 I
b00000000000000000000000000000000 N
b00000000000000000000000000000000 P
0Q
0R
b0010000000000000000000000000000000000000000000000000000000000000000000001000111 T
1w
#335
0w
#338
#340
b01 &
1'
b01 )
b0001100 .
b00111001100000000000100001000001 /
b001100000000000000000010000000110001100 8
b0000000000000000010 :
b00000000000000000000000000000000 <
b00000000000000000000000000000001110000000000000000000000000000000000000000000000000000000000000000000000000000000000000000000000000000000000000000000000000000000000000000000000000000000000000000 =
b001100000000000000000000000000000000000000000000000000000000000000000000000000000000000000000000000000000000000000000000010000000000000000 I
b0010100000000000000000000000000000000000000000000000000000000000000000000000000 T
1w
b00000011 y
#345
0w
#348
#350
b00 &
0'
b0001 (
b00 )
b10 -
b0010000 .
b00000000000000000000000000000000 /
b001110011000000000001000010000010010000 8
b0011000000000001000 :
b00000000000100000001000000001000110000000000000000000000000000000000000000000000000000000000000000000000000000000000000000000000000000000000000000000000000000000010001100000000100000000000000010 =
b00000000000000000000000000000010 E
b00000000000000000000000000000010 F
b00000000000000000000000000000010 G
0H
b001110000000000000000000000000000000000000000000000000000000000000000000000000000000000000000000000000000000000000000000010000000000000000 I
b0011000000000000000000000000000000000000000000000000000000000000000000000000000 T
1w
b01000001 y
b00000000000000000000000000000010 z
#355
0w
#358
#360
b0000 (
b00 -
b0010100 .
b0000010 0
b10 3
b000000000000000000000000000000000010100 8
b0000000000000000000 :
b00110000000000010000000000000001000000000000000000000000000000000010000000000000000000000000000000000000000000000000000000000000000000000000000000000000000000001000001110000010001000000000001000 =
b00000000000000000000000000000010 D
b00000000000000000000000000000000 E
b00000000000000000000000000000000 F
b000110000000000010010000000000000000000000000000001000000000000000000000000000000000000000000000000000000000000000000011000000000000000010 I
b00000000000000000000000000000010 N
b00000000000000000000000000000010 P
b0011100000000000000000000000000000000000000000000000000000000000000000000000000 T
1w
b00000000 y
b00000000000000000000000000000000 z
