lab2_waveforms.vcd
$version Generated by VerilatedVcd $end
$date Thu May  5 00:11:13 2022 $end
$timescale 1ps $end

 $scope module TOP $end
  $var wire  8 ~ Op [7:0] $end
  $var wire  1 | clock $end
  $var wire  1 } reset $end
  $scope module top $end
   $var wire  4 ( ALUOp [3:0] $end
   $var wire  1 * ALUOp2 $end
   $var wire  2 ) ALUSrc [1:0] $end
   $var wire  4 # MemRead [3:0] $end
   $var wire  1 , MemSignExtend $end
   $var wire  2 & MemToReg [1:0] $end
   $var wire  4 $ MemWrite [3:0] $end
   $var wire  8 ~ Op [7:0] $end
   $var wire  1 % PCSrc $end
   $var wire  1 + RbSelect $end
   $var wire  1 ' RegWrite $end
   $var wire  2 - branch_flag [1:0] $end
   $var wire  1 | clock $end
   $var wire  1 . jump_flag $end
   $var wire  1 } reset $end
   $scope module ctr $end
    $var wire  4 ( AluOp [3:0] $end
    $var wire  1 * AluOp2 $end
    $var wire  2 ) AluSrc [1:0] $end
    $var wire  4 # MemRead [3:0] $end
    $var wire  1 , MemSignExtend $end
    $var wire  2 & MemToReg [1:0] $end
    $var wire  4 $ MemWrite [3:0] $end
    $var wire  8 ~ Op [7:0] $end
    $var wire  1 % PCSrc $end
    $var wire  1 + RbSelect $end
    $var wire  1 ' RegWrite $end
    $var wire  2 - branch_flag [1:0] $end
    $var wire  1 . jump_flag $end
   $upscope $end
   $scope module datapath $end
    $var wire  4 ( ALUOp [3:0] $end
    $var wire  1 * ALUOp2 $end
    $var wire  2 ) ALUSrc [1:0] $end
    $var wire 32 L Alu1out [31:0] $end
    $var wire 32 U Alu2out [31:0] $end
    $var wire 143 N ExMem [142:0] $end
    $var wire  2 4 ForwardingA [1:0] $end
    $var wire  2 5 ForwardingB [1:0] $end
    $var wire  1 6 ForwardingC $end
    $var wire 195 B IdEx [194:0] $end
    $var wire 39 = IfId [38:0] $end
    $var wire  1 9 IfIdEN $end
    $var wire 19 ? JumpAddress [18:0] $end
    $var wire  4 # MemRead [3:0] $end
    $var wire  1 , MemSignExtend $end
    $var wire  2 & MemToReg [1:0] $end
    $var wire 79 Y MemWb [78:0] $end
    $var wire  4 $ MemWrite [3:0] $end
    $var wire  8 ~ Op [7:0] $end
    $var wire  7 / PC [6:0] $end
    $var wire  7 $! PCSTART [6:0] $end
    $var wire  1 % PCSrc $end
    $var wire  1 8 PCenable $end
    $var wire 32 \ RF[0] [31:0] $end
    $var wire 32 f RF[10] [31:0] $end
    $var wire 32 g RF[11] [31:0] $end
    $var wire 32 h RF[12] [31:0] $end
    $var wire 32 i RF[13] [31:0] $end
    $var wire 32 j RF[14] [31:0] $end
    $var wire 32 k RF[15] [31:0] $end
    $var wire 32 l RF[16] [31:0] $end
    $var wire 32 m RF[17] [31:0] $end
    $var wire 32 n RF[18] [31:0] $end
    $var wire 32 o RF[19] [31:0] $end
    $var wire 32 ] RF[1] [31:0] $end
    $var wire 32 p RF[20] [31:0] $end
    $var wire 32 q RF[21] [31:0] $end
    $var wire 32 r RF[22] [31:0] $end
    $var wire 32 s RF[23] [31:0] $end
    $var wire 32 t RF[24] [31:0] $end
    $var wire 32 u RF[25] [31:0] $end
    $var wire 32 v RF[26] [31:0] $end
    $var wire 32 w RF[27] [31:0] $end
    $var wire 32 x RF[28] [31:0] $end
    $var wire 32 y RF[29] [31:0] $end
    $var wire 32 ^ RF[2] [31:0] $end
    $var wire 32 z RF[30] [31:0] $end
    $var wire 32 { RF[31] [31:0] $end
    $var wire 32 _ RF[3] [31:0] $end
    $var wire 32 ` RF[4] [31:0] $end
    $var wire 32 a RF[5] [31:0] $end
    $var wire 32 b RF[6] [31:0] $end
    $var wire 32 c RF[7] [31:0] $end
    $var wire 32 d RF[8] [31:0] $end
    $var wire 32 e RF[9] [31:0] $end
    $var wire 32 A RF_WriteAddr [31:0] $end
    $var wire 32 @ RF_WriteData [31:0] $end
    $var wire  1 + RbSelect $end
    $var wire  1 ' RegWrite $end
    $var wire 32 I alu1in_a [31:0] $end
    $var wire 32 J alu1in_b [31:0] $end
    $var wire 32 K alu1in_b_mux [31:0] $end
    $var wire 32 S alu2in_a [31:0] $end
    $var wire 32 T alu2in_b [31:0] $end
    $var wire  2 ; branchId [1:0] $end
    $var wire  1 X branch_eq $end
    $var wire  2 - branch_flag [1:0] $end
    $var wire  1 W branch_ne $end
    $var wire  1 V branch_src $end
    $var wire  2 < branchex [1:0] $end
    $var wire  1 | clk $end
    $var wire 32 !! da [31:0] $end
    $var wire  7 1 datamem_address [6:0] $end
    $var wire 32 2 datamem_data [31:0] $end
    $var wire 32 3 datamem_write_data [31:0] $end
    $var wire 32 "! db [31:0] $end
    $var wire 32 #! dc [31:0] $end
    $var wire  1 : flush $end
    $var wire  7 / instmem_address [6:0] $end
    $var wire 32 0 instmem_data [31:0] $end
    $var wire  1 . jump_flag $end
    $var wire  1 } reset $end
    $var wire  1 7 stall_flag $end
    $var wire  1 M zero_flag $end
   $upscope $end
  $upscope $end
 $upscope $end
$enddefinitions $end


#8
b0000 #
b0000 $
0%
b00 &
0'
b0000 (
b00 )
0*
0+
0,
b00 -
0.
b0000000 /
b00000000000000000000000000000000 0
b0000000 1
b00000000000000000000000000000000 2
b00000000000000000000000000000000 3
b00 4
b00 5
06
07
18
19
0:
b00 ;
b00 <
b000000000000000000000000000000000000000 =
b0000000000000000000 ?
b00000000000000000000000000000000 @
b00000000000000000000000000000000 A
b000000000000000000000000000000000000000000000000000000000000000000000000000000000000000000000000000000000000000000000000000000000000000000000000000000000000000000000000000000000000000000000000000 B
b00000000000000000000000000000000 I
b00000000000000000000000000000000 J
b00000000000000000000000000000000 K
b00000000000000000000000000000000 L
1M
b00000000000000000000000000000000000000000000000000000000000000000000000000000000000000000000000000000000000000000000000000000000000000000000000 N
b00000000000000000000000000000000 S
b00000000000000000000000000000000 T
b00000000000000000000000000000000 U
0V
0W
0X
b0000000000000000000000000000000000000000000000000000000000000000000000000000000 Y
b00000000000000000000000000000000 \
b00000000000000000000000000000000 ]
b00000000000000000000000000000000 ^
b00000000000000000000000000000000 _
b00000000000000000000000000000000 `
b00000000000000000000000000000000 a
b00000000000000000000000000000000 b
b00000000000000000000000000000000 c
b00000000000000000000000000000000 d
b00000000000000000000000000000000 e
b00000000000000000000000000000000 f
b00000000000000000000000000000000 g
b00000000000000000000000000000000 h
b00000000000000000000000000000000 i
b00000000000000000000000000000000 j
b00000000000000000000000000000000 k
b00000000000000000000000000000000 l
b00000000000000000000000000000000 m
b00000000000000000000000000000000 n
b00000000000000000000000000000000 o
b00000000000000000000000000000000 p
b00000000000000000000000000000000 q
b00000000000000000000000000000000 r
b00000000000000000000000000000000 s
b00000000000000000000000000000000 t
b00000000000000000000000000000000 u
b00000000000000000000000000000000 v
b00000000000000000000000000000000 w
b00000000000000000000000000000000 x
b00000000000000000000000000000000 y
b00000000000000000000000000000000 z
b00000000000000000000000000000000 {
0|
1}
b00000000 ~
b00000000000000000000000000000000 !!
b00000000000000000000000000000000 "!
b00000000000000000000000000000000 #!
b0000000 $!
#10
b000000000000000000000000000000000000100 =
b00000000000000000000000000000000000000000000000000000000000000000000000000000000000000000000000000000000000000000000000000000010000000000000000 N
1|
#15
0|
#18
0}
#20
b0000100 /
b00101000000000000001010000000011 0
b000000000000000000000000000000000000001000000000000000000000000000000000000000000000000000000000000000000000000000000000000000000000000000000000000000000000000000000000000000000000000000000000000 B
1|
#25
0|
#28
#30
b01 &
1'
b01 )
b0001000 /
b00010000000000000000010000101001 0
b001010000000000000010100000000110001000 =
b0000000000000010100 ?
b00001000000000000000000000000000000000000000000000000000000000000000000000000000000000000000000000000000000000000000000000000010000000000000000 N
1|
b00000011 ~
#35
0|
#38
#40
b0011 #
b00 &
1+
b0001100 /
b00011000000000000000100000101001 0
b000100000000000000000100001010010001100 =
b0000000000000000100 ?
b000000000000001010000000100000000100010000000000000000000000000000000000000000000000000000000000000000000000000000000000000000000000000000000000000000000000000000001010000101000010000000000010100 B
b00000000000000000000000000010100 J
b00000000000000000000000000010100 K
b00000000000000000000000000010100 L
0M
b0000100000000000000000000000000000000000000000000000000000000000000000000000000 Y
1|
b00101001 ~
#45
0|
#48
#50
b0010000 /
b00110001010001000011000000000111 0
b0010100 1
b000110000000000000001000001010010010000 =
b0000000000000001000 ?
b000000001000000010000000000110000100011000000000000000000000000000000000000000000000000000000000000000000000000000000000000000000000000000000000000000000000000000000010000010000000000000000000100 B
b00000000000000000000000000000100 J
b00000000000000000000000000000100 K
b00000000000000000000000000000100 L
b00010000000000001001000000000000000000000000000101000000000000000000000000000000000000000000000000000000000000000000001010000100000000000010100 N
b00000000000000000000000000010100 S
b00000000000000000000000000010100 U
1|
#55
0|
#58
#60
b0000 #
b01 &
b0010 (
b00 )
1*
0+
b0010100 /
b00000000000000000000000000000000 0
b0000100 1
b00000000000000001000001011111111 2
b001100010100010000110000000001110010100 =
b0010100010000110000 ?
b00000000000000000000000000010100 @
b00000000000000000000000000000101 A
b000000001100000010000000000110000100100000000000000000000000000000000000000000000000000000000000000000000000000000000000000000000000000000000000000000000000000000000100000011000000000000000001000 B
b00000000000000000000000000001000 J
b00000000000000000000000000001000 K
b00000000000000000000000000001000 L
b00011000011000001000000000000000000000000000000001000000000000000000000000000000000000000000000000000000000000000000000100000000000000000000100 N
b00000000000000000000000000000100 S
b00000000000000000000000000000100 U
b0001000101000000000000000000000000000000000000000000000000000000000001010000101 Y
1|
b00000111 ~
#65
b00000000000000000000000000010100 a
0|
b00000000000000000000000000010100 !!
#68
#70
b00 &
0'
b0000 (
0*
b0011000 /
b0001000 1
b00000000000000001010111111110011 2
b01 5
b000000000000000000000000000000000011000 =
b0000000000000000000 ?
b00000000000000001000001011111111 @
b00000000000000000000000000000010 A
b001010001000011000010100100000000100101000000000000000000000000000001010000000000000000000000000000000000000000000000000000000000000000000000000000000000000001000011000000110000110000010000110000 B
b00000000000000000000000000010100 I
b00000000000000001000001011111111 J
b00000000000000000000000000000000 K
b00000000000010100011101111101100 L
b00100000011000001000000000000000000000000000000010000000000000000000000000000000000000000000000000000000000000000000000110000000000000000001000 N
b00000000000000000000000000001000 S
b00000000000000000000000000001000 U
b0001100100000000000000000010000010111111110000000000000000000000000000010000010 Y
1|
b00000000 ~
b00000000000000000000000000000000 !!
#75
b00000000000000001000001011111111 ^
0|
#78
#80
b0011100 /
b1101100 1
b00000000000000001010111100000000 2
b00 5
16
b000000000000000000000000000000000011100 =
b00000000000000001010111111110011 @
b00000000000000000000000000000011 A
b000000000000000000000000000000000000110000000000000000000000000000000000000000000000000000000000000000000000000000000000000000000000000000000000000000000000000000000000000000000000000000000000000 B
b00000000000000000000000000000000 I
b00000000000000000000000000000000 J
b00000000000000000000000000000000 L
1M
b00101000000000001101000000000000101000111011111011000000000000000000000000000000000000000000000000000000000000000000001100001100000010000110000 N
b00000000000010100011101111101100 S
b00000000000000001010111111110011 T
b00000000000010101110101111011111 U
b0010000100000000000000000010101111111100110000000000000000000000000000100000011 Y
1|
#85
b00000000000000001010111111110011 _
0|
#88
#90
b0100000 /
b0000000 1
06
b000000000000000000000000000000000100000 =
b00000000000010101110101111011111 @
b00000000000000000000000000000110 A
b000000000000000000000000000000000000111000000000000000000000000000000000000000000000000000000000000000000000000000000000000000000000000000000000000000000000000000000000000000000000000000000000000 B
b00110000000000000000000000000000000000000000000000000000000000000000000000000000000000000000000000000000000000000000000000000010000000000000000 N
b00000000000000000000000000000000 S
b00000000000000000000000000000000 T
b00000000000000000000000000000000 U
b0010100101000000000000000010101111000000000000000000001010111010111101111100110 Y
1|
#95
b00000000000010101110101111011111 b
0|
#98
#100
b0100100 /
b000000000000000000000000000000000100100 =
b00000000000000001010111100000000 @
b00000000000000000000000000000000 A
b000000000000000000000000000000000001000000000000000000000000000000000000000000000000000000000000000000000000000000000000000000000000000000000000000000000000000000000000000000000000000000000000000 B
b00111000000000000000000000000000000000000000000000000000000000000000000000000000000000000000000000000000000000000000000000000010000000000000000 N
b0011000000000000000000000010101111000000000000000000000000000000000000000000000 Y
1|
#105
0|
#108
#110
b0101000 /
b000000000000000000000000000000000101000 =
b000000000000000000000000000000000001001000000000000000000000000000000000000000000000000000000000000000000000000000000000000000000000000000000000000000000000000000000000000000000000000000000000000 B
b01000000000000000000000000000000000000000000000000000000000000000000000000000000000000000000000000000000000000000000000000000010000000000000000 N
b0011100000000000000000000010101111000000000000000000000000000000000000000000000 Y
1|
#115
0|
#118
#120
b0101100 /
b000000000000000000000000000000000101100 =
b000000000000000000000000000000000001010000000000000000000000000000000000000000000000000000000000000000000000000000000000000000000000000000000000000000000000000000000000000000000000000000000000000 B
b01001000000000000000000000000000000000000000000000000000000000000000000000000000000000000000000000000000000000000000000000000010000000000000000 N
b0100000000000000000000000010101111000000000000000000000000000000000000000000000 Y
1|
#125
0|
#128
#130
b0110000 /
b000000000000000000000000000000000110000 =
b000000000000000000000000000000000001011000000000000000000000000000000000000000000000000000000000000000000000000000000000000000000000000000000000000000000000000000000000000000000000000000000000000 B
b01010000000000000000000000000000000000000000000000000000000000000000000000000000000000000000000000000000000000000000000000000010000000000000000 N
b0100100000000000000000000010101111000000000000000000000000000000000000000000000 Y
1|
#135
0|
#138
#140
b0110100 /
b000000000000000000000000000000000110100 =
b000000000000000000000000000000000001100000000000000000000000000000000000000000000000000000000000000000000000000000000000000000000000000000000000000000000000000000000000000000000000000000000000000 B
b01011000000000000000000000000000000000000000000000000000000000000000000000000000000000000000000000000000000000000000000000000010000000000000000 N
b0101000000000000000000000010101111000000000000000000000000000000000000000000000 Y
1|
#145
0|
#148
#150
b0111000 /
b000000000000000000000000000000000111000 =
b000000000000000000000000000000000001101000000000000000000000000000000000000000000000000000000000000000000000000000000000000000000000000000000000000000000000000000000000000000000000000000000000000 B
b01100000000000000000000000000000000000000000000000000000000000000000000000000000000000000000000000000000000000000000000000000010000000000000000 N
b0101100000000000000000000010101111000000000000000000000000000000000000000000000 Y
1|
#155
0|
#158
#160
b0111100 /
b000000000000000000000000000000000111100 =
b000000000000000000000000000000000001110000000000000000000000000000000000000000000000000000000000000000000000000000000000000000000000000000000000000000000000000000000000000000000000000000000000000 B
b01101000000000000000000000000000000000000000000000000000000000000000000000000000000000000000000000000000000000000000000000000010000000000000000 N
b0110000000000000000000000010101111000000000000000000000000000000000000000000000 Y
1|
#165
0|
#168
#170
b1000000 /
b000000000000000000000000000000001000000 =
b000000000000000000000000000000000001111000000000000000000000000000000000000000000000000000000000000000000000000000000000000000000000000000000000000000000000000000000000000000000000000000000000000 B
b01110000000000000000000000000000000000000000000000000000000000000000000000000000000000000000000000000000000000000000000000000010000000000000000 N
b0110100000000000000000000010101111000000000000000000000000000000000000000000000 Y
1|
#175
0|
#178
#180
b1000100 /
b000000000000000000000000000000001000100 =
b000000000000000000000000000000000010000000000000000000000000000000000000000000000000000000000000000000000000000000000000000000000000000000000000000000000000000000000000000000000000000000000000000 B
b01111000000000000000000000000000000000000000000000000000000000000000000000000000000000000000000000000000000000000000000000000010000000000000000 N
b0111000000000000000000000010101111000000000000000000000000000000000000000000000 Y
1|
#185
0|
#188
#190
b1001000 /
b000000000000000000000000000000001001000 =
b000000000000000000000000000000000010001000000000000000000000000000000000000000000000000000000000000000000000000000000000000000000000000000000000000000000000000000000000000000000000000000000000000 B
b10000000000000000000000000000000000000000000000000000000000000000000000000000000000000000000000000000000000000000000000000000010000000000000000 N
b0111100000000000000000000010101111000000000000000000000000000000000000000000000 Y
1|
#195
0|
#198
#200
b1001100 /
b000000000000000000000000000000001001100 =
b000000000000000000000000000000000010010000000000000000000000000000000000000000000000000000000000000000000000000000000000000000000000000000000000000000000000000000000000000000000000000000000000000 B
b10001000000000000000000000000000000000000000000000000000000000000000000000000000000000000000000000000000000000000000000000000010000000000000000 N
b1000000000000000000000000010101111000000000000000000000000000000000000000000000 Y
1|
#205
0|
#208
#210
b1010000 /
b000000000000000000000000000000001010000 =
b000000000000000000000000000000000010011000000000000000000000000000000000000000000000000000000000000000000000000000000000000000000000000000000000000000000000000000000000000000000000000000000000000 B
b10010000000000000000000000000000000000000000000000000000000000000000000000000000000000000000000000000000000000000000000000000010000000000000000 N
b1000100000000000000000000010101111000000000000000000000000000000000000000000000 Y
1|
#215
0|
#218
#220
b1010100 /
b000000000000000000000000000000001010100 =
b000000000000000000000000000000000010100000000000000000000000000000000000000000000000000000000000000000000000000000000000000000000000000000000000000000000000000000000000000000000000000000000000000 B
b10011000000000000000000000000000000000000000000000000000000000000000000000000000000000000000000000000000000000000000000000000010000000000000000 N
b1001000000000000000000000010101111000000000000000000000000000000000000000000000 Y
1|
#225
0|
#228
#230
b1011000 /
b000000000000000000000000000000001011000 =
b000000000000000000000000000000000010101000000000000000000000000000000000000000000000000000000000000000000000000000000000000000000000000000000000000000000000000000000000000000000000000000000000000 B
b10100000000000000000000000000000000000000000000000000000000000000000000000000000000000000000000000000000000000000000000000000010000000000000000 N
b1001100000000000000000000010101111000000000000000000000000000000000000000000000 Y
1|
#235
0|
#238
#240
b1011100 /
b000000000000000000000000000000001011100 =
b000000000000000000000000000000000010110000000000000000000000000000000000000000000000000000000000000000000000000000000000000000000000000000000000000000000000000000000000000000000000000000000000000 B
b10101000000000000000000000000000000000000000000000000000000000000000000000000000000000000000000000000000000000000000000000000010000000000000000 N
b1010000000000000000000000010101111000000000000000000000000000000000000000000000 Y
1|
#245
0|
#248
#250
b1100000 /
b000000000000000000000000000000001100000 =
b000000000000000000000000000000000010111000000000000000000000000000000000000000000000000000000000000000000000000000000000000000000000000000000000000000000000000000000000000000000000000000000000000 B
b10110000000000000000000000000000000000000000000000000000000000000000000000000000000000000000000000000000000000000000000000000010000000000000000 N
b1010100000000000000000000010101111000000000000000000000000000000000000000000000 Y
1|
#255
0|
#258
#260
b1100100 /
b000000000000000000000000000000001100100 =
b000000000000000000000000000000000011000000000000000000000000000000000000000000000000000000000000000000000000000000000000000000000000000000000000000000000000000000000000000000000000000000000000000 B
b10111000000000000000000000000000000000000000000000000000000000000000000000000000000000000000000000000000000000000000000000000010000000000000000 N
b1011000000000000000000000010101111000000000000000000000000000000000000000000000 Y
1|
#265
0|
#268
#270
b1101000 /
b000000000000000000000000000000001101000 =
b000000000000000000000000000000000011001000000000000000000000000000000000000000000000000000000000000000000000000000000000000000000000000000000000000000000000000000000000000000000000000000000000000 B
b11000000000000000000000000000000000000000000000000000000000000000000000000000000000000000000000000000000000000000000000000000010000000000000000 N
b1011100000000000000000000010101111000000000000000000000000000000000000000000000 Y
1|
#275
0|
#278
#280
b1101100 /
b000000000000000000000000000000001101100 =
b000000000000000000000000000000000011010000000000000000000000000000000000000000000000000000000000000000000000000000000000000000000000000000000000000000000000000000000000000000000000000000000000000 B
b11001000000000000000000000000000000000000000000000000000000000000000000000000000000000000000000000000000000000000000000000000010000000000000000 N
b1100000000000000000000000010101111000000000000000000000000000000000000000000000 Y
1|
#285
0|
#288
#290
b1110000 /
b000000000000000000000000000000001110000 =
b000000000000000000000000000000000011011000000000000000000000000000000000000000000000000000000000000000000000000000000000000000000000000000000000000000000000000000000000000000000000000000000000000 B
b11010000000000000000000000000000000000000000000000000000000000000000000000000000000000000000000000000000000000000000000000000010000000000000000 N
b1100100000000000000000000010101111000000000000000000000000000000000000000000000 Y
1|
#295
0|
#298
#300
b1110100 /
b000000000000000000000000000000001110100 =
b000000000000000000000000000000000011100000000000000000000000000000000000000000000000000000000000000000000000000000000000000000000000000000000000000000000000000000000000000000000000000000000000000 B
b11011000000000000000000000000000000000000000000000000000000000000000000000000000000000000000000000000000000000000000000000000010000000000000000 N
b1101000000000000000000000010101111000000000000000000000000000000000000000000000 Y
1|
#305
0|
#308
#310
b1111000 /
b000000000000000000000000000000001111000 =
b000000000000000000000000000000000011101000000000000000000000000000000000000000000000000000000000000000000000000000000000000000000000000000000000000000000000000000000000000000000000000000000000000 B
b11100000000000000000000000000000000000000000000000000000000000000000000000000000000000000000000000000000000000000000000000000010000000000000000 N
b1101100000000000000000000010101111000000000000000000000000000000000000000000000 Y
1|
#315
0|
#318
#320
b1111100 /
b000000000000000000000000000000001111100 =
b000000000000000000000000000000000011110000000000000000000000000000000000000000000000000000000000000000000000000000000000000000000000000000000000000000000000000000000000000000000000000000000000000 B
b11101000000000000000000000000000000000000000000000000000000000000000000000000000000000000000000000000000000000000000000000000010000000000000000 N
b1110000000000000000000000010101111000000000000000000000000000000000000000000000 Y
1|
#325
0|
#328
#330
b0000000 /
b000000000000000000000000000000000000000 =
b000000000000000000000000000000000011111000000000000000000000000000000000000000000000000000000000000000000000000000000000000000000000000000000000000000000000000000000000000000000000000000000000000 B
b11110000000000000000000000000000000000000000000000000000000000000000000000000000000000000000000000000000000000000000000000000010000000000000000 N
b1110100000000000000000000010101111000000000000000000000000000000000000000000000 Y
1|
#335
0|
#338
#340
b0000100 /
b00101000000000000001010000000011 0
b000000000000000000000000000000000000100 =
b000000000000000000000000000000000000000000000000000000000000000000000000000000000000000000000000000000000000000000000000000000000000000000000000000000000000000000000000000000000000000000000000000 B
b11111000000000000000000000000000000000000000000000000000000000000000000000000000000000000000000000000000000000000000000000000010000000000000000 N
b1111000000000000000000000010101111000000000000000000000000000000000000000000000 Y
1|
#345
0|
#348
#350
b01 &
1'
b01 )
b0001000 /
b00010000000000000000010000101001 0
b001010000000000000010100000000110001000 =
b0000000000000010100 ?
b000000000000000000000000000000000000001000000000000000000000000000000000000000000000000000000000000000000000000000000000000000000000000000000000000000000000000000000000000000000000000000000000000 B
b00000000000000000000000000000000000000000000000000000000000000000000000000000000000000000000000000000000000000000000000000000010000000000000000 N
b1111100000000000000000000010101111000000000000000000000000000000000000000000000 Y
1|
b00000011 ~
#355
0|
#358
#360
b0011 #
b00 &
1+
b0001100 /
b00011000000000000000100000101001 0
b000100000000000000000100001010010001100 =
b0000000000000000100 ?
b000000000000001010000000100000000100010000000000000000000000000000000000000000000000000000000000000000000000000000000000000000000000000000000000000000000000000000001010000101000010000000000010100 B
b00000000000000000000000000010100 J
b00000000000000000000000000010100 K
b00000000000000000000000000010100 L
0M
b00001000000000000000000000000000000000000000000000000000000000000000000000000000000000000000000000000000000000000000000000000010000000000000000 N
b0000000000000000000000000010101111000000000000000000000000000000000000000000000 Y
1|
b00101001 ~
b00000000000000001000001011111111 "!
