lab2_waveforms.vcd
$version Generated by VerilatedVcd $end
$date Mon May  2 00:51:48 2022 $end
$timescale 1ps $end

 $scope module TOP $end
  $var wire  8 r Op [7:0] $end
  $var wire  1 p clock $end
  $var wire  1 q reset $end
  $scope module top $end
   $var wire  4 ( ALUOp [3:0] $end
   $var wire  1 * ALUOp2 $end
   $var wire  2 ) ALUSrc [1:0] $end
   $var wire  4 # MemRead [3:0] $end
   $var wire  1 , MemSignExtend $end
   $var wire  2 & MemToReg [1:0] $end
   $var wire  4 $ MemWrite [3:0] $end
   $var wire  8 r Op [7:0] $end
   $var wire  1 % PCSrc $end
   $var wire  1 + RbSelect $end
   $var wire  1 ' RegWrite $end
   $var wire  1 p clock $end
   $var wire  1 q reset $end
   $scope module ctr $end
    $var wire  4 ( AluOp [3:0] $end
    $var wire  1 * AluOp2 $end
    $var wire  2 ) AluSrc [1:0] $end
    $var wire  4 # MemRead [3:0] $end
    $var wire  1 , MemSignExtend $end
    $var wire  2 & MemToReg [1:0] $end
    $var wire  4 $ MemWrite [3:0] $end
    $var wire  8 r Op [7:0] $end
    $var wire  1 % PCSrc $end
    $var wire  1 + RbSelect $end
    $var wire  1 ' RegWrite $end
   $upscope $end
   $scope module datapath $end
    $var wire  4 ( ALUOp [3:0] $end
    $var wire  1 * ALUOp2 $end
    $var wire  2 ) ALUSrc [1:0] $end
    $var wire 32 E Alu1out [31:0] $end
    $var wire 32 L Alu2out [31:0] $end
    $var wire 121 F ExMem [120:0] $end
    $var wire  2 2 ForwardingA [1:0] $end
    $var wire  2 3 ForwardingB [1:0] $end
    $var wire 178 < IdEx [177:0] $end
    $var wire 39 7 IfId [38:0] $end
    $var wire  1 6 IfIdEN $end
    $var wire 19 9 JumpAddress [18:0] $end
    $var wire  4 # MemRead [3:0] $end
    $var wire  1 , MemSignExtend $end
    $var wire  2 & MemToReg [1:0] $end
    $var wire 79 M MemWb [78:0] $end
    $var wire  4 $ MemWrite [3:0] $end
    $var wire  8 r Op [7:0] $end
    $var wire  7 - PC [6:0] $end
    $var wire  7 v PCSTART [6:0] $end
    $var wire  1 % PCSrc $end
    $var wire  1 5 PCenable $end
    $var wire 32 P RF[0] [31:0] $end
    $var wire 32 Z RF[10] [31:0] $end
    $var wire 32 [ RF[11] [31:0] $end
    $var wire 32 \ RF[12] [31:0] $end
    $var wire 32 ] RF[13] [31:0] $end
    $var wire 32 ^ RF[14] [31:0] $end
    $var wire 32 _ RF[15] [31:0] $end
    $var wire 32 ` RF[16] [31:0] $end
    $var wire 32 a RF[17] [31:0] $end
    $var wire 32 b RF[18] [31:0] $end
    $var wire 32 c RF[19] [31:0] $end
    $var wire 32 Q RF[1] [31:0] $end
    $var wire 32 d RF[20] [31:0] $end
    $var wire 32 e RF[21] [31:0] $end
    $var wire 32 f RF[22] [31:0] $end
    $var wire 32 g RF[23] [31:0] $end
    $var wire 32 h RF[24] [31:0] $end
    $var wire 32 i RF[25] [31:0] $end
    $var wire 32 j RF[26] [31:0] $end
    $var wire 32 k RF[27] [31:0] $end
    $var wire 32 l RF[28] [31:0] $end
    $var wire 32 m RF[29] [31:0] $end
    $var wire 32 R RF[2] [31:0] $end
    $var wire 32 n RF[30] [31:0] $end
    $var wire 32 o RF[31] [31:0] $end
    $var wire 32 S RF[3] [31:0] $end
    $var wire 32 T RF[4] [31:0] $end
    $var wire 32 U RF[5] [31:0] $end
    $var wire 32 V RF[6] [31:0] $end
    $var wire 32 W RF[7] [31:0] $end
    $var wire 32 X RF[8] [31:0] $end
    $var wire 32 Y RF[9] [31:0] $end
    $var wire 32 ; RF_WriteAddr [31:0] $end
    $var wire 32 : RF_WriteData [31:0] $end
    $var wire  1 + RbSelect $end
    $var wire  1 ' RegWrite $end
    $var wire 32 B alu1in_a [31:0] $end
    $var wire 32 C alu1in_b [31:0] $end
    $var wire 32 D alu1in_b_mux [31:0] $end
    $var wire 32 J alu2in_a [31:0] $end
    $var wire 32 K alu2in_b [31:0] $end
    $var wire  1 p clk $end
    $var wire 32 s da [31:0] $end
    $var wire  7 / datamem_address [6:0] $end
    $var wire 32 0 datamem_data [31:0] $end
    $var wire 32 1 datamem_write_data [31:0] $end
    $var wire 32 t db [31:0] $end
    $var wire 32 u dc [31:0] $end
    $var wire  7 - instmem_address [6:0] $end
    $var wire 32 . instmem_data [31:0] $end
    $var wire  1 q reset $end
    $var wire  1 4 stall_flag $end
   $upscope $end
  $upscope $end
 $upscope $end
$enddefinitions $end


#8
b0000 #
b0000 $
0%
b00 &
0'
b0000 (
b00 )
0*
0+
0,
b0000000 -
b00000000000000000000000000000000 .
b0000000 /
b00000000000000000000000000000000 0
b00000000000000000000000000000000 1
b00 2
b00 3
04
15
16
b000000000000000000000000000000000000000 7
b0000000000000000000 9
b00000000000000000000000000000000 :
b00000000000000000000000000000000 ;
b0000000000000000000000000000000000000000000000000000000000000000000000000000000000000000000000000000000000000000000000000000000000000000000000000000000000000000000000000000000000 <
b00000000000000000000000000000000 B
b00000000000000000000000000000000 C
b00000000000000000000000000000000 D
b00000000000000000000000000000000 E
b0000000000000000000000000000000000000000000000000000000000000000000000000000000000000000000000000000000000000000000000000 F
b00000000000000000000000000000000 J
b00000000000000000000000000000000 K
b00000000000000000000000000000000 L
b0000000000000000000000000000000000000000000000000000000000000000000000000000000 M
b00000000000000000000000000000000 P
b00000000000000000000000000000000 Q
b00000000000000000000000000000000 R
b00000000000000000000000000000000 S
b00000000000000000000000000000000 T
b00000000000000000000000000000000 U
b00000000000000000000000000000000 V
b00000000000000000000000000000000 W
b00000000000000000000000000000000 X
b00000000000000000000000000000000 Y
b00000000000000000000000000000000 Z
b00000000000000000000000000000000 [
b00000000000000000000000000000000 \
b00000000000000000000000000000000 ]
b00000000000000000000000000000000 ^
b00000000000000000000000000000000 _
b00000000000000000000000000000000 `
b00000000000000000000000000000000 a
b00000000000000000000000000000000 b
b00000000000000000000000000000000 c
b00000000000000000000000000000000 d
b00000000000000000000000000000000 e
b00000000000000000000000000000000 f
b00000000000000000000000000000000 g
b00000000000000000000000000000000 h
b00000000000000000000000000000000 i
b00000000000000000000000000000000 j
b00000000000000000000000000000000 k
b00000000000000000000000000000000 l
b00000000000000000000000000000000 m
b00000000000000000000000000000000 n
b00000000000000000000000000000000 o
0p
1q
b00000000 r
b00000000000000000000000000000000 s
b00000000000000000000000000000000 t
b00000000000000000000000000000000 u
b0000000 v
#10
b000000000000000000000000000000000000100 7
1p
#15
0p
#18
0q
#20
b0000100 -
b00101000010000000001010000000011 .
b0000000000000000000000000000000001000000000000000000000000000000000000000000000000000000000000000000000000000000000000000000000000000000000000000000000000000000000000000000000000 <
1p
#25
0p
#28
#30
b01 &
1'
b01 )
b0001000 -
b00100000100000000000100001001001 .
b001010000100000000010100000000110001000 7
b0000100000000010100 9
b0000100000000000000000000000000000000000000000000000000000000000000000000000000000000000000000000000000000000000000000000 F
1p
b00000011 r
#35
0p
#38
#40
b0001 #
b00 &
1+
1,
b0001100 -
b00111001010010000000000000001000 .
b001000001000000000001000010010010001100 7
b0001000000000001000 9
b0000100000010000000100000000100010000000000000000000000000000000000000000000000000000000000000000000000000000000000000000000000000000000000000000000000000000001010000101000010100 <
b00000000000000000000000000010100 C
b00000000000000000000000000010100 D
b00000000000000000000000000010100 E
b0000100000000000000000000000000000000000000000000000000000000000000000000000000 M
1p
b01001001 r
#45
0p
#48
#50
b0000 #
b01 &
b00 )
0+
0,
b0010000 -
b00000000000000000000000000000000 .
b0010100 /
14
05
06
b001110010100100000000000000010000010000 7
b0010100100000000000 9
b0001000100010000010000010000100011000000000000000000000000000000000000000000000000000000000000000000000000000000000000000000000000000000000000000000000000000000100000100000001000 <
b00000000000000000000000000001000 C
b00000000000000000000000000001000 D
b00000000000000000000000000001000 E
b0001000000000000100100000000000000000000000000010100000000000000000000000000000000000000000000000000000000000000000000101 F
b00000000000000000000000000010100 J
b00000000000000000000000000010100 L
1p
b00001000 r
#55
0p
#58
#60
b0001000 /
b11111111111111111111111111110011 0
b01 2
b10 3
04
15
16
b00000000000000000000000000010100 :
b00000000000000000000000000000101 ;
b0010100100000000000100000000100100000000000000000000000000000000000000000000000000000000000000000000000000000000000000000000000000000000000000000000000010000000000000111000000000 <
b00000000000000000000000000010100 B
b00000000000000000000000000000000 D
b00000000000000000000000000011100 E
b0001100000100001100000000000000000000000000000001000000000000000000000000000000000000000000000000000000000000000000000100 F
b00000000000000000000000000001000 J
b00000000000000000000000000001000 L
b0001000101000000000000000000000000000000000000000000000000000000000001010000101 M
1p
#65
b00000000000000000000000000010100 U
0p
b00000000000000000000000000010100 s
#68
#70
b00 &
0'
b0010100 -
b0011100 /
b11111111111111111111111100000000 0
b00 2
b01 3
b000000000000000000000000000000000010100 7
b0000000000000000000 9
b11111111111111111111111111110011 :
b00000000000000000000000000000100 ;
b0010100100000000000100000000100100000000000000000000000000000001010000000000000000000000000000000000000000000000000000000000000000000000000000000000000010000000000000111000000000 <
b11111111111111111111111111110011 C
b00000000000000000000000000000111 E
b0010000000000000100100000000000000000000000000011100000000000000000000000000000000000000000000000000000000000000000000111 F
b00000000000000000000000000011100 J
b00000000000000000000000000011100 L
b0001100100111111111111111111111111111100110000000000000000000000000000100000100 M
1p
b00000000 r
b00000000000000000000000000000000 s
#75
b11111111111111111111111111110011 T
0p
#78
#80
b0011000 -
b0000111 /
b00 3
b000000000000000000000000000000000011000 7
b00000000000000000000000000011100 :
b00000000000000000000000000000111 ;
b0000000000000000000000000000000101000000000000000000000000000000000000000000000000000000000000000000000000000000000000000000000000000000000000000000000000000000000000000000000000 <
b00000000000000000000000000000000 B
b00000000000000000000000000000000 C
b00000000000000000000000000000000 E
b0010000000000000100100000000000000000000000000000111000000000000000000000000000000000000000000000000000000000000000000111 F
b00000000000000000000000000000111 J
b00000000000000000000000000000111 L
b0010000101111111111111111111111111000000000000000000000000000000000001110000111 M
1p
#85
b00000000000000000000000000011100 W
0p
#88
#90
b0011100 -
b0000000 /
b000000000000000000000000000000000011100 7
b00000000000000000000000000000111 :
b0000000000000000000000000000000110000000000000000000000000000000000000000000000000000000000000000000000000000000000000000000000000000000000000000000000000000000000000000000000000 <
b0010100000000000000000000000000000000000000000000000000000000000000000000000000000000000000000000000000000000000000000000 F
b00000000000000000000000000000000 J
b00000000000000000000000000000000 L
b0010000101111111111111111111111111000000000000000000000000000000000000011100111 M
1p
#95
b00000000000000000000000000000111 W
0p
#98
#100
b0100000 -
b000000000000000000000000000000000100000 7
b11111111111111111111111100000000 :
b00000000000000000000000000000000 ;
b0000000000000000000000000000000111000000000000000000000000000000000000000000000000000000000000000000000000000000000000000000000000000000000000000000000000000000000000000000000000 <
b0011000000000000000000000000000000000000000000000000000000000000000000000000000000000000000000000000000000000000000000000 F
b0010100000111111111111111111111111000000000000000000000000000000000000000000000 M
1p
#105
0p
#108
#110
b0100100 -
b000000000000000000000000000000000100100 7
b0000000000000000000000000000001000000000000000000000000000000000000000000000000000000000000000000000000000000000000000000000000000000000000000000000000000000000000000000000000000 <
b0011100000000000000000000000000000000000000000000000000000000000000000000000000000000000000000000000000000000000000000000 F
b0011000000111111111111111111111111000000000000000000000000000000000000000000000 M
1p
#115
0p
#118
#120
b0101000 -
b000000000000000000000000000000000101000 7
b0000000000000000000000000000001001000000000000000000000000000000000000000000000000000000000000000000000000000000000000000000000000000000000000000000000000000000000000000000000000 <
b0100000000000000000000000000000000000000000000000000000000000000000000000000000000000000000000000000000000000000000000000 F
b0011100000111111111111111111111111000000000000000000000000000000000000000000000 M
1p
#125
0p
#128
#130
b0101100 -
b000000000000000000000000000000000101100 7
b0000000000000000000000000000001010000000000000000000000000000000000000000000000000000000000000000000000000000000000000000000000000000000000000000000000000000000000000000000000000 <
b0100100000000000000000000000000000000000000000000000000000000000000000000000000000000000000000000000000000000000000000000 F
b0100000000111111111111111111111111000000000000000000000000000000000000000000000 M
1p
#135
0p
#138
#140
b0110000 -
b000000000000000000000000000000000110000 7
b0000000000000000000000000000001011000000000000000000000000000000000000000000000000000000000000000000000000000000000000000000000000000000000000000000000000000000000000000000000000 <
b0101000000000000000000000000000000000000000000000000000000000000000000000000000000000000000000000000000000000000000000000 F
b0100100000111111111111111111111111000000000000000000000000000000000000000000000 M
1p
#145
0p
#148
#150
b0110100 -
b000000000000000000000000000000000110100 7
b0000000000000000000000000000001100000000000000000000000000000000000000000000000000000000000000000000000000000000000000000000000000000000000000000000000000000000000000000000000000 <
b0101100000000000000000000000000000000000000000000000000000000000000000000000000000000000000000000000000000000000000000000 F
b0101000000111111111111111111111111000000000000000000000000000000000000000000000 M
1p
#155
0p
#158
#160
b0111000 -
b000000000000000000000000000000000111000 7
b0000000000000000000000000000001101000000000000000000000000000000000000000000000000000000000000000000000000000000000000000000000000000000000000000000000000000000000000000000000000 <
b0110000000000000000000000000000000000000000000000000000000000000000000000000000000000000000000000000000000000000000000000 F
b0101100000111111111111111111111111000000000000000000000000000000000000000000000 M
1p
#165
0p
#168
#170
b0111100 -
b000000000000000000000000000000000111100 7
b0000000000000000000000000000001110000000000000000000000000000000000000000000000000000000000000000000000000000000000000000000000000000000000000000000000000000000000000000000000000 <
b0110100000000000000000000000000000000000000000000000000000000000000000000000000000000000000000000000000000000000000000000 F
b0110000000111111111111111111111111000000000000000000000000000000000000000000000 M
1p
#175
0p
#178
#180
b1000000 -
b000000000000000000000000000000001000000 7
b0000000000000000000000000000001111000000000000000000000000000000000000000000000000000000000000000000000000000000000000000000000000000000000000000000000000000000000000000000000000 <
b0111000000000000000000000000000000000000000000000000000000000000000000000000000000000000000000000000000000000000000000000 F
b0110100000111111111111111111111111000000000000000000000000000000000000000000000 M
1p
#185
0p
#188
#190
b1000100 -
b000000000000000000000000000000001000100 7
b0000000000000000000000000000010000000000000000000000000000000000000000000000000000000000000000000000000000000000000000000000000000000000000000000000000000000000000000000000000000 <
b0111100000000000000000000000000000000000000000000000000000000000000000000000000000000000000000000000000000000000000000000 F
b0111000000111111111111111111111111000000000000000000000000000000000000000000000 M
1p
#195
0p
#198
#200
b1001000 -
b000000000000000000000000000000001001000 7
b0000000000000000000000000000010001000000000000000000000000000000000000000000000000000000000000000000000000000000000000000000000000000000000000000000000000000000000000000000000000 <
b1000000000000000000000000000000000000000000000000000000000000000000000000000000000000000000000000000000000000000000000000 F
b0111100000111111111111111111111111000000000000000000000000000000000000000000000 M
1p
#205
0p
#208
#210
b1001100 -
b000000000000000000000000000000001001100 7
b0000000000000000000000000000010010000000000000000000000000000000000000000000000000000000000000000000000000000000000000000000000000000000000000000000000000000000000000000000000000 <
b1000100000000000000000000000000000000000000000000000000000000000000000000000000000000000000000000000000000000000000000000 F
b1000000000111111111111111111111111000000000000000000000000000000000000000000000 M
1p
#215
0p
#218
#220
b1010000 -
b000000000000000000000000000000001010000 7
b0000000000000000000000000000010011000000000000000000000000000000000000000000000000000000000000000000000000000000000000000000000000000000000000000000000000000000000000000000000000 <
b1001000000000000000000000000000000000000000000000000000000000000000000000000000000000000000000000000000000000000000000000 F
b1000100000111111111111111111111111000000000000000000000000000000000000000000000 M
1p
#225
0p
#228
#230
b1010100 -
b000000000000000000000000000000001010100 7
b0000000000000000000000000000010100000000000000000000000000000000000000000000000000000000000000000000000000000000000000000000000000000000000000000000000000000000000000000000000000 <
b1001100000000000000000000000000000000000000000000000000000000000000000000000000000000000000000000000000000000000000000000 F
b1001000000111111111111111111111111000000000000000000000000000000000000000000000 M
1p
#235
0p
#238
#240
b1011000 -
b000000000000000000000000000000001011000 7
b0000000000000000000000000000010101000000000000000000000000000000000000000000000000000000000000000000000000000000000000000000000000000000000000000000000000000000000000000000000000 <
b1010000000000000000000000000000000000000000000000000000000000000000000000000000000000000000000000000000000000000000000000 F
b1001100000111111111111111111111111000000000000000000000000000000000000000000000 M
1p
#245
0p
#248
#250
b1011100 -
b000000000000000000000000000000001011100 7
b0000000000000000000000000000010110000000000000000000000000000000000000000000000000000000000000000000000000000000000000000000000000000000000000000000000000000000000000000000000000 <
b1010100000000000000000000000000000000000000000000000000000000000000000000000000000000000000000000000000000000000000000000 F
b1010000000111111111111111111111111000000000000000000000000000000000000000000000 M
1p
#255
0p
#258
#260
b1100000 -
b000000000000000000000000000000001100000 7
b0000000000000000000000000000010111000000000000000000000000000000000000000000000000000000000000000000000000000000000000000000000000000000000000000000000000000000000000000000000000 <
b1011000000000000000000000000000000000000000000000000000000000000000000000000000000000000000000000000000000000000000000000 F
b1010100000111111111111111111111111000000000000000000000000000000000000000000000 M
1p
#265
0p
#268
#270
b1100100 -
b000000000000000000000000000000001100100 7
b0000000000000000000000000000011000000000000000000000000000000000000000000000000000000000000000000000000000000000000000000000000000000000000000000000000000000000000000000000000000 <
b1011100000000000000000000000000000000000000000000000000000000000000000000000000000000000000000000000000000000000000000000 F
b1011000000111111111111111111111111000000000000000000000000000000000000000000000 M
1p
#275
0p
#278
#280
b1101000 -
b000000000000000000000000000000001101000 7
b0000000000000000000000000000011001000000000000000000000000000000000000000000000000000000000000000000000000000000000000000000000000000000000000000000000000000000000000000000000000 <
b1100000000000000000000000000000000000000000000000000000000000000000000000000000000000000000000000000000000000000000000000 F
b1011100000111111111111111111111111000000000000000000000000000000000000000000000 M
1p
#285
0p
#288
#290
b1101100 -
b000000000000000000000000000000001101100 7
b0000000000000000000000000000011010000000000000000000000000000000000000000000000000000000000000000000000000000000000000000000000000000000000000000000000000000000000000000000000000 <
b1100100000000000000000000000000000000000000000000000000000000000000000000000000000000000000000000000000000000000000000000 F
b1100000000111111111111111111111111000000000000000000000000000000000000000000000 M
1p
#295
0p
#298
#300
b1110000 -
b000000000000000000000000000000001110000 7
b0000000000000000000000000000011011000000000000000000000000000000000000000000000000000000000000000000000000000000000000000000000000000000000000000000000000000000000000000000000000 <
b1101000000000000000000000000000000000000000000000000000000000000000000000000000000000000000000000000000000000000000000000 F
b1100100000111111111111111111111111000000000000000000000000000000000000000000000 M
1p
#305
0p
#308
#310
b1110100 -
b000000000000000000000000000000001110100 7
b0000000000000000000000000000011100000000000000000000000000000000000000000000000000000000000000000000000000000000000000000000000000000000000000000000000000000000000000000000000000 <
b1101100000000000000000000000000000000000000000000000000000000000000000000000000000000000000000000000000000000000000000000 F
b1101000000111111111111111111111111000000000000000000000000000000000000000000000 M
1p
#315
0p
#318
#320
b1111000 -
b000000000000000000000000000000001111000 7
b0000000000000000000000000000011101000000000000000000000000000000000000000000000000000000000000000000000000000000000000000000000000000000000000000000000000000000000000000000000000 <
b1110000000000000000000000000000000000000000000000000000000000000000000000000000000000000000000000000000000000000000000000 F
b1101100000111111111111111111111111000000000000000000000000000000000000000000000 M
1p
#325
0p
#328
#330
b1111100 -
b000000000000000000000000000000001111100 7
b0000000000000000000000000000011110000000000000000000000000000000000000000000000000000000000000000000000000000000000000000000000000000000000000000000000000000000000000000000000000 <
b1110100000000000000000000000000000000000000000000000000000000000000000000000000000000000000000000000000000000000000000000 F
b1110000000111111111111111111111111000000000000000000000000000000000000000000000 M
1p
#335
0p
#338
#340
b0000000 -
b000000000000000000000000000000000000000 7
b0000000000000000000000000000011111000000000000000000000000000000000000000000000000000000000000000000000000000000000000000000000000000000000000000000000000000000000000000000000000 <
b1111000000000000000000000000000000000000000000000000000000000000000000000000000000000000000000000000000000000000000000000 F
b1110100000111111111111111111111111000000000000000000000000000000000000000000000 M
1p
#345
0p
#348
#350
b0000100 -
b00101000010000000001010000000011 .
b000000000000000000000000000000000000100 7
b0000000000000000000000000000000000000000000000000000000000000000000000000000000000000000000000000000000000000000000000000000000000000000000000000000000000000000000000000000000000 <
b1111100000000000000000000000000000000000000000000000000000000000000000000000000000000000000000000000000000000000000000000 F
b1111000000111111111111111111111111000000000000000000000000000000000000000000000 M
1p
#355
0p
#358
#360
b01 &
1'
b01 )
b0001000 -
b00100000100000000000100001001001 .
b001010000100000000010100000000110001000 7
b0000100000000010100 9
b0000000000000000000000000000000001000000000000000000000000000000000000000000000000000000000000000000000000000000000000000000000000000000000000000000000000000000000000000000000000 <
b0000000000000000000000000000000000000000000000000000000000000000000000000000000000000000000000000000000000000000000000000 F
b1111100000111111111111111111111111000000000000000000000000000000000000000000000 M
1p
b00000011 r
