lab2_waveforms.vcd
$version Generated by VerilatedVcd $end
$date Wed May  4 22:58:46 2022 $end
$timescale 1ps $end

 $scope module TOP $end
  $var wire  8 | Op [7:0] $end
  $var wire  1 z clock $end
  $var wire  1 { reset $end
  $scope module top $end
   $var wire  4 ( ALUOp [3:0] $end
   $var wire  1 * ALUOp2 $end
   $var wire  2 ) ALUSrc [1:0] $end
   $var wire  4 # MemRead [3:0] $end
   $var wire  1 , MemSignExtend $end
   $var wire  2 & MemToReg [1:0] $end
   $var wire  4 $ MemWrite [3:0] $end
   $var wire  8 | Op [7:0] $end
   $var wire  1 % PCSrc $end
   $var wire  1 + RbSelect $end
   $var wire  1 ' RegWrite $end
   $var wire  2 - branch_flag [1:0] $end
   $var wire  1 z clock $end
   $var wire  1 . jump_flag $end
   $var wire  1 { reset $end
   $scope module ctr $end
    $var wire  4 ( AluOp [3:0] $end
    $var wire  1 * AluOp2 $end
    $var wire  2 ) AluSrc [1:0] $end
    $var wire  4 # MemRead [3:0] $end
    $var wire  1 , MemSignExtend $end
    $var wire  2 & MemToReg [1:0] $end
    $var wire  4 $ MemWrite [3:0] $end
    $var wire  8 | Op [7:0] $end
    $var wire  1 % PCSrc $end
    $var wire  1 + RbSelect $end
    $var wire  1 ' RegWrite $end
    $var wire  2 - branch_flag [1:0] $end
    $var wire  1 . jump_flag $end
   $upscope $end
   $scope module datapath $end
    $var wire  4 ( ALUOp [3:0] $end
    $var wire  1 * ALUOp2 $end
    $var wire  2 ) ALUSrc [1:0] $end
    $var wire 32 J Alu1out [31:0] $end
    $var wire 32 S Alu2out [31:0] $end
    $var wire 138 L ExMem [137:0] $end
    $var wire  2 4 ForwardingA [1:0] $end
    $var wire  2 5 ForwardingB [1:0] $end
    $var wire 190 A IdEx [189:0] $end
    $var wire 39 < IfId [38:0] $end
    $var wire  1 8 IfIdEN $end
    $var wire 19 > JumpAddress [18:0] $end
    $var wire  4 # MemRead [3:0] $end
    $var wire  1 , MemSignExtend $end
    $var wire  2 & MemToReg [1:0] $end
    $var wire 79 W MemWb [78:0] $end
    $var wire  4 $ MemWrite [3:0] $end
    $var wire  8 | Op [7:0] $end
    $var wire  7 / PC [6:0] $end
    $var wire  7 "! PCSTART [6:0] $end
    $var wire  1 % PCSrc $end
    $var wire  1 7 PCenable $end
    $var wire 32 Z RF[0] [31:0] $end
    $var wire 32 d RF[10] [31:0] $end
    $var wire 32 e RF[11] [31:0] $end
    $var wire 32 f RF[12] [31:0] $end
    $var wire 32 g RF[13] [31:0] $end
    $var wire 32 h RF[14] [31:0] $end
    $var wire 32 i RF[15] [31:0] $end
    $var wire 32 j RF[16] [31:0] $end
    $var wire 32 k RF[17] [31:0] $end
    $var wire 32 l RF[18] [31:0] $end
    $var wire 32 m RF[19] [31:0] $end
    $var wire 32 [ RF[1] [31:0] $end
    $var wire 32 n RF[20] [31:0] $end
    $var wire 32 o RF[21] [31:0] $end
    $var wire 32 p RF[22] [31:0] $end
    $var wire 32 q RF[23] [31:0] $end
    $var wire 32 r RF[24] [31:0] $end
    $var wire 32 s RF[25] [31:0] $end
    $var wire 32 t RF[26] [31:0] $end
    $var wire 32 u RF[27] [31:0] $end
    $var wire 32 v RF[28] [31:0] $end
    $var wire 32 w RF[29] [31:0] $end
    $var wire 32 \ RF[2] [31:0] $end
    $var wire 32 x RF[30] [31:0] $end
    $var wire 32 y RF[31] [31:0] $end
    $var wire 32 ] RF[3] [31:0] $end
    $var wire 32 ^ RF[4] [31:0] $end
    $var wire 32 _ RF[5] [31:0] $end
    $var wire 32 ` RF[6] [31:0] $end
    $var wire 32 a RF[7] [31:0] $end
    $var wire 32 b RF[8] [31:0] $end
    $var wire 32 c RF[9] [31:0] $end
    $var wire 32 @ RF_WriteAddr [31:0] $end
    $var wire 32 ? RF_WriteData [31:0] $end
    $var wire  1 + RbSelect $end
    $var wire  1 ' RegWrite $end
    $var wire 32 G alu1in_a [31:0] $end
    $var wire 32 H alu1in_b [31:0] $end
    $var wire 32 I alu1in_b_mux [31:0] $end
    $var wire 32 Q alu2in_a [31:0] $end
    $var wire 32 R alu2in_b [31:0] $end
    $var wire  2 : branchId [1:0] $end
    $var wire  1 V branch_eq $end
    $var wire  2 - branch_flag [1:0] $end
    $var wire  1 U branch_ne $end
    $var wire  1 T branch_src $end
    $var wire  2 ; branchex [1:0] $end
    $var wire  1 z clk $end
    $var wire 32 } da [31:0] $end
    $var wire  7 1 datamem_address [6:0] $end
    $var wire 32 2 datamem_data [31:0] $end
    $var wire 32 3 datamem_write_data [31:0] $end
    $var wire 32 ~ db [31:0] $end
    $var wire 32 !! dc [31:0] $end
    $var wire  1 9 flush $end
    $var wire  7 / instmem_address [6:0] $end
    $var wire 32 0 instmem_data [31:0] $end
    $var wire  1 . jump_flag $end
    $var wire  1 { reset $end
    $var wire  1 6 stall_flag $end
    $var wire  1 K zero_flag $end
   $upscope $end
  $upscope $end
 $upscope $end
$enddefinitions $end


#8
b0000 #
b0000 $
0%
b00 &
0'
b0000 (
b00 )
0*
0+
0,
b00 -
0.
b0000000 /
b00000000000000000000000000000000 0
b0000000 1
b00000000000000000000000000000000 2
b00000000000000000000000000000000 3
b00 4
b00 5
06
17
18
09
b00 :
b00 ;
b000000000000000000000000000000000000000 <
b0000000000000000000 >
b00000000000000000000000000000000 ?
b00000000000000000000000000000000 @
b0000000000000000000000000000000000000000000000000000000000000000000000000000000000000000000000000000000000000000000000000000000000000000000000000000000000000000000000000000000000000000000000 A
b00000000000000000000000000000000 G
b00000000000000000000000000000000 H
b00000000000000000000000000000000 I
b00000000000000000000000000000000 J
1K
b000000000000000000000000000000000000000000000000000000000000000000000000000000000000000000000000000000000000000000000000000000000000000000 L
b00000000000000000000000000000000 Q
b00000000000000000000000000000000 R
b00000000000000000000000000000000 S
0T
0U
0V
b0000000000000000000000000000000000000000000000000000000000000000000000000000000 W
b00000000000000000000000000000000 Z
b00000000000000000000000000000000 [
b00000000000000000000000000000000 \
b00000000000000000000000000000000 ]
b00000000000000000000000000000000 ^
b00000000000000000000000000000000 _
b00000000000000000000000000000000 `
b00000000000000000000000000000000 a
b00000000000000000000000000000000 b
b00000000000000000000000000000000 c
b00000000000000000000000000000000 d
b00000000000000000000000000000000 e
b00000000000000000000000000000000 f
b00000000000000000000000000000000 g
b00000000000000000000000000000000 h
b00000000000000000000000000000000 i
b00000000000000000000000000000000 j
b00000000000000000000000000000000 k
b00000000000000000000000000000000 l
b00000000000000000000000000000000 m
b00000000000000000000000000000000 n
b00000000000000000000000000000000 o
b00000000000000000000000000000000 p
b00000000000000000000000000000000 q
b00000000000000000000000000000000 r
b00000000000000000000000000000000 s
b00000000000000000000000000000000 t
b00000000000000000000000000000000 u
b00000000000000000000000000000000 v
b00000000000000000000000000000000 w
b00000000000000000000000000000000 x
b00000000000000000000000000000000 y
0z
1{
b00000000 |
b00000000000000000000000000000000 }
b00000000000000000000000000000000 ~
b00000000000000000000000000000000 !!
b0000000 "!
#10
b000000000000000000000000000000000000100 <
b000000000000000000000000000000000000000000000000000000000000000000000000000000000000000000000000000000000000000000000000010000000000000000 L
1z
#15
0z
#18
0{
#20
b0000100 /
b00101000010000000000001000000011 0
b0000000000000000000000000000000001000000000000000000000000000000000000000000000000000000000000000000000000000000000000000000000000000000000000000000000000000000000000000000000000000000000000 A
1z
#25
0z
#28
#30
b01 &
1'
b01 )
b0001000 /
b00110000000000000000100000000011 0
b001010000100000000000010000000110001000 <
b0000100000000000010 >
b000010000000000000000000000000000000000000000000000000000000000000000000000000000000000000000000000000000000000000000000010000000000000000 L
1z
b00000011 |
#35
0z
#38
#40
b0001100 /
b00101001100000000000100001000001 0
b001100000000000000001000000000110001100 <
b0000000000000001000 >
b0000100000010000000100000000100010000000000000000000000000000000000000000000000000000000000000000000000000000000000000000000000000000000000000000000000000000000001000101000000000000000000010 A
b00000000000000000000000000000010 H
b00000000000000000000000000000010 I
b00000000000000000000000000000010 J
0K
b0000100000000000000000000000000000000000000000000000000000000000000000000000000 W
1z
#45
0z
#48
#50
b00 &
0'
b0001 (
b00 )
1+
b10 -
b0010000 /
b00000000000000000000000000000000 0
b0000010 1
19
b001010011000000000001000010000010010000 <
b0011000000000001000 >
b0000000000010000000100000000100011000000000000000000000000000000000000000000000000000000000000000000000000000000000000000000000000000000000000000000000000000000100000110000000000000000001000 A
b00000000000000000000000000001000 H
b00000000000000000000000000001000 I
b00000000000000000000000000001000 J
b000100000000000010010000000000000000000000000000001000000000000000000000000000000000000000000000000000000000000000000010100000000000000010 L
b00000000000000000000000000000010 Q
b00000000000000000000000000000010 S
1z
b01000001 |
#55
0z
#58
#60
b0000 (
0+
b00 -
b0010100 /
b00010000000000000000000000000100 0
b0001000 1
b10 4
b01 5
b10 :
b000000000000000000000000000000000010100 <
b0000000000000000000 >
b00000000000000000000000000000010 ?
b00000000000000000000000000000101 @
b0011000101000001000000000000000100000000000000000000000000000000000000000000000000000000000000000000000000000000000000000000000000000000000000000000000000000000100000101000001000000000001000 A
b00000000000000000000000000001000 G
b00000000000000000000000000000010 H
b00000000000000000000000000000000 I
b00000000000000000000000000000110 J
b000110000000000010010000000000000000000000000000100000000000000000000000000000000000000000000000000000000000000000000011000000000000001000 L
b00000000000000000000000000001000 Q
b00000000000000000000000000001000 S
b0001000101000000000000000000000000000000000000000000000000000000000000001000101 W
1z
b00000000 |
#65
b00000000000000000000000000000010 _
0z
#68
#70
b0011000 /
b00110000000000000000011000000101 0
b0000110 1
b00 4
b00 5
b00 :
b10 ;
b000000000000000000000000000000000011000 <
b00000000000000000000000000001000 ?
b00000000000000000000000000000110 @
b0000000000000000000000000000000101000000000000000000000000000000000000000000000000000000000000000000000000000000000000000000000000000000000000000000000000000000000000000000000000000000000000 A
b00000000000000000000000000000000 G
b00000000000000000000000000000000 H
b00000000000000000000000000000000 J
1K
b001000000000000000000000000000000000000000000000011000000000000000000000000000000000000000000000000000000000000000000010101000000000001000 L
b00000000000000000000000000000110 Q
b00000000000000000000000000000110 S
1T
1U
b0001100101000000000000000000000000000000000000000000000000000000000000100000110 W
1z
#75
b00000000000000000000000000001000 `
0z
#78
#80
b0001000 /
b00110000000000000000100000000011 0
b0000000 1
09
b00 ;
b000000000000000000000000000000000011100 <
b00000000000000000000000000000000 ?
b00000000000000000000000000000101 @
b0000000000000000000000000000000110000000000000000000000000000000000000000000000000000000000000000000000000000000000000000000000000000000000000000000000000000000000000000000000000000000000000 A
b001010000000000000000000000000000000000000000000000000000000000000000000000000000000000000000000000000000000000000000000010000000000000000 L
b00000000000000000000000000000000 Q
b00000000000000000000000000000000 S
0T
0U
b0010000000000000000000000000000000000000000000000000000000000000000000011000101 W
1z
#85
0z
#88
#90
b01 &
1'
b01 )
b0001100 /
b00101001100000000000100001000001 0
b001100000000000000001000000000110001100 <
b0000000000000001000 >
b00000000000000000000000000000000 @
b0000000000000000000000000000000111000000000000000000000000000000000000000000000000000000000000000000000000000000000000000000000000000000000000000000000000000000000000000000000000000000000000 A
b001100000000000000000000000000000000000000000000000000000000000000000000000000000000000000000000000000000000000000000000010000000000000000 L
b0010100000000000000000000000000000000000000000000000000000000000000000000000000 W
1z
b00000011 |
#95
0z
#98
#100
b00 &
0'
b0001 (
b00 )
1+
b10 -
b0010000 /
b00000000000000000000000000000000 0
19
b001010011000000000001000010000010010000 <
b0011000000000001000 >
b0000000000010000000100000000100011000000000000000000000000000000000000000000000000000000000000000000000000000000000000000000000000000000000000000000000000000000100000110000000000000000001000 A
b00000000000000000000000000001000 H
b00000000000000000000000000001000 I
b00000000000000000000000000001000 J
0K
b001110000000000000000000000000000000000000000000000000000000000000000000000000000000000000000000000000000000000000000000010000000000000000 L
b0011000000000000000000000000000000000000000000000000000000000000000000000000000 W
1z
b01000001 |
b00000000000000000000000000001000 }
b00000000000000000000000000000010 ~
#105
0z
#108
#110
b0000 (
0+
b00 -
b0010100 /
b00010000000000000000000000000100 0
b0001000 1
b10 4
b10 :
b000000000000000000000000000000000010100 <
b0000000000000000000 >
b0011000101000001000000000000000100000000000000000000000000000000100000000000000000000000000000000010000000000000000000000000000000000000000000000000000000000000100000101000001000000000001000 A
b00000000000000000000000000001000 G
b00000000000000000000000000000010 H
b00000000000000000000000000000010 I
b00000000000000000000000000000110 J
b000110000000000010010000000000000000000000000000100000000000000000000000000000000000000000000000000000000000000000000011000000000000001000 L
b00000000000000000000000000001000 Q
b00000000000000000000000000001000 S
b0011100000000000000000000000000000000000000000000000000000000000000000000000000 W
1z
b00000000 |
b00000000000000000000000000000000 }
b00000000000000000000000000000000 ~
#115
0z
#118
#120
b0011000 /
b00110000000000000000011000000101 0
b0000110 1
b00000000000000000000000000000010 3
b00 4
b00 :
b10 ;
b000000000000000000000000000000000011000 <
b00000000000000000000000000001000 ?
b00000000000000000000000000000110 @
b0000000000000000000000000000000101000000000000000000000000000000000000000000000000000000000000000000000000000000000000000000000000000000000000000000000000000000000000000000000000000000000000 A
b00000000000000000000000000000000 G
b00000000000000000000000000000000 H
b00000000000000000000000000000000 I
b00000000000000000000000000000000 J
1K
b001000000000000000000000000000000000000000000000011000000000000000000000000000000010000000000000000000000000000000000010101000000000001000 L
b00000000000000000000000000000110 Q
b00000000000000000000000000000110 S
1T
1U
b0001100101000000000000000000000000000000000000000000000000000000000000100000110 W
1z
#125
0z
#128
#130
b0001000 /
b00110000000000000000100000000011 0
b0000000 1
b00000000000000000000000000000000 3
09
b00 ;
b000000000000000000000000000000000011100 <
b00000000000000000000000000000000 ?
b00000000000000000000000000000101 @
b0000000000000000000000000000000110000000000000000000000000000000000000000000000000000000000000000000000000000000000000000000000000000000000000000000000000000000000000000000000000000000000000 A
b001010000000000000000000000000000000000000000000000000000000000000000000000000000000000000000000000000000000000000000000010000000000000000 L
b00000000000000000000000000000000 Q
b00000000000000000000000000000000 S
0T
0U
b0010000000000000000000000000000000000000000000000000000000000000000000011000101 W
1z
#135
0z
#138
#140
b01 &
1'
b01 )
b0001100 /
b00101001100000000000100001000001 0
b001100000000000000001000000000110001100 <
b0000000000000001000 >
b00000000000000000000000000000000 @
b0000000000000000000000000000000111000000000000000000000000000000000000000000000000000000000000000000000000000000000000000000000000000000000000000000000000000000000000000000000000000000000000 A
b001100000000000000000000000000000000000000000000000000000000000000000000000000000000000000000000000000000000000000000000010000000000000000 L
b0010100000000000000000000000000000000000000000000000000000000000000000000000000 W
1z
b00000011 |
#145
0z
#148
#150
b00 &
0'
b0001 (
b00 )
1+
b10 -
b0010000 /
b00000000000000000000000000000000 0
19
b001010011000000000001000010000010010000 <
b0011000000000001000 >
b0000000000010000000100000000100011000000000000000000000000000000000000000000000000000000000000000000000000000000000000000000000000000000000000000000000000000000100000110000000000000000001000 A
b00000000000000000000000000001000 H
b00000000000000000000000000001000 I
b00000000000000000000000000001000 J
0K
b001110000000000000000000000000000000000000000000000000000000000000000000000000000000000000000000000000000000000000000000010000000000000000 L
b0011000000000000000000000000000000000000000000000000000000000000000000000000000 W
1z
b01000001 |
b00000000000000000000000000001000 }
b00000000000000000000000000000010 ~
#155
0z
#158
#160
b0000 (
0+
b00 -
b0010100 /
b00010000000000000000000000000100 0
b0001000 1
b10 4
b10 :
b000000000000000000000000000000000010100 <
b0000000000000000000 >
b0011000101000001000000000000000100000000000000000000000000000000100000000000000000000000000000000010000000000000000000000000000000000000000000000000000000000000100000101000001000000000001000 A
b00000000000000000000000000001000 G
b00000000000000000000000000000010 H
b00000000000000000000000000000010 I
b00000000000000000000000000000110 J
b000110000000000010010000000000000000000000000000100000000000000000000000000000000000000000000000000000000000000000000011000000000000001000 L
b00000000000000000000000000001000 Q
b00000000000000000000000000001000 S
b0011100000000000000000000000000000000000000000000000000000000000000000000000000 W
1z
b00000000 |
b00000000000000000000000000000000 }
b00000000000000000000000000000000 ~
#165
0z
#168
#170
b0011000 /
b00110000000000000000011000000101 0
b0000110 1
b00000000000000000000000000000010 3
b00 4
b00 :
b10 ;
b000000000000000000000000000000000011000 <
b00000000000000000000000000001000 ?
b00000000000000000000000000000110 @
b0000000000000000000000000000000101000000000000000000000000000000000000000000000000000000000000000000000000000000000000000000000000000000000000000000000000000000000000000000000000000000000000 A
b00000000000000000000000000000000 G
b00000000000000000000000000000000 H
b00000000000000000000000000000000 I
b00000000000000000000000000000000 J
1K
b001000000000000000000000000000000000000000000000011000000000000000000000000000000010000000000000000000000000000000000010101000000000001000 L
b00000000000000000000000000000110 Q
b00000000000000000000000000000110 S
1T
1U
b0001100101000000000000000000000000000000000000000000000000000000000000100000110 W
1z
#175
0z
#178
#180
b0001000 /
b00110000000000000000100000000011 0
b0000000 1
b00000000000000000000000000000000 3
09
b00 ;
b000000000000000000000000000000000011100 <
b00000000000000000000000000000000 ?
b00000000000000000000000000000101 @
b0000000000000000000000000000000110000000000000000000000000000000000000000000000000000000000000000000000000000000000000000000000000000000000000000000000000000000000000000000000000000000000000 A
b001010000000000000000000000000000000000000000000000000000000000000000000000000000000000000000000000000000000000000000000010000000000000000 L
b00000000000000000000000000000000 Q
b00000000000000000000000000000000 S
0T
0U
b0010000000000000000000000000000000000000000000000000000000000000000000011000101 W
1z
#185
0z
#188
#190
b01 &
1'
b01 )
b0001100 /
b00101001100000000000100001000001 0
b001100000000000000001000000000110001100 <
b0000000000000001000 >
b00000000000000000000000000000000 @
b0000000000000000000000000000000111000000000000000000000000000000000000000000000000000000000000000000000000000000000000000000000000000000000000000000000000000000000000000000000000000000000000 A
b001100000000000000000000000000000000000000000000000000000000000000000000000000000000000000000000000000000000000000000000010000000000000000 L
b0010100000000000000000000000000000000000000000000000000000000000000000000000000 W
1z
b00000011 |
#195
0z
#198
#200
b00 &
0'
b0001 (
b00 )
1+
b10 -
b0010000 /
b00000000000000000000000000000000 0
19
b001010011000000000001000010000010010000 <
b0011000000000001000 >
b0000000000010000000100000000100011000000000000000000000000000000000000000000000000000000000000000000000000000000000000000000000000000000000000000000000000000000100000110000000000000000001000 A
b00000000000000000000000000001000 H
b00000000000000000000000000001000 I
b00000000000000000000000000001000 J
0K
b001110000000000000000000000000000000000000000000000000000000000000000000000000000000000000000000000000000000000000000000010000000000000000 L
b0011000000000000000000000000000000000000000000000000000000000000000000000000000 W
1z
b01000001 |
b00000000000000000000000000001000 }
b00000000000000000000000000000010 ~
#205
0z
#208
#210
b0000 (
0+
b00 -
b0010100 /
b00010000000000000000000000000100 0
b0001000 1
b10 4
b10 :
b000000000000000000000000000000000010100 <
b0000000000000000000 >
b0011000101000001000000000000000100000000000000000000000000000000100000000000000000000000000000000010000000000000000000000000000000000000000000000000000000000000100000101000001000000000001000 A
b00000000000000000000000000001000 G
b00000000000000000000000000000010 H
b00000000000000000000000000000010 I
b00000000000000000000000000000110 J
b000110000000000010010000000000000000000000000000100000000000000000000000000000000000000000000000000000000000000000000011000000000000001000 L
b00000000000000000000000000001000 Q
b00000000000000000000000000001000 S
b0011100000000000000000000000000000000000000000000000000000000000000000000000000 W
1z
b00000000 |
b00000000000000000000000000000000 }
b00000000000000000000000000000000 ~
#215
0z
#218
#220
b0011000 /
b00110000000000000000011000000101 0
b0000110 1
b00000000000000000000000000000010 3
b00 4
b00 :
b10 ;
b000000000000000000000000000000000011000 <
b00000000000000000000000000001000 ?
b00000000000000000000000000000110 @
b0000000000000000000000000000000101000000000000000000000000000000000000000000000000000000000000000000000000000000000000000000000000000000000000000000000000000000000000000000000000000000000000 A
b00000000000000000000000000000000 G
b00000000000000000000000000000000 H
b00000000000000000000000000000000 I
b00000000000000000000000000000000 J
1K
b001000000000000000000000000000000000000000000000011000000000000000000000000000000010000000000000000000000000000000000010101000000000001000 L
b00000000000000000000000000000110 Q
b00000000000000000000000000000110 S
1T
1U
b0001100101000000000000000000000000000000000000000000000000000000000000100000110 W
1z
#225
0z
#228
#230
b0001000 /
b00110000000000000000100000000011 0
b0000000 1
b00000000000000000000000000000000 3
09
b00 ;
b000000000000000000000000000000000011100 <
b00000000000000000000000000000000 ?
b00000000000000000000000000000101 @
b0000000000000000000000000000000110000000000000000000000000000000000000000000000000000000000000000000000000000000000000000000000000000000000000000000000000000000000000000000000000000000000000 A
b001010000000000000000000000000000000000000000000000000000000000000000000000000000000000000000000000000000000000000000000010000000000000000 L
b00000000000000000000000000000000 Q
b00000000000000000000000000000000 S
0T
0U
b0010000000000000000000000000000000000000000000000000000000000000000000011000101 W
1z
#235
0z
#238
#240
b01 &
1'
b01 )
b0001100 /
b00101001100000000000100001000001 0
b001100000000000000001000000000110001100 <
b0000000000000001000 >
b00000000000000000000000000000000 @
b0000000000000000000000000000000111000000000000000000000000000000000000000000000000000000000000000000000000000000000000000000000000000000000000000000000000000000000000000000000000000000000000 A
b001100000000000000000000000000000000000000000000000000000000000000000000000000000000000000000000000000000000000000000000010000000000000000 L
b0010100000000000000000000000000000000000000000000000000000000000000000000000000 W
1z
b00000011 |
#245
0z
#248
#250
b00 &
0'
b0001 (
b00 )
1+
b10 -
b0010000 /
b00000000000000000000000000000000 0
19
b001010011000000000001000010000010010000 <
b0011000000000001000 >
b0000000000010000000100000000100011000000000000000000000000000000000000000000000000000000000000000000000000000000000000000000000000000000000000000000000000000000100000110000000000000000001000 A
b00000000000000000000000000001000 H
b00000000000000000000000000001000 I
b00000000000000000000000000001000 J
0K
b001110000000000000000000000000000000000000000000000000000000000000000000000000000000000000000000000000000000000000000000010000000000000000 L
b0011000000000000000000000000000000000000000000000000000000000000000000000000000 W
1z
b01000001 |
b00000000000000000000000000001000 }
b00000000000000000000000000000010 ~
#255
0z
#258
#260
b0000 (
0+
b00 -
b0010100 /
b00010000000000000000000000000100 0
b0001000 1
b10 4
b10 :
b000000000000000000000000000000000010100 <
b0000000000000000000 >
b0011000101000001000000000000000100000000000000000000000000000000100000000000000000000000000000000010000000000000000000000000000000000000000000000000000000000000100000101000001000000000001000 A
b00000000000000000000000000001000 G
b00000000000000000000000000000010 H
b00000000000000000000000000000010 I
b00000000000000000000000000000110 J
b000110000000000010010000000000000000000000000000100000000000000000000000000000000000000000000000000000000000000000000011000000000000001000 L
b00000000000000000000000000001000 Q
b00000000000000000000000000001000 S
b0011100000000000000000000000000000000000000000000000000000000000000000000000000 W
1z
b00000000 |
b00000000000000000000000000000000 }
b00000000000000000000000000000000 ~
#265
0z
#268
#270
b0011000 /
b00110000000000000000011000000101 0
b0000110 1
b00000000000000000000000000000010 3
b00 4
b00 :
b10 ;
b000000000000000000000000000000000011000 <
b00000000000000000000000000001000 ?
b00000000000000000000000000000110 @
b0000000000000000000000000000000101000000000000000000000000000000000000000000000000000000000000000000000000000000000000000000000000000000000000000000000000000000000000000000000000000000000000 A
b00000000000000000000000000000000 G
b00000000000000000000000000000000 H
b00000000000000000000000000000000 I
b00000000000000000000000000000000 J
1K
b001000000000000000000000000000000000000000000000011000000000000000000000000000000010000000000000000000000000000000000010101000000000001000 L
b00000000000000000000000000000110 Q
b00000000000000000000000000000110 S
1T
1U
b0001100101000000000000000000000000000000000000000000000000000000000000100000110 W
1z
#275
0z
#278
#280
b0001000 /
b00110000000000000000100000000011 0
b0000000 1
b00000000000000000000000000000000 3
09
b00 ;
b000000000000000000000000000000000011100 <
b00000000000000000000000000000000 ?
b00000000000000000000000000000101 @
b0000000000000000000000000000000110000000000000000000000000000000000000000000000000000000000000000000000000000000000000000000000000000000000000000000000000000000000000000000000000000000000000 A
b001010000000000000000000000000000000000000000000000000000000000000000000000000000000000000000000000000000000000000000000010000000000000000 L
b00000000000000000000000000000000 Q
b00000000000000000000000000000000 S
0T
0U
b0010000000000000000000000000000000000000000000000000000000000000000000011000101 W
1z
#285
0z
#288
#290
b01 &
1'
b01 )
b0001100 /
b00101001100000000000100001000001 0
b001100000000000000001000000000110001100 <
b0000000000000001000 >
b00000000000000000000000000000000 @
b0000000000000000000000000000000111000000000000000000000000000000000000000000000000000000000000000000000000000000000000000000000000000000000000000000000000000000000000000000000000000000000000 A
b001100000000000000000000000000000000000000000000000000000000000000000000000000000000000000000000000000000000000000000000010000000000000000 L
b0010100000000000000000000000000000000000000000000000000000000000000000000000000 W
1z
b00000011 |
#295
0z
#298
#300
b00 &
0'
b0001 (
b00 )
1+
b10 -
b0010000 /
b00000000000000000000000000000000 0
19
b001010011000000000001000010000010010000 <
b0011000000000001000 >
b0000000000010000000100000000100011000000000000000000000000000000000000000000000000000000000000000000000000000000000000000000000000000000000000000000000000000000100000110000000000000000001000 A
b00000000000000000000000000001000 H
b00000000000000000000000000001000 I
b00000000000000000000000000001000 J
0K
b001110000000000000000000000000000000000000000000000000000000000000000000000000000000000000000000000000000000000000000000010000000000000000 L
b0011000000000000000000000000000000000000000000000000000000000000000000000000000 W
1z
b01000001 |
b00000000000000000000000000001000 }
b00000000000000000000000000000010 ~
#305
0z
#308
#310
b0000 (
0+
b00 -
b0010100 /
b00010000000000000000000000000100 0
b0001000 1
b10 4
b10 :
b000000000000000000000000000000000010100 <
b0000000000000000000 >
b0011000101000001000000000000000100000000000000000000000000000000100000000000000000000000000000000010000000000000000000000000000000000000000000000000000000000000100000101000001000000000001000 A
b00000000000000000000000000001000 G
b00000000000000000000000000000010 H
b00000000000000000000000000000010 I
b00000000000000000000000000000110 J
b000110000000000010010000000000000000000000000000100000000000000000000000000000000000000000000000000000000000000000000011000000000000001000 L
b00000000000000000000000000001000 Q
b00000000000000000000000000001000 S
b0011100000000000000000000000000000000000000000000000000000000000000000000000000 W
1z
b00000000 |
b00000000000000000000000000000000 }
b00000000000000000000000000000000 ~
#315
0z
#318
#320
b0011000 /
b00110000000000000000011000000101 0
b0000110 1
b00000000000000000000000000000010 3
b00 4
b00 :
b10 ;
b000000000000000000000000000000000011000 <
b00000000000000000000000000001000 ?
b00000000000000000000000000000110 @
b0000000000000000000000000000000101000000000000000000000000000000000000000000000000000000000000000000000000000000000000000000000000000000000000000000000000000000000000000000000000000000000000 A
b00000000000000000000000000000000 G
b00000000000000000000000000000000 H
b00000000000000000000000000000000 I
b00000000000000000000000000000000 J
1K
b001000000000000000000000000000000000000000000000011000000000000000000000000000000010000000000000000000000000000000000010101000000000001000 L
b00000000000000000000000000000110 Q
b00000000000000000000000000000110 S
1T
1U
b0001100101000000000000000000000000000000000000000000000000000000000000100000110 W
1z
#325
0z
#328
#330
b0001000 /
b00110000000000000000100000000011 0
b0000000 1
b00000000000000000000000000000000 3
09
b00 ;
b000000000000000000000000000000000011100 <
b00000000000000000000000000000000 ?
b00000000000000000000000000000101 @
b0000000000000000000000000000000110000000000000000000000000000000000000000000000000000000000000000000000000000000000000000000000000000000000000000000000000000000000000000000000000000000000000 A
b001010000000000000000000000000000000000000000000000000000000000000000000000000000000000000000000000000000000000000000000010000000000000000 L
b00000000000000000000000000000000 Q
b00000000000000000000000000000000 S
0T
0U
b0010000000000000000000000000000000000000000000000000000000000000000000011000101 W
1z
#335
0z
#338
#340
b01 &
1'
b01 )
b0001100 /
b00101001100000000000100001000001 0
b001100000000000000001000000000110001100 <
b0000000000000001000 >
b00000000000000000000000000000000 @
b0000000000000000000000000000000111000000000000000000000000000000000000000000000000000000000000000000000000000000000000000000000000000000000000000000000000000000000000000000000000000000000000 A
b001100000000000000000000000000000000000000000000000000000000000000000000000000000000000000000000000000000000000000000000010000000000000000 L
b0010100000000000000000000000000000000000000000000000000000000000000000000000000 W
1z
b00000011 |
#345
0z
#348
#350
b00 &
0'
b0001 (
b00 )
1+
b10 -
b0010000 /
b00000000000000000000000000000000 0
19
b001010011000000000001000010000010010000 <
b0011000000000001000 >
b0000000000010000000100000000100011000000000000000000000000000000000000000000000000000000000000000000000000000000000000000000000000000000000000000000000000000000100000110000000000000000001000 A
b00000000000000000000000000001000 H
b00000000000000000000000000001000 I
b00000000000000000000000000001000 J
0K
b001110000000000000000000000000000000000000000000000000000000000000000000000000000000000000000000000000000000000000000000010000000000000000 L
b0011000000000000000000000000000000000000000000000000000000000000000000000000000 W
1z
b01000001 |
b00000000000000000000000000001000 }
b00000000000000000000000000000010 ~
#355
0z
#358
#360
b0000 (
0+
b00 -
b0010100 /
b00010000000000000000000000000100 0
b0001000 1
b10 4
b10 :
b000000000000000000000000000000000010100 <
b0000000000000000000 >
b0011000101000001000000000000000100000000000000000000000000000000100000000000000000000000000000000010000000000000000000000000000000000000000000000000000000000000100000101000001000000000001000 A
b00000000000000000000000000001000 G
b00000000000000000000000000000010 H
b00000000000000000000000000000010 I
b00000000000000000000000000000110 J
b000110000000000010010000000000000000000000000000100000000000000000000000000000000000000000000000000000000000000000000011000000000000001000 L
b00000000000000000000000000001000 Q
b00000000000000000000000000001000 S
b0011100000000000000000000000000000000000000000000000000000000000000000000000000 W
1z
b00000000 |
b00000000000000000000000000000000 }
b00000000000000000000000000000000 ~
